<?xml version="1.0" encoding="UTF-8" standalone="no"?>
<!-- Created with Inkscape (http://www.inkscape.org/) -->

<svg
   xmlns:dc="http://purl.org/dc/elements/1.1/"
   xmlns:cc="http://creativecommons.org/ns#"
   xmlns:rdf="http://www.w3.org/1999/02/22-rdf-syntax-ns#"
   xmlns:svg="http://www.w3.org/2000/svg"
   xmlns="http://www.w3.org/2000/svg"
   xmlns:xlink="http://www.w3.org/1999/xlink"
   xmlns:sodipodi="http://sodipodi.sourceforge.net/DTD/sodipodi-0.dtd"
   xmlns:inkscape="http://www.inkscape.org/namespaces/inkscape"
   width="131.04407"
   height="131.14632"
   id="svg10719"
   version="1.1"
   inkscape:version="0.48.4 r9939"
   sodipodi:docname="best.svg">
  <defs
     id="defs10721" />
  <sodipodi:namedview
     id="base"
     pagecolor="#ffffff"
     bordercolor="#666666"
     borderopacity="1.0"
     inkscape:pageopacity="0.0"
     inkscape:pageshadow="2"
     inkscape:zoom="2.1744515"
     inkscape:cx="58.472666"
     inkscape:cy="23.596339"
     inkscape:document-units="px"
     inkscape:current-layer="layer1"
     showgrid="false"
     fit-margin-top="0"
     fit-margin-left="0"
     fit-margin-right="0"
     fit-margin-bottom="0"
     inkscape:window-width="1278"
     inkscape:window-height="782"
     inkscape:window-x="0"
     inkscape:window-y="16"
     inkscape:window-maximized="0"
     showguides="true"
     inkscape:guide-bbox="true" />
  <metadata
     id="metadata10724">
    <rdf:RDF>
      <cc:Work
         rdf:about="">
        <dc:format>image/svg+xml</dc:format>
        <dc:type
           rdf:resource="http://purl.org/dc/dcmitype/StillImage" />
        <dc:title />
      </cc:Work>
    </rdf:RDF>
  </metadata>
  <g
     inkscape:label="Layer 1"
     inkscape:groupmode="layer"
     id="layer1"
     transform="translate(-117.50236,-587.90756)">
    <path
       sodipodi:type="arc"
       style="fill:none;stroke:#000000;stroke-width:2.10737872;stroke-linecap:round;stroke-miterlimit:4;stroke-opacity:1;stroke-dasharray:none;stroke-dashoffset:0"
       id="path10727"
       sodipodi:cx="263.28677"
       sodipodi:cy="587.65759"
       sodipodi:rx="145.04834"
       sodipodi:ry="130.61224"
       d="m 408.33511,587.65759 c 0,72.13515 -64.94035,130.61225 -145.04834,130.61225 -80.10798,0 -145.04834,-58.4771 -145.04834,-130.61225 0,-72.13515 64.94036,-130.61224 145.04834,-130.61224 80.10799,0 145.04834,58.47709 145.04834,130.61224 z"
       transform="matrix(0.44849308,0,0,0.49806339,64.944578,360.79065)" />
    <path
       style="fill:none;stroke:#000000;stroke-width:0.69999999;stroke-linecap:butt;stroke-linejoin:miter;stroke-miterlimit:4;stroke-opacity:1;stroke-dasharray:none"
       d="m 157.25795,691.57165 c 1.57563,-2.73338 3.93929,-5.1176 5.70215,-7.81977"
       id="path11300"
       inkscape:connector-curvature="0" />
    <path
       style="fill:#000000"
       d="m 169.77621,708.19222 c 0,-0.15273 -0.18283,-0.52662 -0.1125,-0.70027 0.0703,-0.17363 0.18953,-0.61342 0.23218,-0.81402 0.094,-0.44236 1.67666,-2.1416 1.91213,-2.12645 0.13253,0.008 0.1324,0.69505 -5.5e-4,0.74885 -0.43895,0.1776 -1.48182,1.6132 -1.48768,2.30845 -0.002,0.25258 0.0912,0.43682 0.93256,-0.31961 0.73577,-0.66151 1.10866,-1.75895 1.10866,-2.62618 0,-0.24666 0.0978,-0.22523 0.18462,-0.2789 0.25329,-0.15655 0.27895,1.53146 -0.0702,2.25241 -0.3131,0.64642 -1.25684,1.70814 -1.80216,1.87329 -0.24956,0.0756 -0.89698,-0.0935 -0.89698,-0.31759 z"
       id="path14104"
       inkscape:connector-curvature="0"
       sodipodi:nodetypes="ccccccssccccc" />
    <path
       style="fill:#000000"
       d="m 177.29602,707.27038 c -0.6333,-1.25984 -1.01554,-1.84959 -2.3534,-3.49987 -1.26465,-1.55996 -1.71775,-1.99545 -3.0536,-2.92138 -0.55992,-0.3881 -0.57638,-0.91936 -0.49371,-0.91936 0.20649,0 2.29353,0.85084 2.859,1.37873 0.60352,0.5634 2.05717,3.13986 2.75914,4.18781 0.58074,0.86696 1.33188,2.40362 1.22645,2.50904 -0.034,0.034 -0.66448,-0.17917 -0.94388,-0.73497 z"
       id="path14102"
       inkscape:connector-curvature="0" />
    <path
       style="fill:#000000"
       d="m 193.0045,707.43221 c 0,-0.7047 -0.88286,-4.21488 -1.47213,-5.85309 -0.96652,-2.68702 -1.57734,-3.93165 -1.67659,-4.44167 -0.13798,-0.709 0.47287,-0.78749 0.84925,0.36553 0.18581,0.56921 0.70623,2.0408 1.09118,3.07426 0.38496,1.03348 1.07317,2.86648 1.26814,3.6815 0.83205,3.47816 0.32047,3.50542 0.0776,3.50542 -0.0756,0 -0.13744,-0.14937 -0.13744,-0.33195 z"
       id="path14100"
       inkscape:connector-curvature="0" />
    <path
       style="fill:#000000"
       d="m 185.71356,705.53911 c -0.19913,-0.51892 2.27743,-2.39949 3.5411,-2.98589 0.89752,-0.41649 1.20393,0.0518 0.33186,0.4934 -0.44183,0.22371 -1.65167,0.78251 -1.87802,0.94368 -0.42788,0.30469 -1.53812,0.98904 -1.53812,1.22591 0,0.23347 1.08919,-0.0851 1.99678,-0.4812 1.13956,-0.49743 1.42757,-0.93614 2.10599,-1.83468 0.57465,-0.76112 1.12644,-0.66767 0.66661,0.0345 -0.63827,0.9746 -1.63892,1.77762 -2.74547,2.20327 -1.41499,0.54429 -2.36672,0.69815 -2.48073,0.40105 z"
       id="path14098"
       inkscape:connector-curvature="0"
       sodipodi:nodetypes="csccscscscc" />
    <path
       style="fill:#000000"
       d="m 165.19327,702.93536 c -0.54321,-0.31577 -1.05431,-2.01768 -0.70122,-2.78053 0.0858,-0.18542 0.46424,-0.0373 0.41891,0.61167 -0.11736,1.67804 0.4436,1.97542 1.58154,1.46227 0.68605,-0.30935 0.40615,-0.28015 0.38946,-1.4468 -0.007,-0.5337 0.47937,-0.8522 0.55818,-0.8522 0.18013,0 0.17476,1.43912 -0.008,2.09664 -0.10994,0.39588 -0.26847,0.57985 -0.68098,0.7903 -0.5914,0.30172 -1.16758,0.34558 -1.55799,0.11865 z"
       id="path14096"
       inkscape:connector-curvature="0" />
    <path
       style="fill:#000000"
       d="m 148.40344,701.50278 c -0.22678,-0.18773 -0.72363,-0.51865 -1.1041,-0.73535 -0.99023,-0.564 -1.07208,-0.69616 -0.73566,-1.18767 0.15282,-0.22327 0.5005,-0.86982 0.77262,-1.43678 l 0.49477,-1.03085 -0.0322,-1.92422 c -0.0313,-1.87591 0.29097,-5.22959 0.52585,-5.47108 0.0968,-0.0995 1.10075,0.0857 2.51835,0.46459 0.28348,0.0758 0.51542,0.1957 0.51542,0.26651 0,0.0787 -0.13717,0.0765 -0.35256,-0.005 -0.19391,-0.0737 -0.42585,-0.13303 -0.51543,-0.13181 -0.0896,0.001 0.63761,0.32372 1.61596,0.71663 1.54599,0.62087 1.89232,0.82054 2.64583,1.52541 0.47685,0.44609 0.867,0.87934 0.867,0.9628 0,0.0834 -0.35563,-0.19568 -0.7903,-0.62032 -0.66374,-0.64842 -1.71865,-1.34975 -2.03021,-1.34975 -0.11798,0 0.98108,0.93704 1.82787,1.55841 0.39543,0.29017 0.68675,0.57968 0.64739,0.64337 -0.0394,0.0637 8.3e-4,0.16056 0.0893,0.21526 0.10052,0.0621 0.12411,0.0398 0.0629,-0.0593 -0.15312,-0.24775 0.13711,-0.18614 0.34802,0.0738 0.16081,0.19826 0.16003,0.21532 -0.005,0.11563 -0.10669,-0.0643 0.13628,0.2014 0.53995,0.59049 0.77502,0.74702 1.01901,0.86036 0.53931,0.2505 -0.15779,-0.20059 -0.26689,-0.46803 -0.24246,-0.59429 0.0257,-0.13285 0.27231,0.2135 0.58537,0.82215 0.48975,0.95218 0.58532,1.4823 0.19729,1.09426 -0.10912,-0.10913 -0.59081,0.20606 -1.75013,1.14517 -1.57902,1.12702 -3.56433,1.55662 -4.52029,2.74285 -0.20789,0.13523 -0.78684,0.57529 -1.28657,0.97793 -0.49972,0.40261 -0.93268,0.72982 -0.96211,0.7271 -0.0295,-0.003 -0.23908,-0.15855 -0.46586,-0.34629 z"
       id="path14094"
       inkscape:connector-curvature="0" />
    <path
       style="fill:#000000"
       d="m 150.14728,690.2147 c -0.0992,-0.0397 -0.21777,-0.0349 -0.26343,0.0109 -0.0457,0.0457 0.0355,0.0782 0.18039,0.0722 0.16011,-0.006 0.19269,-0.0392 0.083,-0.083 z"
       id="path14092"
       inkscape:connector-curvature="0" />
    <path
       style="fill:#000000"
       d="m 216.57639,701.3663 c -0.30239,-0.26219 -0.8745,-0.70296 -1.27137,-0.97947 -1.91655,-1.44637 -3.77765,-2.12215 -5.07138,-3.15889 -1.00618,-0.8096 -1.43507,-1.07951 -1.54331,-0.97126 -0.28022,0.2802 -0.32882,-0.0262 -0.087,-0.54844 0.35432,-0.76519 0.77863,-1.43808 0.85725,-1.35947 0.0378,0.0378 -0.0671,0.28846 -0.23306,0.55701 -0.16598,0.26856 -0.25034,0.48505 -0.18748,0.48109 0.17923,-0.0113 1.49366,-1.66555 1.44713,-1.82126 -0.0544,-0.18205 1.007,-1.27493 1.62295,-1.67111 0.26497,-0.17043 1.19273,-0.59608 2.06168,-0.94591 0.86895,-0.34983 1.50663,-0.63694 1.41706,-0.63803 -0.0896,-10e-4 -0.32152,0.0583 -0.51543,0.13207 -0.21538,0.0819 -0.35255,0.084 -0.35255,0.005 0,-0.0708 0.23193,-0.19073 0.51542,-0.2665 1.41759,-0.37889 2.42155,-0.56412 2.51835,-0.46459 0.23458,0.2412 0.55722,3.59537 0.52626,5.47107 -0.0316,1.91702 -0.0301,1.92784 0.41936,2.88635 0.24811,0.52917 0.56756,1.12629 0.70988,1.32695 0.14232,0.20066 0.25877,0.46316 0.25877,0.58333 0,0.16367 -1.95475,1.60901 -2.47402,1.82931 -0.0378,0.016 -0.31613,-0.18537 -0.61851,-0.44756 z"
       id="path14090"
       inkscape:connector-curvature="0" />
    <path
       style="fill:#000000"
       d="m 210.8027,693.88374 c 0.0482,-0.0779 -0.007,-0.10093 -0.12933,-0.054 -0.23811,0.0914 -0.28168,0.1899 -0.084,0.1899 0.0711,0 0.16713,-0.0611 0.21331,-0.13588 z"
       id="path14088"
       inkscape:connector-curvature="0" />
    <path
       style="fill:#000000"
       d="m 212.1117,692.5823 c 0.67511,-0.52379 1.20432,-0.97547 1.17603,-1.00376 -0.14285,-0.14286 -1.46826,0.7188 -2.07171,1.34685 -0.90184,0.93855 -0.6143,0.82842 0.89568,-0.34309 z"
       id="path14086"
       inkscape:connector-curvature="0" />
    <path
       style="fill:#000000"
       d="m 192.31726,700.63013 c 0,-0.0684 0.27128,-0.49474 0.66816,-0.71886 1.01978,-0.57594 2.01749,-1.45001 2.64166,-2.4135 0.65566,-1.01209 0.51802,-0.95882 -0.60837,-0.27615 -0.72734,0.44081 -1.45788,1.50389 -1.9159,2.38961 -0.26692,0.51616 -0.5549,0.4528 -0.36917,-0.0358 0.2667,-0.70146 1.39411,-2.10956 2.02209,-2.52553 0.65713,-0.43527 1.6262,-0.79833 1.76375,-0.66079 0.15627,0.15628 -0.6778,1.54738 -1.36419,2.27529 -0.59819,0.63436 -2.52258,2.08994 -2.7631,2.08994 -0.0413,0 -0.075,-0.0559 -0.075,-0.12431 z"
       id="path14084"
       inkscape:connector-curvature="0" />
    <path
       style="fill:#000000"
       d="m 168.3674,700.12604 c -0.20789,-0.11278 -0.37799,-0.29585 -0.37799,-0.40683 0,-0.15304 0.19997,-0.42923 0.40846,-0.22076 0.16797,0.16797 0.45816,0.3016 0.74599,0.3016 0.62383,0 0.64009,-0.272 0.64009,-1.03866 0,-0.47354 0.0478,-0.39661 -0.45229,-0.87574 -0.77614,-0.74367 -0.63582,-1.38419 0.39918,-1.67195 0.97243,-0.27036 1.20611,-0.38667 1.20611,-0.93089 0,-0.54195 -0.20635,-0.46657 -1.1563,-0.3878 -0.68465,0.0568 -0.69096,0.035 -1.12184,0.55374 -0.26104,0.31426 -0.60953,0.35764 -0.67648,0.35764 -0.25046,0 0.0752,-0.50723 0.85156,-1.32626 0.90682,-0.95666 0.91268,-1.22738 0.69707,-1.63027 -0.18112,-0.33841 -0.0265,-0.54759 -0.58083,-0.17042 -0.68995,0.46959 -0.94842,0.90991 -1.10932,1.88988 -0.20821,1.26807 -0.22383,1.30377 -0.47803,1.09281 -0.11607,-0.0964 -0.29101,-0.21155 -0.22547,-0.256 0.0656,-0.0445 0.11519,-0.67411 0.24097,-1.20328 0.19898,-0.83709 0.55152,-1.19831 1.10321,-1.70654 0.34875,-0.32128 1.14437,-0.53072 1.31092,-0.53072 0.81075,0 0.47676,1.26588 -0.29961,2.12266 -0.24643,0.27193 -0.24041,0.27496 0.55768,0.27956 0.9313,0.005 1.37512,0.2926 1.37512,0.88997 0,0.56733 -0.0622,1.15051 -1.01326,1.41736 -0.46335,0.13001 -0.94931,0.25609 -0.94931,0.31282 0,0.0568 0.14055,0.19029 0.44292,0.49268 0.5003,0.50029 0.52306,0.74762 0.52306,1.39732 0,0.60586 -0.30123,0.72137 -0.64219,1.0623 -0.44341,0.44343 -0.84701,0.49622 -1.41939,0.1857 z"
       id="path14082"
       inkscape:connector-curvature="0" />
    <path
       style="fill:#000000"
       d="m 175.13658,700.12404 c 0,-0.0766 -0.15642,-0.19817 -0.0863,-0.26999 0.16079,-0.16476 0.91098,-2.2588 0.91098,-2.72163 0,-0.37396 -0.24668,-0.85813 -0.33911,-0.7657 -0.0845,0.0845 -0.35011,1.81921 -0.36274,2.21518 -0.006,0.1953 -0.36457,0.28674 -0.40817,0.17664 -0.0422,-0.10651 -0.0771,-0.93874 0.021,-1.58817 0.22978,-1.5267 0.87586,-1.91365 1.20055,-1.20101 0.0877,0.19254 0.2386,0.90809 0.23731,1.26361 -0.003,0.82217 -0.67819,2.53517 -0.95907,2.81604 -0.11793,0.11793 -0.21442,0.15169 -0.21442,0.0751 z"
       id="path14080"
       inkscape:connector-curvature="0" />
    <path
       style="fill:#000000"
       d="m 163.04755,699.32518 c -0.49819,-0.71127 0.0125,-1.79429 1.15314,-2.30619 1.10244,-0.49473 1.41664,-0.009 0.33445,0.50831 -0.96552,0.46148 -1.23971,0.79953 -0.9965,1.33335 0.15673,0.34396 0.48936,0.38106 0.93283,0.2651 0.14998,-0.0392 0.21926,0.19842 0.21926,0.26702 0,0.0686 -0.3126,0.23791 -0.64849,0.23791 -0.96075,0.36397 -0.85441,0.12276 -0.99469,-0.3055 z"
       id="path14078"
       inkscape:connector-curvature="0" />
    <path
       style="fill:#000000"
       d="m 167.23795,698.33288 c 0.76956,-1.58868 0.43258,-1.54066 -0.46744,-0.18515 -0.27606,0.41577 -0.38731,0.13256 -0.45501,0.13256 -0.0677,0 0.12362,-0.36334 0.4252,-0.80743 0.78875,-1.16148 1.23633,-1.25677 1.27338,-0.27112 0.018,0.47753 -0.46932,1.64489 -0.80177,1.92079 -0.095,0.0789 -0.19749,-0.32841 0.0256,-0.78965 z"
       id="path14076"
       inkscape:connector-curvature="0" />
    <path
       style="fill:#000000"
       d="m 165.67025,696.21543 c -0.80725,-0.58478 -1.62422,-1.17287 -1.33973,-1.96307 l 0.25703,-0.71393 0.23905,0.77652 c 0.29669,0.96378 0.52098,1.02815 1.76915,1.89821 0.0315,0.0219 -0.24115,0.31163 -0.27955,0.35003 -0.0384,0.0384 -0.32901,-0.11816 -0.64596,-0.34776 z"
       id="path14074"
       inkscape:connector-curvature="0" />
    <path
       style="fill:#000000"
       d="m 188.10383,696.62344 c -0.0756,-0.0285 -0.30217,-0.088 -0.5035,-0.13216 -0.54958,-0.12067 -1.5283,-1.50517 -1.84449,-2.60924 -0.14302,-0.49941 -0.30721,-0.90802 -0.36485,-0.90802 -0.13387,0 -0.25122,-1.72489 -0.11253,-2.07965 0.0721,-0.18433 0.3977,-0.7423 0.45854,-0.0873 0.1365,1.46947 0.86242,3.9507 1.61273,4.70836 0.686,0.6927 0.5983,0.65167 1.70232,0.49782 1.086,-0.15133 1.39945,-0.49042 1.66721,-1.92332 0.0813,-0.43518 -0.1118,-1.07597 -0.0367,-1.23932 0.11442,-0.68042 0.12215,-1.44908 -0.19766,-2.06046 0,0.35712 -1.15851,1.08349 -1.7834,1.27072 -0.60642,0.18169 -1.46194,0.11706 -1.99113,-0.14856 -0.37323,-0.18733 -1.1494,-1.15866 -1.1494,-1.32975 0,-0.0761 0.23194,-0.083 0.51543,0.19238 0.61957,0.60196 1.0428,0.81091 1.88332,0.81091 1.13643,0 2.17498,-0.71109 2.46404,-1.93923 0.0826,-0.35115 -0.0851,-0.23322 -0.75796,-0.43303 -1.35878,-0.40351 -2.40116,-0.14612 -3.56906,0.74429 -0.41161,0.31396 -0.73093,0.18982 -0.5962,-0.062 0.0838,-0.15646 0.73944,-0.68834 1.22622,-0.92798 0.80897,-0.39825 1.12845,-0.46918 2.10941,-0.42317 0.73801,0.0346 1.22343,0.3276 1.5957,0.52218 0.53082,0.27743 0.8743,0.69465 0.43224,0.52501 -0.27689,-0.10626 -0.28086,0.16506 -0.0103,0.68437 0.71235,1.36589 0.80982,3.79185 0.1965,4.89013 -0.49854,0.89271 -1.14725,1.34593 -2.05348,1.43469 -0.41576,0.0408 -0.8178,0.0508 -0.89339,0.0222 z"
       id="path14072"
       inkscape:connector-curvature="0" />
    <path
       style="fill:#000000"
       d="m 187.1417,690.61863 c -0.56315,-0.33574 -0.62748,-0.70773 -0.1718,-0.99345 0.38514,-0.24149 1.52899,-0.4379 1.52899,-0.26798 0,0.0691 -0.38712,0.29199 -0.69865,0.33378 -0.70108,0.094 -0.85273,0.11816 -0.64642,0.44685 0.34103,0.54337 1.38879,0.5057 1.67487,-0.0289 0.11222,-0.20968 0.0998,-0.19497 -0.12937,-0.42413 -0.25912,-0.25913 -0.11236,-0.3042 0.11082,-0.26123 0.38266,0.0737 0.57265,0.74972 0.29012,1.03225 -0.28273,0.28274 -1.57686,0.39028 -1.95851,0.16275 z"
       id="path14066"
       inkscape:connector-curvature="0" />
    <path
       style="fill:#000000"
       d="m 185.46875,638.54677 c -0.0791,0.008 -0.13589,0.0148 -0.21875,0.0937 -0.0414,0.0395 -0.0653,0.12306 -0.0625,0.1875 0.003,0.0644 0.006,0.09 0.0313,0.125 0.0993,0.14002 0.24555,0.21456 0.5,0.34375 0.0104,8.8e-4 0.0209,8.8e-4 0.0313,0 1.20835,0.52307 2.52032,1.13709 3.6875,1.625 0.0126,0.0201 0.0186,0.0167 0.0313,0.0313 0.0202,0.008 0.0424,0.0229 0.0625,0.0313 0.0151,0.0149 0.0131,0.0461 0.0313,0.0625 0.0725,0.0655 0.19179,0.16214 0.3125,0.25 0.24141,0.17573 0.54309,0.35951 0.90625,0.53125 0.98457,0.4561 2.44313,1.29373 3.78125,2.0625 3.96128,2.44314 2.34227,1.43726 5.03155,1.03075 1.44964,-0.1764 3.85774,-0.35168 7.71875,-0.40625 1.30504,-0.0184 2.57157,-0.0606 3.5625,-0.0937 0.30978,-0.0104 0.5318,-0.0201 0.78125,-0.0313 -0.18452,0.014 -0.40082,0.0543 -0.6875,0.0937 -0.65029,0.0895 -1.53888,0.24058 -2.46875,0.53125 -4.90667,1.53411 -10.6351,3.20891 -16.75,1.25 -0.0104,-8.8e-4 -0.0209,-8.8e-4 -0.0313,0 -0.0104,-8.8e-4 -0.0209,-8.8e-4 -0.0313,0 -0.0972,0 -0.20774,-0.0212 -0.34375,0 -0.068,0.0106 -0.1256,0.0366 -0.1875,0.0937 -0.0519,0.0479 -0.0961,0.11838 -0.125,0.1875 -0.003,0.008 0.003,0.0232 0,0.0313 -0.002,0.006 -0.0292,-0.006 -0.0313,0 -0.18525,0.39274 -0.32547,0.99441 -0.5,1.3125 -8.8e-4,0.0104 -8.8e-4,0.0209 0,0.0313 -0.0452,0.10464 -0.13888,0.35268 -0.28125,0.78125 -0.14237,0.42857 -0.33523,0.98883 -0.53125,1.59375 -0.36712,1.13295 -0.77497,2.36192 -1.03125,3.1875 -1.7e-4,1.4e-4 1.9e-4,0.031 0,0.0313 -3.9e-4,4.7e-4 -0.0274,0.0241 -0.0313,0.0313 -0.004,0.007 0.002,0.0266 0,0.0313 -0.002,0.005 -0.0298,-0.004 -0.0313,0 -0.0163,0.0418 -0.0192,0.0773 -0.0313,0.125 -0.012,0.0477 -0.0165,0.0942 -0.0313,0.15625 -0.0295,0.12412 -0.0683,0.24968 -0.0937,0.34375 -0.0175,0.0586 -0.0788,0.26001 -0.0937,0.3125 -0.005,0.0159 0.0283,0.0393 0.0313,0.0625 10e-4,0.0101 -0.002,0.0207 0,0.0313 -0.10854,0.42171 -0.24118,0.87981 -0.34375,1.28125 -0.0524,0.20529 -0.0914,0.37825 -0.125,0.53125 -0.0336,0.153 -0.06,0.27873 -0.0625,0.375 -0.006,0.23012 -0.0906,0.7847 -0.125,1.375 -0.0344,0.5903 -0.0328,1.22063 0.25,1.65625 0.71929,1.1194 0.88463,1.25275 1.3125,2.6875 0.66271,1.72135 1.30126,3.79843 2.125,5.59375 l -0.0313,0 c 0.13203,0.40842 0.25263,0.78594 0.34375,1.09375 0.0456,0.1539 0.0999,0.30689 0.125,0.40625 0.0251,0.0994 0.0313,0.1769 0.0313,0.15625 0,0.0911 0.0356,0.1545 0.0625,0.25 0.0269,0.0955 0.0529,0.21068 0.0937,0.34375 0.0818,0.26614 0.17312,0.57879 0.25,0.90625 0.025,0.10632 0.0719,0.17267 0.0937,0.21875 0.0135,0.0284 0.0216,0.0685 0.0313,0.0937 -0.009,0.0181 -0.018,0.0217 -0.0313,0.0625 -0.025,0.0771 -0.0226,0.20835 0.0313,0.3125 0.0762,0.14735 0.27055,0.6254 0.5,1.28125 0.22945,0.65585 0.49403,1.49192 0.78125,2.375 0.57444,1.76615 1.1754,3.75003 1.5,4.90625 0.23631,0.84172 0.94345,2.1319 1.28125,3.125 0.17055,0.5107 0.62801,2.17085 0.875,3.28125 -0.35143,-0.80219 -0.85423,-1.2143 -1.3125,-1.6875 -0.069,-0.0712 -0.23043,-0.37074 -0.4375,-0.75 -0.20707,-0.37926 -0.47318,-0.85335 -0.75,-1.3125 -0.55341,-0.91794 -1.32738,-1.99298 -1.625,-2.46875 -0.28894,-0.4619 -0.8971,-1.73892 -1.375,-2.6875 -0.66196,-1.31386 -1.27526,-2.4556 -1.78125,-3.3125 -0.253,-0.42845 -0.48082,-0.79278 -0.65625,-1.0625 -0.17543,-0.26972 -0.31722,-0.43247 -0.40625,-0.53125 -0.008,-0.009 -0.0489,-0.0925 -0.125,-0.21875 -0.0761,-0.12628 -0.17384,-0.30514 -0.28125,-0.5 -0.21483,-0.38973 -0.49743,-0.89835 -0.75,-1.40625 -0.93788,-1.88599 -1.47999,-2.93249 -2.40625,-4.0625 -0.26504,-0.32335 -1.44093,-1.86546 -1.65625,-2.25 -0.1497,-0.26735 -0.37267,-0.36896 -0.5625,-0.375 -0.0949,-0.003 -0.18559,0.01 -0.25,0.0313 -0.0322,0.0106 -0.0693,0.0188 -0.0937,0.0313 -0.0244,0.0124 -0.0246,0.0246 -0.0625,0.0625 -7.1e-4,7.1e-4 -0.0235,0.0175 -0.0313,0.0313 -0.008,0.0137 -0.0276,0.0199 -0.0313,0.0313 -0.007,0.0226 9.2e-4,0.0478 0,0.0625 -0.002,0.0294 -0.003,0.043 0,0.0625 0.006,0.0391 0.0177,0.0829 0.0313,0.125 0.006,0.0174 0.0245,0.0433 0.0313,0.0625 -0.003,-0.005 -0.0158,0.0154 -0.0313,0 -0.005,-0.0127 0.008,-0.046 0,-0.0625 -0.0251,-0.0551 -0.0579,-0.1197 -0.125,-0.1875 -0.0671,-0.0678 -0.21882,-0.10937 -0.34375,-0.0625 -0.12493,0.0469 -0.19436,0.13577 -0.28125,0.28125 -0.29729,0.4978 -1.31208,1.99424 -1.71875,2.5 -0.48362,0.60147 -1.32731,1.98392 -2,3.3125 -1.4736,2.88385 -2.96383,5.19489 -4.375,8.3125 -0.004,0.009 0.004,0.0223 0,0.0313 -0.77207,1.44698 -1.70573,2.82815 -2.5625,4.25 -0.55408,0.91817 -1.09913,2.17958 -1.84375,3.15625 -8.8e-4,0.0104 -8.8e-4,0.0209 0,0.0313 -0.11142,0.19586 -0.097,0.18456 -0.1875,0.34375 0.26769,-0.83717 0.56937,-1.84885 0.75,-3.0625 0.002,-0.0103 -0.002,-0.021 0,-0.0313 0.67902,-1.92375 1.45559,-3.9827 1.84375,-5.875 0.002,-0.01 -0.002,-0.0217 0,-0.0313 0.19257,-0.53613 0.34964,-1.44681 0.5,-1.9375 0.0775,-0.25305 0.29463,-0.96304 0.53125,-1.65625 0.23662,-0.69321 0.49261,-1.36927 0.5625,-1.59375 0.17849,-0.57331 0.23664,-0.97028 0.25,-1.25 0.0106,-0.22148 -0.0316,-0.3467 -0.0625,-0.46875 0.003,-0.009 -0.003,-0.0217 0,-0.0313 0.0656,-0.18749 0.14577,-0.36595 0.21875,-0.53125 0.0383,-0.0868 0.0668,-0.17752 0.0937,-0.25 0.0269,-0.0725 0.0625,-0.13217 0.0625,-0.21875 0,0.0227 0.006,-0.08 0.0313,-0.1875 0.0255,-0.10749 0.0778,-0.23811 0.125,-0.40625 0.0944,-0.33629 0.22615,-0.77036 0.375,-1.21875 0.53608,-1.63267 0.59131,-3.36733 1.46875,-4.96875 0.0116,-0.009 0.0222,-0.0197 0.0313,-0.0313 0.18359,-0.44008 0.73585,-1.4407 0.96875,-2.15625 0.35339,-1.08574 0.56446,-1.56323 0.875,-2.75 0.0199,-0.0281 0.0231,-0.038 0.0313,-0.0625 0.0115,-0.0348 0.0279,-0.0603 0.0313,-0.0937 0.006,-0.0571 0.004,-0.11722 0,-0.1875 -0.008,-0.14056 -0.0266,-0.3199 -0.0625,-0.53125 -0.0717,-0.42269 -0.21997,-1.00526 -0.375,-1.65625 -0.30805,-1.29355 -0.73201,-2.93581 -1.15625,-4.5 -0.002,-0.01 0.002,-0.0213 0,-0.0313 -0.14929,-0.63604 -0.20621,-1.2225 -0.40625,-1.90625 -0.14854,-0.48299 -0.26456,-0.63888 -0.375,-0.90625 -0.0514,-0.17201 -0.16651,-0.50964 -0.25,-0.8125 -0.0417,-0.15143 -0.0618,-0.29354 -0.0937,-0.40625 -0.0319,-0.11271 -0.0402,-0.16215 -0.0625,-0.21875 -0.10842,-0.27556 -0.35839,-0.44778 -0.5625,-0.5 -0.0425,-0.005 -0.0723,-1.5e-4 -0.0625,0 -0.21225,10e-4 -0.81072,0.0553 -1.59375,0.15625 -0.78303,0.10091 -1.72526,0.24387 -2.65625,0.46875 -0.57704,0.11108 -1.41758,0.21734 -2.125,0.40625 -1.41004,0.46833 -4.45901,0.10127 -10.78125,-1.875 -0.91382,-0.28566 -1.754,-0.53572 -2.375,-0.71875 -0.12967,-0.0382 -0.20366,-0.0625 -0.3125,-0.0937 0.17932,0.007 0.20093,0.0247 0.40625,0.0313 0.99416,0.0317 2.26364,0.0457 3.5625,0.0625 1.13686,0.0125 2.77609,0.22061 4.4375,0.40625 1.64955,0.18431 3.32681,0.34619 4.59375,0.21875 0.0146,1e-4 0.0174,3.5e-4 0.0313,0 0.1623,-0.004 0.26865,-0.0439 0.34375,-0.0937 0.0115,0.01 0.0195,0.0253 0.0313,0.0313 0.0614,0.0312 0.1072,0.0326 0.15625,0.0313 0.0981,-0.003 0.20842,-0.0152 0.34375,-0.0625 0.27067,-0.0945 0.64929,-0.28181 1.15625,-0.59375 2.42362,-1.4913 3.76636,-2.21354 5.15625,-2.90625 1.5564,-0.79157 4.12056,-1.29627 5.84375,-2.5 0.0116,-0.009 0.0222,-0.0197 0.0313,-0.0313 0.0116,-0.009 0.0222,-0.0197 0.0313,-0.0313 0.0116,-0.009 0.0222,-0.0197 0.0313,-0.0313 8.8e-4,-0.0104 8.8e-4,-0.0209 0,-0.0313 8.8e-4,-0.0104 8.8e-4,-0.0209 0,-0.0313 8.8e-4,-0.0104 8.8e-4,-0.0209 0,-0.0313 8.8e-4,-0.0104 8.8e-4,-0.0209 0,-0.0313 -0.009,-0.0116 -0.0197,-0.0222 -0.0313,-0.0313 -0.009,-0.0116 -0.0197,-0.0222 -0.0313,-0.0313 -0.009,-0.0116 -0.0197,-0.0222 -0.0313,-0.0313 -0.009,-0.0116 -0.0197,-0.0222 -0.0313,-0.0313 -0.0104,-8.8e-4 -0.0209,-8.8e-4 -0.0313,0 -0.0948,-0.008 -0.2931,-0.0146 -0.59375,0 -0.30065,0.0146 -0.70782,0.0667 -1.125,0.125 -0.80975,0.11316 -1.71492,0.3068 -2.3125,0.75 -0.0182,0.0135 -0.0449,0.0173 -0.0625,0.0313 -0.50519,0.17187 -1.48362,0.66448 -2.625,1.28125 -1.17585,0.6354 -2.4701,1.38988 -3.40625,2 -0.33411,0.21775 -0.83501,0.44499 -1.28125,0.65625 -0.43049,0.20381 -0.8086,0.38022 -1.03125,0.5 -0.138,-0.0428 -0.27256,-0.0658 -0.5625,-0.0937 -0.35532,-0.0343 -0.85535,-0.0934 -1.53125,-0.125 -1.35179,-0.0632 -3.41337,-0.11234 -6.4375,-0.1875 -3.09664,-0.077 -6.36428,-0.1924 -7.21875,-0.25 -0.43607,-0.0294 -0.82865,-0.0509 -1.125,-0.0625 -0.14817,-0.006 -0.25354,10e-5 -0.34375,0 -0.0451,-5e-5 -0.0934,-0.002 -0.125,0 -0.0158,9.7e-4 -0.0138,-0.003 -0.0313,0 -0.009,10e-4 -0.0485,-0.004 -0.0625,0 -0.007,0.002 0.0109,0.0264 0,0.0313 -0.0109,0.005 -0.062,-4e-4 -0.0625,0 -0.066,0.0531 -0.0957,0.13198 -0.125,0.21875 -0.0293,0.0868 -0.049,0.18454 0,0.28125 0.0981,0.19342 0.33827,0.29879 0.6875,0.3125 0.38721,0.0152 1.39408,0.0766 1.8125,0.15625 0.0854,0.0163 0.43568,0.0184 0.59375,0.0313 -0.007,0.0248 -2e-4,0.0466 0,0.0625 4.1e-4,0.0317 -0.005,0.0758 0,0.0937 0.0109,0.0359 0.0446,0.0631 0.0625,0.0937 0.0359,0.0613 0.0837,0.11441 0.15625,0.1875 0.14502,0.14618 0.36536,0.32472 0.6875,0.4375 0.57744,0.20214 1.42729,0.56726 1.90625,0.75 0.4634,0.17679 1.36263,0.55227 2.15625,0.78125 0.77581,0.22383 2.22699,0.65345 2.78125,0.84375 2.16327,0.74275 4.08314,1.24213 5.4375,1.125 0.39262,-0.034 1.01803,0.0127 1.96875,-0.0313 0.94427,-0.0437 2.18978,-0.18298 3.875,-0.59375 0.0122,-2.8e-4 0.0191,4.3e-4 0.0313,0 0.30359,-0.0107 0.58739,-0.0662 0.78125,-0.0313 0.19559,0.0353 0.33686,0.12393 0.46875,0.5 0.002,0.0115 -0.002,0.0198 0,0.0313 0.6362,3.17884 1.18597,5.48067 1.625,7.0625 0.22031,0.79377 0.42281,1.41853 0.59375,1.875 0.15254,0.40733 0.24797,0.6588 0.375,0.84375 -1.1188,2.40773 -1.93799,4.19799 -2.21875,5.5625 -0.0719,0.34935 -0.14565,0.70997 -0.21875,1 -0.0366,0.14502 -0.0647,0.27856 -0.0937,0.375 -0.029,0.0964 -0.064,0.15892 -0.0625,0.15625 -0.0116,0.009 -0.0222,0.0197 -0.0313,0.0313 -0.52639,1.83826 -1.28005,4.4845 -1.46875,6.5 -9.1e-4,0.01 8.8e-4,0.0216 0,0.0313 -0.29305,0.71909 -0.59052,1.44447 -0.84375,2.0625 -0.25652,0.62607 -0.46787,1.1297 -0.53125,1.375 -0.0804,0.31124 -0.17867,0.77486 -0.21875,1.09375 -0.0152,0.12054 -0.10659,0.47103 -0.21875,0.875 -0.11216,0.40397 -0.25333,0.8763 -0.40625,1.34375 -0.30904,0.9446 -0.64142,2.09697 -0.75,2.53125 -0.10115,0.40454 -0.38937,1.29317 -0.625,1.96875 -0.24427,0.70035 -0.71764,2.46071 -1.09375,3.9375 -0.1874,0.73577 -0.35703,1.41257 -0.5,1.9375 -0.14297,0.52493 -0.26606,0.88909 -0.28125,0.9375 -0.0341,0.10878 -0.0416,0.2053 0,0.3125 0.0208,0.0536 0.0671,0.12634 0.125,0.15625 0.0579,0.0299 0.10572,0.008 0.15625,0 0.20211,-0.0332 0.32537,-0.16111 0.4375,-0.375 0.0709,-0.13515 0.34701,-0.49411 0.5625,-0.75 2.55564,-3.16732 5.38203,-7.76913 7.65625,-11.8125 0.9382,-1.91277 2.27034,-4.32719 3.4375,-6.53125 0.86801,-1.72752 2.15928,-4.04484 3.28125,-6.25 0.0116,-0.009 0.0222,-0.0197 0.0313,-0.0313 8.8e-4,-0.0104 8.8e-4,-0.0209 0,-0.0313 0.0156,0.0319 0.045,0.0526 0.0625,0.0937 0.10546,0.24867 0.26815,0.56826 0.4375,0.90625 0.33871,0.67598 0.69957,1.40299 0.96875,1.71875 0.80845,0.94834 1.58613,1.98428 2.46875,3.75 0.51124,1.02278 0.99475,1.94452 1.25,2.34375 0.10765,0.16838 0.44564,0.77336 0.84375,1.53125 0.39811,0.75789 0.87382,1.69762 1.3125,2.59375 0.92043,1.88024 2.22625,3.60113 2.71875,4.3125 0.47794,0.69036 1.3278,2.02964 1.875,2.96875 0.55108,0.9458 1.17305,2.00095 1.4375,2.375 0.24332,0.34415 0.55261,0.83082 0.65625,1.03125 0.13495,0.26095 0.43866,0.63987 0.6875,0.90625 0.22335,0.23908 0.50085,0.63284 0.59375,0.8125 0.12342,0.23867 0.2399,0.37807 0.4375,0.4375 0.0494,0.0149 0.12088,0.0259 0.1875,0 0.0666,-0.0259 0.10286,-0.0676 0.125,-0.125 0.0443,-0.11479 0.0367,-0.2271 0,-0.34375 0.009,0.0271 0.002,0.0109 0,-0.0313 -0.002,-0.0421 -0.029,-0.11467 -0.0313,-0.1875 -0.004,-0.14566 0.0153,-0.35528 0,-0.59375 -0.0306,-0.47694 -0.10617,-1.08604 -0.28125,-1.78125 -0.34311,-1.36252 -0.86744,-3.39304 -1.21875,-4.5 -0.6668,-2.10104 -1.23441,-3.6356 -1.65625,-4.78125 -0.42184,-1.14565 -0.70255,-1.90181 -0.78125,-2.34375 -0.0785,-0.44077 -0.45196,-1.51665 -0.84375,-2.5625 -0.1959,-0.52293 -0.38967,-1.04659 -0.5625,-1.4375 -0.0864,-0.19546 -0.17997,-0.37083 -0.25,-0.5 -0.035,-0.0646 -0.0613,-0.10922 -0.0937,-0.15625 -0.0162,-0.0235 -0.0446,-0.0419 -0.0625,-0.0625 -0.002,-0.005 -0.0274,-0.0228 -0.0313,-0.0313 1.7e-4,2e-4 0.009,-0.0232 0,-0.0313 -0.002,-0.007 0.002,-0.024 0,-0.0313 -0.004,-0.008 -0.024,-0.0192 -0.0313,-0.0313 -0.004,-0.006 0.0114,-0.0174 0,-0.0313 -0.16892,-0.78684 -0.44101,-2.02041 -0.71875,-3.125 -0.14313,-0.56924 -0.29039,-1.08113 -0.40625,-1.5 -0.11586,-0.41887 -0.21134,-0.72688 -0.28125,-0.875 -0.0165,-0.0349 -0.0836,-0.23211 -0.15625,-0.5 -0.0726,-0.26789 -0.14267,-0.59994 -0.21875,-0.9375 -0.33022,-1.46512 -0.4734,-3.15257 -1.59375,-5.5625 -0.34465,-0.74134 -0.47818,-1.25928 -0.59375,-1.78125 0.20762,-0.27648 0.42104,-0.73597 0.6875,-1.375 0.29134,-0.69869 0.61044,-1.57126 0.9375,-2.53125 0.63557,-1.86555 1.25386,-4.03609 1.65625,-5.71875 6.4885,1.65309 7.90849,1.50574 12.65625,0 1.90056,-0.60275 3.68739,-1.22339 5,-1.6875 0.65631,-0.23206 1.19426,-0.41636 1.5625,-0.5625 0.18412,-0.0731 0.33815,-0.13974 0.4375,-0.1875 0.0497,-0.0239 0.0886,-0.0378 0.125,-0.0625 0.0182,-0.0123 0.0349,-0.0272 0.0625,-0.0625 0.007,-0.009 -0.008,-0.0162 0,-0.0313 0.004,-0.008 0.0279,-0.0213 0.0313,-0.0313 0.003,-0.01 -7e-5,-0.0308 0,-0.0313 1.4e-4,-9.7e-4 2.8e-4,-0.0929 0,-0.0937 -2.8e-4,-8.4e-4 -0.0618,-0.0618 -0.0625,-0.0625 -2.4e-4,-2.4e-4 -0.0308,-0.031 -0.0313,-0.0313 -4.3e-4,-2.2e-4 -0.0239,-0.0288 -0.0313,-0.0313 0.33062,-0.0182 0.5584,-0.0398 0.6875,-0.0625 0.16414,-0.0289 0.42435,-0.004 0.6875,0.0313 0.26315,0.0351 0.5176,0.0764 0.75,0.0625 0.35682,-0.0213 0.65136,-0.13493 0.84375,-0.28125 0.0962,-0.0732 0.17421,-0.1495 0.21875,-0.25 0.0223,-0.0503 0.04,-0.12054 0.0313,-0.1875 -0.009,-0.067 -0.0407,-0.14478 -0.0937,-0.1875 -0.0317,-0.0255 -0.0513,-0.0253 -0.0625,-0.0313 -0.0112,-0.006 -0.0163,0.007 -0.0313,0 -0.03,-0.0144 -0.0762,-0.0423 -0.125,-0.0625 -0.0976,-0.0404 -0.21308,-0.0778 -0.375,-0.125 -0.32384,-0.0943 -0.75356,-0.18755 -1.21875,-0.15625 -0.84178,0.0566 -4.061,0.0793 -7.125,0.15625 -6.47853,0.16286 -8.23643,0.46869 -8.8125,0.6875 -0.17787,0.0676 -0.25704,0.12317 -0.46875,0.0937 -0.21171,-0.0294 -0.57777,-0.14958 -1.1875,-0.53125 -1.59605,-0.99906 -3.11692,-1.9676 -4.34375,-2.6875 -0.61342,-0.35995 -1.15663,-0.6527 -1.59375,-0.875 -0.43712,-0.2223 -0.75703,-0.36382 -1,-0.40625 -0.0744,-0.013 -0.35907,-0.0916 -0.6875,-0.21875 -0.32843,-0.12715 -0.72316,-0.31354 -1.125,-0.46875 -0.74942,-0.28946 -1.30746,-0.37545 -1.625,-0.34375 z"
       id="path14113"
       inkscape:connector-curvature="0"
       sodipodi:nodetypes="cccccccccccccccccccccccccccccssccccccccccccscscccccccsccccccssscccssscssccsscscccsccccccccsccsccccccccccccsscccccccscccscccscscccccsccccccsccccsccccccsccccccccccccccssccsscccscccsccsccccscccccccccscscscccssccccccccsccsccscscscccccccccccsscssccccccccccccscsscscccccccccssccsscsscssccccccccscccccccccscscccccssscsscc" />
    <path
       style="fill:none;stroke:#000000;stroke-width:0.69999999;stroke-linecap:butt;stroke-linejoin:miter;stroke-miterlimit:4;stroke-opacity:1;stroke-dasharray:none"
       d="m 153.40702,685.57389 c 1.44762,-10.00202 2.92372,-20.93834 4.27436,-30.5617"
       id="path11286"
       inkscape:connector-curvature="0" />
    <path
       style="fill:none;stroke:#000000;stroke-width:0.25846887;stroke-linecap:butt;stroke-linejoin:miter;stroke-miterlimit:4;stroke-opacity:1;stroke-dasharray:none"
       d="m 275.36047,638.19923 c 1.19496,-5.04895 1.79967,-10.85643 3.00379,-15.7838"
       id="path11296"
       inkscape:connector-curvature="0" />
    <path
       style="fill:none;stroke:#000000;stroke-width:0.27891424;stroke-linecap:butt;stroke-linejoin:miter;stroke-miterlimit:4;stroke-opacity:1;stroke-dasharray:none"
       d="m 280.72788,635.94495 c -3.31273,-3.51395 -5.8799,-8.37047 -9.01629,-12.42124 -0.75476,-0.9748 -1.72867,-1.83023 -2.2724,-2.95384"
       id="path11298"
       inkscape:connector-curvature="0" />
    <path
       style="fill:none;stroke:#000000;stroke-width:0.60173291;stroke-linecap:butt;stroke-linejoin:miter;stroke-miterlimit:4;stroke-opacity:1;stroke-dasharray:none"
       d="m 209.7795,653.68075 c 1.37158,10.91419 2.68945,23.01045 5.01378,32.79716"
       id="path11310"
       inkscape:connector-curvature="0" />
    <path
       style="fill:none;stroke:#000000;stroke-width:0.23149891;stroke-linecap:butt;stroke-linejoin:miter;stroke-miterlimit:4;stroke-opacity:1;stroke-dasharray:none"
       d="m 322.5335,638.85386 c -0.85114,-3.72968 -2.09265,-13.12445 -2.93341,-18.98409"
       id="path11312"
       inkscape:connector-curvature="0" />
    <path
       style="fill:none;stroke:#000000;stroke-width:0.26763994;stroke-linecap:butt;stroke-linejoin:miter;stroke-miterlimit:4;stroke-opacity:1;stroke-dasharray:none"
       d="m 315.33037,639.26322 c 2.2674,-3.28258 6.22363,-12.50376 10.31531,-17.66284"
       id="path11314"
       inkscape:connector-curvature="0" />
    <path
       sodipodi:type="inkscape:offset"
       inkscape:radius="0.1882226"
       inkscape:original="M 190.3125 608.59375 C 189.42558 608.64076 188.49962 608.74225 188.09375 608.78125 C 186.12923 609.15258 184.41449 610.25807 182.6875 611.1875 C 181.27571 611.30165 180.48429 609.72942 179.1875 609.375 C 177.82442 608.71094 176.11476 608.38605 174.75 609.21875 C 173.25961 610.38631 174.81399 612.79523 173.375 613.75 C 171.47013 615.00841 169.42785 616.21964 168.09375 618.125 C 167.72066 619.7334 167.98514 621.63237 169.40625 622.65625 C 170.6844 623.86384 172.24623 624.7274 173.84375 625.4375 C 173.42451 627.0653 173.73777 628.96138 175.09375 630.0625 C 176.71209 630.99825 178.65739 630.04553 180.03125 629.0625 C 181.17252 628.2996 182.15987 627.30728 183.40625 626.71875 C 185.02861 626.39556 186.06293 628.03079 187.25 628.84375 C 188.64056 629.93426 190.48459 630.85557 192.28125 630.34375 C 193.70325 629.53737 193.92178 627.48198 193.3125 626.09375 C 193.28759 626.02817 193.24505 625.97115 193.21875 625.90625 C 194.60295 625.87366 196.30326 624.41353 197.15625 623.65625 C 198.27592 622.56266 199.07802 621.03884 198.875 619.4375 C 199.12214 617.53834 197.74501 616.14741 196.15625 615.40625 C 194.78965 614.43942 192.38702 614.05479 193.0625 611.875 C 193.10111 610.93621 193.98976 609.35507 191.8125 608.875 C 191.90253 608.83263 192.25374 608.87836 192.25 608.8125 C 192.03435 608.57346 191.19942 608.54674 190.3125 608.59375 z M 191.46875 608.9375 C 193.20698 609.61744 192.83297 611.99444 192.40625 613.4375 C 190.50172 612.61526 188.43315 612.41186 186.4375 611.90625 C 185.66951 611.63939 184.12007 611.69463 183.84375 611.25 C 185.01448 610.18177 186.64996 609.75789 188.125 609.28125 C 188.6514 609.0553 190.52325 609.1146 191.46875 608.9375 z M 176.1875 609.375 C 177.06766 609.26453 177.45216 609.4356 178.28125 609.75 C 179.00612 610.20671 180.60222 610.50682 180.375 611.28125 C 178.42269 611.6199 177.24443 611.88472 175.4375 612.71875 C 174.14034 611.94697 174.62945 609.48423 176.1875 609.375 z M 183.0625 611.96875 C 184.28064 611.85873 185.46674 612.32755 186.65625 612.5 C 188.51229 612.82937 190.26827 613.48455 192.09375 613.9375 C 192.34676 615.49952 191.53257 616.8723 190.46875 617.875 C 188.54019 619.69277 185.30204 613.69227 183.0625 611.96875 z M 180.625 612.03125 C 181.24074 611.90404 181.77846 611.84892 181.8125 612.0625 L 180.71875 613.25 C 179.32813 614.74228 178.15904 616.41069 176.96875 618.0625 C 176.01116 616.8475 175.7537 615.51026 175.40625 614.03125 C 176.25339 612.75802 177.57841 612.87539 178.9375 612.375 C 179.28773 612.35255 180.00926 612.15846 180.625 612.03125 z M 182.3125 612.875 C 183.11235 612.8074 183.2318 613.584 183.78125 614 C 185.53201 615.92202 187.41548 617.58992 188.875 619.75 C 188.85154 620.00071 188.66461 620.49424 188.625 620.84375 C 188.62392 620.85325 188.62589 620.86574 188.625 620.875 C 187.30296 622.18881 185.20868 624.18648 183.9375 625.0625 C 181.71117 623.30097 179.92488 621.69147 178.125 619.5 C 177.36572 618.09984 179.04355 617.07919 179.78125 616.03125 C 180.97354 614.98763 181.2121 613.81804 182.3125 612.875 z M 174.0625 614.03125 C 174.22605 613.9823 174.33048 614.05242 174.375 614.34375 C 174.53819 616.16338 176.19384 617.36894 176.15625 619.09375 C 175.46956 620.51167 174.63714 621.5563 174.21875 623.09375 C 173.76446 625.42295 172.07419 623.7947 171 623 C 169.73273 621.90563 168.3734 620.44942 168.9375 618.65625 C 169.59168 617.20623 171.0587 616.54726 172.28125 615.59375 C 172.69064 615.47186 173.57186 614.1781 174.0625 614.03125 z M 192.90625 615.34375 C 193.2646 615.15723 193.73445 615.16337 194.25 615.375 C 195.89925 616.17634 197.2775 616.95096 198.03125 618.6875 C 198.41634 620.71971 194.94972 623.98264 192.78125 625.0625 C 191.95848 623.43272 190.891 621.91359 190.21875 620.21875 C 190.13475 618.68484 191.80329 617.8801 192.25 616.5 C 192.32398 615.90198 192.5479 615.53027 192.90625 615.34375 z M 177.0625 619.46875 C 177.52985 619.54795 177.65891 620.14491 178 620.40625 C 179.53713 622.30665 181.00518 623.82972 182.75 625.53125 C 182.25583 626.08657 181.56133 626.07892 180.84375 626 C 178.41927 625.49164 174.35209 625.1387 174.65625 624.0625 C 175.46748 622.55837 175.86356 620.70193 177.0625 619.46875 z M 189.3125 621 C 190.64411 621.36848 190.48331 623.12358 191.375 624.0625 C 192.38226 625.2782 191.42349 625.77719 190.21875 625.5625 C 188.27981 625.77945 186.88003 625.95858 184.9375 625.75 C 185.67939 624.53819 187.91881 622.6806 188.84375 621.625 C 189.03407 621.55838 189.15005 621.24518 189.3125 621 z M 175.84375 625.84375 C 177.21894 625.8692 179.35296 626.48998 180.875 626.78125 C 181.12902 626.88582 181.37531 626.98553 181.34375 627.1875 C 179.75144 628.42645 178.90148 629.21529 176.90625 629.65625 C 175.1824 629.72975 174.43035 627.90133 174.5625 626.4375 C 174.5949 625.99078 175.11013 625.83018 175.84375 625.84375 z M 192.5 626 C 192.72838 626.0483 192.59589 626.38654 192.65625 626.59375 C 193.41497 628.15971 192.16976 630.32256 190.28125 629.625 C 188.72459 629.07234 188.00176 628.25532 186.625 627.375 C 185.32533 626.27601 187.77476 626.86062 188.40625 626.6875 C 189.8276 626.6572 191.1187 626.33955 192.5 626 z "
       style="fill:#000000;stroke:none"
       id="path14050"
       d="m 190.3125,608.40625 c -0.8943,0.0474 -1.84795,0.14887 -2.25,0.1875 -1.97919,0.3741 -3.6845,1.49069 -5.375,2.40625 -0.0105,8.5e-4 -0.0208,-6.4e-4 -0.0313,0 -0.61901,0.0382 -1.13651,-0.27757 -1.65625,-0.6875 -0.51855,-0.40899 -1.03101,-0.89268 -1.71875,-1.09375 -0.008,-0.004 -0.0228,0.004 -0.0313,0 -1.39317,-0.67248 -3.15945,-1.03138 -4.59375,-0.15625 a 0.18824142,0.18824142 0 0 0 -0.0313,0 c -0.40984,0.32106 -0.59475,0.75255 -0.6875,1.1875 -0.0927,0.43495 -0.10497,0.87823 -0.0937,1.3125 0.0112,0.43427 0.0419,0.84116 -0.0313,1.1875 -0.0732,0.34634 -0.21489,0.63385 -0.53125,0.84375 -1.89959,1.25492 -3.97938,2.48891 -5.34375,4.4375 a 0.18824142,0.18824142 0 0 0 -0.0313,0.0313 0.18824142,0.18824142 0 0 0 0,0.0313 c -0.38488,1.65924 -0.12668,3.63682 1.375,4.71875 l 0,-0.0313 c 1.26039,1.19081 2.78837,2.07928 4.34375,2.78125 -0.36562,1.64234 -0.0322,3.53894 1.34375,4.65625 a 0.18824142,0.18824142 0 0 0 0.0313,0 c 0.86143,0.49809 1.82613,0.50325 2.71875,0.25 0.88392,-0.25078 1.7125,-0.75573 2.40625,-1.25 0.007,-0.005 0.0243,0.005 0.0313,0 1.13305,-0.76122 2.1097,-1.74197 3.28125,-2.3125 0.74401,-0.14821 1.34655,0.13822 1.9375,0.59375 0.5849,0.45087 1.13663,1.07524 1.75,1.5 0.006,0.004 0.0249,-0.004 0.0313,0 1.41155,1.10208 3.30972,2.06618 5.1875,1.53125 A 0.18824142,0.18824142 0 0 0 192.375,630.5 c 0.76709,-0.435 1.21079,-1.20276 1.375,-2.03125 0.16421,-0.82849 0.0717,-1.7045 -0.25,-2.4375 0.66732,-0.0942 1.37198,-0.39921 2,-0.8125 0.71866,-0.47294 1.35324,-1.02626 1.78125,-1.40625 a 0.18824142,0.18824142 0 0 0 0,-0.0313 c 1.13568,-1.10923 1.96549,-2.65852 1.78125,-4.3125 -0.002,-0.0209 0.003,-0.0415 0,-0.0625 0.10905,-0.9729 -0.19432,-1.83701 -0.71875,-2.53125 -0.53606,-0.70964 -1.27737,-1.24416 -2.09375,-1.625 -0.71615,-0.50666 -1.65836,-0.84646 -2.3125,-1.3125 -0.32707,-0.23302 -0.55445,-0.49858 -0.6875,-0.8125 -0.13305,-0.31392 -0.15907,-0.67418 0,-1.1875 a 0.18824142,0.18824142 0 0 0 0,-0.0313 0.18824142,0.18824142 0 0 0 0,-0.0313 c 0.0171,-0.41449 0.26874,-1.05374 0.21875,-1.6875 -0.025,-0.31688 -0.15059,-0.64121 -0.40625,-0.90625 -0.15607,-0.16179 -0.38997,-0.29453 -0.65625,-0.40625 0.0102,-0.0248 0.0328,-0.0345 0.0313,-0.0625 a 0.18824142,0.18824142 0 0 0 0,-0.0625 0.18824142,0.18824142 0 0 0 -0.0313,-0.0313 0.18824142,0.18824142 0 0 0 -0.0313,-0.0313 c -0.18642,-0.20664 -0.45049,-0.2492 -0.8125,-0.28125 -0.36201,-0.0321 -0.80154,-0.0238 -1.25,0 z m 1.09375,0.71875 c 0.79555,0.31119 1.08911,0.96186 1.15625,1.78125 0.0619,0.75572 -0.12283,1.59637 -0.3125,2.28125 -1.86867,-0.75928 -3.85388,-0.9914 -5.75,-1.46875 -0.009,-0.003 -0.0223,0.003 -0.0313,0 -0.42228,-0.14058 -1.00001,-0.17747 -1.5,-0.25 -0.25529,-0.037 -0.47863,-0.10054 -0.65625,-0.15625 -0.0853,-0.0267 -0.10482,-0.0328 -0.15625,-0.0625 1.11279,-0.92072 2.62152,-1.32571 4.03125,-1.78125 0.0917,-0.0394 0.30521,-0.0968 0.5625,-0.125 0.25729,-0.0282 0.58113,-0.0448 0.90625,-0.0625 0.61741,-0.0337 1.25747,-0.0737 1.75,-0.15625 z M 176.75,609.53125 c 0.47571,0.0131 0.84272,0.14866 1.4375,0.375 0.0107,0.007 0.0203,0.0246 0.0313,0.0313 0.39788,0.24151 0.94491,0.41154 1.375,0.625 0.22096,0.10967 0.39986,0.23183 0.5,0.34375 0.0701,0.0783 0.0926,0.14304 0.0937,0.21875 -1.80463,0.31704 -3.02699,0.60755 -4.71875,1.375 -1.02931,-0.72539 -0.61275,-2.84415 0.71875,-2.9375 a 0.18824142,0.18824142 0 0 0 0.0313,0 c 0.2124,-0.0267 0.36861,-0.0357 0.53125,-0.0313 z m 4.6875,2.5625 c 0.0466,-6.4e-4 0.0605,-0.004 0.0937,0 l -0.9375,1.03125 c -1.34091,1.43893 -2.48877,3.01399 -3.625,4.59375 -0.77985,-1.09814 -1.02499,-2.29354 -1.34375,-3.65625 0.38719,-0.54136 0.84657,-0.7914 1.40625,-0.96875 0.56957,-0.18049 1.22489,-0.28854 1.90625,-0.53125 0.0141,-9e-4 0.0477,0.001 0.0625,0 0.40861,-0.0361 1.07036,-0.22271 1.65625,-0.34375 0.30251,-0.0625 0.58979,-0.12235 0.78125,-0.125 z m 2.125,0.0625 c 1.00173,0.0304 2.01206,0.37896 3.0625,0.53125 1.78239,0.3163 3.49824,0.95236 5.28125,1.40625 0.17582,1.42848 -0.55668,2.70821 -1.5625,3.65625 -0.2127,0.20048 -0.42346,0.27578 -0.65625,0.28125 -0.23279,0.005 -0.49543,-0.0935 -0.78125,-0.25 -0.57164,-0.31298 -1.2153,-0.91831 -1.875,-1.65625 -1.18389,-1.32429 -2.38749,-2.98589 -3.46875,-3.96875 z m -1.15625,0.90625 c 0.28416,-0.004 0.4263,0.11201 0.59375,0.3125 0.17844,0.21365 0.35397,0.51375 0.65625,0.75 0.006,0.005 -0.007,0.0263 0,0.0313 1.73464,1.90205 3.56852,3.53159 5,5.625 -0.0163,0.0996 -0.0462,0.26467 -0.0937,0.4375 -0.0548,0.19919 -0.10258,0.39593 -0.125,0.59375 -1.28282,1.2725 -3.2343,3.11902 -4.46875,4 -2.16476,-1.71908 -3.93179,-3.27173 -5.6875,-5.40625 -0.005,-0.01 0.005,-0.0213 0,-0.0313 -0.15729,-0.30346 -0.17741,-0.55152 -0.125,-0.8125 0.0541,-0.26952 0.17606,-0.54463 0.375,-0.8125 0.38518,-0.51865 0.9838,-1.02727 1.375,-1.5625 0.0129,-0.0176 0.0188,-0.0448 0.0313,-0.0625 0.58584,-0.52673 0.97608,-1.06833 1.3125,-1.59375 0.33848,-0.52863 0.65149,-1.02582 1.15625,-1.46875 z m -8.28125,1.15625 c 0.007,0.012 0.0461,0.049 0.0625,0.15625 0.0863,0.96254 0.57154,1.7263 1,2.46875 0.42288,0.73278 0.78835,1.43055 0.78125,2.21875 -9e-5,0.0104 2.3e-4,0.0208 0,0.0313 -0.6687,1.35283 -1.51743,2.39388 -1.9375,3.9375 a 0.18824142,0.18824142 0 0 0 0,0.0313 c -0.10859,0.55673 -0.29058,0.84769 -0.46875,0.96875 -0.17817,0.12106 -0.38065,0.0967 -0.65625,0 -0.5512,-0.19335 -1.23269,-0.78167 -1.78125,-1.1875 -0.62757,-0.54195 -1.27807,-1.14977 -1.6875,-1.84375 -0.40943,-0.69398 -0.57719,-1.43986 -0.3125,-2.28125 l -0.0313,0 c 0.61033,-1.35281 2.01676,-1.98889 3.25,-2.9375 0.0221,-0.007 0.0416,-0.0225 0.0625,-0.0313 0.14168,-0.0595 0.24001,-0.15277 0.375,-0.28125 0.15487,-0.14741 0.33406,-0.35323 0.5,-0.53125 0.16594,-0.17802 0.31893,-0.33236 0.46875,-0.46875 0.14982,-0.13639 0.31024,-0.23062 0.375,-0.25 z m 19.40625,1.1875 c 0.19926,0.004 0.41647,0.0578 0.65625,0.15625 1.61661,0.78711 2.93111,1.51 3.65625,3.15625 0.004,0.009 -0.004,0.0222 0,0.0313 0.14988,0.89542 -0.56299,2.16949 -1.625,3.34375 -1.02333,1.13149 -2.34201,2.17093 -3.375,2.71875 -0.81778,-1.58375 -1.79807,-3.04414 -2.4375,-4.65625 -0.0134,-0.66581 0.33987,-1.21035 0.78125,-1.75 0.45557,-0.55699 1.0088,-1.09857 1.25,-1.84375 a 0.18824142,0.18824142 0 0 0 0,-0.0313 c 0.0695,-0.56152 0.26651,-0.87719 0.5625,-1.03125 0.14854,-0.0773 0.33199,-0.0981 0.53125,-0.0937 z M 177.125,619.6875 c 0.11201,0.0495 0.21307,0.13821 0.3125,0.28125 0.11801,0.16979 0.2129,0.39942 0.40625,0.5625 0.012,0.0102 0.0186,0.0215 0.0313,0.0313 1.48399,1.83115 2.92865,3.30795 4.59375,4.9375 -0.186,0.15898 -0.38779,0.27044 -0.625,0.3125 -0.29406,0.0521 -0.61586,0.0388 -0.96875,0 -1.22437,-0.25672 -2.82531,-0.46669 -4.09375,-0.75 -0.63422,-0.14166 -1.18381,-0.29118 -1.53125,-0.46875 -0.17372,-0.0888 -0.3152,-0.203 -0.375,-0.28125 -0.0598,-0.0783 -0.054,-0.10709 -0.0313,-0.1875 0.7977,-1.49566 1.20161,-3.26505 2.28125,-4.4375 z m 12.25,1.5625 c 0.49458,0.19196 0.75509,0.58374 0.96875,1.125 0.23221,0.58826 0.41619,1.29648 0.90625,1.8125 l -0.0313,0 c 0.23842,0.28776 0.3498,0.52349 0.375,0.6875 0.0252,0.16401 -0.002,0.25671 -0.0937,0.34375 -0.18419,0.17408 -0.68092,0.25766 -1.25,0.15625 a 0.18824142,0.18824142 0 0 0 -0.0313,0 0.18824142,0.18824142 0 0 0 -0.0313,0 c -1.81609,0.2032 -3.13736,0.36727 -4.875,0.21875 0.38744,-0.5368 0.99266,-1.19777 1.65625,-1.84375 0.73597,-0.71644 1.45699,-1.40191 1.9375,-1.9375 0.0358,-0.0125 0.0643,-0.0441 0.0937,-0.0625 0.11107,-0.0694 0.18661,-0.17955 0.25,-0.28125 0.0465,-0.0747 0.0833,-0.14546 0.125,-0.21875 z m -13.53125,4.78125 c 1.31457,0.0243 3.43215,0.64111 4.96875,0.9375 0.009,0.002 0.0224,-0.002 0.0313,0 0.11331,0.0472 0.19485,0.086 0.25,0.125 0.0152,0.0108 0.0234,0.0233 0.0313,0.0313 -1.51333,1.18289 -2.32981,1.91997 -4.21875,2.34375 -0.0109,4.6e-4 -0.0205,-3.1e-4 -0.0313,0 -0.77675,0.022 -1.33191,-0.35777 -1.6875,-0.9375 -0.36054,-0.58779 -0.50007,-1.36942 -0.4375,-2.0625 a 0.18824142,0.18824142 0 0 0 0,-0.0313 c 0.0111,-0.15319 0.0668,-0.20431 0.25,-0.28125 0.18324,-0.0769 0.49148,-0.13152 0.84375,-0.125 z m 16.59375,0.1875 c 0.001,0.0111 -4e-4,0.0157 0,0.0313 0.002,0.0933 -0.017,0.24074 0.0313,0.40625 a 0.18824142,0.18824142 0 0 0 0.0313,0.0313 c 0.34692,0.71602 0.22575,1.56334 -0.1875,2.15625 -0.41325,0.59291 -1.09642,0.91596 -1.96875,0.59375 -1.50993,-0.53607 -2.21391,-1.33241 -3.59375,-2.21875 -0.009,-0.007 -0.0231,0.007 -0.0313,0 -0.13938,-0.12045 -0.21421,-0.2242 -0.25,-0.28125 -0.0379,-0.0604 -0.0177,-0.0557 -0.0313,-0.0313 -0.0135,0.0244 -0.005,0.0167 0.0625,0 0.068,-0.0167 0.15625,-0.0282 0.28125,-0.0313 0.25,-0.006 0.5735,0.0178 0.875,0.0313 0.27834,0.0124 0.54471,0.0131 0.75,-0.0313 0.0212,-4.5e-4 0.0413,5.8e-4 0.0625,0 1.38768,-0.0378 2.64359,-0.33061 3.96875,-0.65625 z"
       transform="translate(0,5.2030172)" />
    <path
       style="fill:#000000;stroke:none"
       inkscape:connector-curvature="0"
       id="path4718"
       d="m 182.43386,622.43303 c -0.40559,0.0966 -1.77686,1.4099 -1.91207,1.81549 -0.13519,0.36697 0.52148,1.64167 0.90776,1.79618 0.17382,0.058 0.94637,0.11588 1.71893,0.11588 2.16313,0 2.70392,-0.65666 1.87343,-2.27902 -0.61804,-1.21676 -1.56441,-1.73823 -2.58805,-1.44853 z m 1.06226,1.50648 c 0.17382,0.40558 0.1545,0.54078 -0.1352,0.86912 -0.48284,0.54078 -1.02363,0.50216 -1.17814,-0.0966 -0.058,-0.27039 -0.21244,-0.48284 -0.30902,-0.48284 -0.11588,0 -0.15451,0.21245 -0.11588,0.48284 0.11588,0.54079 -0.058,0.61804 -0.4249,0.19314 -0.52147,-0.63735 0.25108,-1.44853 1.4099,-1.44853 0.38628,0 0.59873,0.1352 0.75324,0.48285 z m 1.29403,1.37128 c -0.32834,0.40558 -0.59874,0.32833 -0.32834,-0.0966 0.1352,-0.21245 0.30902,-0.32833 0.38627,-0.27039 0.0966,0.0386 0.0772,0.21245 -0.058,0.36697 z" />
    <path
       style="fill:none;stroke:#000000;stroke-width:0.69999999;stroke-linecap:butt;stroke-linejoin:miter;stroke-miterlimit:4;stroke-opacity:1;stroke-dasharray:none"
       d="m 202.25815,683.26303 c 2.55928,3.45923 3.78351,3.60533 7.38153,7.24972"
       id="path3091"
       inkscape:connector-curvature="0"
       sodipodi:nodetypes="cc" />
    <path
       style="fill:none;stroke:#000000;stroke-width:0;stroke-linecap:round;stroke-miterlimit:4;stroke-opacity:1;stroke-dashoffset:0;stroke-dasharray:none"
       d="m 141.65993,623.89868 c 0.54243,-0.57911 1.09667,-1.14703 1.66239,-1.7034 22.84633,-22.46885 59.58154,-22.16284 82.05039,0.68349"
       id="path4156"
       inkscape:connector-curvature="0" />
    <path
       transform="matrix(0.32727874,0,0,0.36345166,96.858711,439.89626)"
       d="m 167.32657,489.71409 a 145.04834,130.61224 0 0 1 192.98195,0.8517"
       sodipodi:ry="130.61224"
       sodipodi:rx="145.04834"
       sodipodi:cy="587.65759"
       sodipodi:cx="263.28677"
       id="path3101"
       style="fill:none;stroke:#000000;stroke-width:0;stroke-linecap:round;stroke-miterlimit:4;stroke-opacity:1;stroke-dasharray:none;stroke-dashoffset:0"
       sodipodi:type="arc"
       sodipodi:start="3.9894732"
       sodipodi:end="5.4451069"
       sodipodi:open="true" />
    <text
       xml:space="preserve"
       style="font-size:19.75px;font-style:normal;font-variant:normal;font-weight:300;font-stretch:normal;line-height:125%;letter-spacing:0px;word-spacing:0px;fill:#000000;fill-opacity:1;stroke:none;font-family:Nissan AG;-inkscape-font-specification:Nissan AG Light"
       id="text3103"
       sodipodi:linespacing="125%"><textPath
         xlink:href="#path3101"
         id="textPath3107"><tspan
   style="font-size:21px"
   id="tspan3105"
   dx="1.3007543">лучший</tspan></textPath></text>
  </g>
</svg>
