<?xml version="1.0" encoding="UTF-8" standalone="no"?>
<!-- Created with Inkscape (http://www.inkscape.org/) -->

<svg
   xmlns:dc="http://purl.org/dc/elements/1.1/"
   xmlns:cc="http://creativecommons.org/ns#"
   xmlns:rdf="http://www.w3.org/1999/02/22-rdf-syntax-ns#"
   xmlns:svg="http://www.w3.org/2000/svg"
   xmlns="http://www.w3.org/2000/svg"
   xmlns:xlink="http://www.w3.org/1999/xlink"
   xmlns:sodipodi="http://sodipodi.sourceforge.net/DTD/sodipodi-0.dtd"
   xmlns:inkscape="http://www.inkscape.org/namespaces/inkscape"
   width="131.10571"
   height="131.11572"
   id="svg6341"
   version="1.1"
   inkscape:version="0.48.4 r9939"
   sodipodi:docname="exp.svg">
  <defs
     id="defs6343">
    <path
       transform="matrix(0.44321311,0,0,0.41174235,155.00784,360.01978)"
       d="m 463.32977,525.1012 a 107.92696,116.17616 0 1 1 -215.85393,0 107.92696,116.17616 0 1 1 215.85393,0 z"
       sodipodi:ry="116.17616"
       sodipodi:rx="107.92696"
       sodipodi:cy="525.1012"
       sodipodi:cx="355.4028"
       id="path3953-1"
       style="fill:none;stroke:#000000;stroke-width:0;stroke-linecap:round;stroke-miterlimit:4;stroke-opacity:1;stroke-dasharray:none;stroke-dashoffset:0"
       sodipodi:type="arc" />
    <path
       sodipodi:type="arc"
       style="fill:none;stroke:#000000;stroke-width:0;stroke-linecap:round;stroke-miterlimit:4;stroke-opacity:1;stroke-dasharray:none;stroke-dashoffset:0"
       id="path3977-3"
       sodipodi:cx="355.4028"
       sodipodi:cy="525.1012"
       sodipodi:rx="107.92696"
       sodipodi:ry="116.17616"
       d="m 427.43777,611.61316 a 107.92696,116.17616 0 0 1 -143.25435,0.77893"
       transform="matrix(-0.48166076,0,0,0.44978513,486.84166,343.79996)"
       sodipodi:start="0.8400282"
       sodipodi:end="2.291462"
       sodipodi:open="true" />
    <path
       transform="matrix(-0.37369433,0,0,0.37746901,527.88167,372.70333)"
       d="M 556.99884,551.34047 A 137.48657,136.11171 0 0 1 316.68752,550.04398"
       sodipodi:ry="136.11171"
       sodipodi:rx="137.48657"
       sodipodi:cy="484.54263"
       sodipodi:cx="437.20731"
       id="path8042-1"
       style="fill:#ffffff;fill-opacity:1;fill-rule:nonzero;stroke:#000000;stroke-width:0;stroke-miterlimit:4;stroke-opacity:1;stroke-dasharray:none"
       sodipodi:type="arc"
       sodipodi:start="0.51295885"
       sodipodi:end="2.6395327"
       sodipodi:open="true" />
    <path
       transform="matrix(0.37084393,0,0,0.37458982,202.63624,374.09842)"
       d="M 357.01277,373.98399 A 137.48657,136.11171 0 0 1 516.7136,373.49787"
       sodipodi:ry="136.11171"
       sodipodi:rx="137.48657"
       sodipodi:cy="484.54263"
       sodipodi:cx="437.20731"
       id="path8047-6"
       style="fill:#ffffff;fill-opacity:1;fill-rule:nonzero;stroke:#000000;stroke-width:0;stroke-linecap:round;stroke-miterlimit:4;stroke-opacity:1;stroke-dasharray:none;stroke-dashoffset:0"
       sodipodi:type="arc"
       sodipodi:start="4.0896158"
       sodipodi:end="5.3290128"
       sodipodi:open="true" />
  </defs>
  <sodipodi:namedview
     id="base"
     pagecolor="#ffffff"
     bordercolor="#666666"
     borderopacity="1.0"
     inkscape:pageopacity="0.0"
     inkscape:pageshadow="2"
     inkscape:zoom="1.5375694"
     inkscape:cx="101.60934"
     inkscape:cy="70.280577"
     inkscape:document-units="px"
     inkscape:current-layer="layer1"
     showgrid="false"
     fit-margin-top="0"
     fit-margin-left="0"
     fit-margin-right="0"
     fit-margin-bottom="0"
     inkscape:window-width="1280"
     inkscape:window-height="800"
     inkscape:window-x="0"
     inkscape:window-y="0"
     inkscape:window-maximized="0"
     showguides="true"
     inkscape:guide-bbox="true" />
  <metadata
     id="metadata6346">
    <rdf:RDF>
      <cc:Work
         rdf:about="">
        <dc:format>image/svg+xml</dc:format>
        <dc:type
           rdf:resource="http://purl.org/dc/dcmitype/StillImage" />
      </cc:Work>
    </rdf:RDF>
  </metadata>
  <g
     inkscape:label="Layer 1"
     inkscape:groupmode="layer"
     id="layer1"
     transform="translate(-299.21708,-490.04733)">
    <path
       sodipodi:type="arc"
       style="fill:#ffffff;fill-opacity:1;fill-rule:nonzero;stroke:#000000;stroke-width:2.10291982;stroke-linecap:round;stroke-miterlimit:4;stroke-opacity:1;stroke-dasharray:none;stroke-dashoffset:0"
       id="path6421"
       sodipodi:cx="437.20731"
       sodipodi:cy="484.54263"
       sodipodi:rx="137.48657"
       sodipodi:ry="136.11171"
       d="m 574.69388,484.54263 c 0,75.17242 -61.55484,136.11171 -137.48657,136.11171 -75.93174,0 -137.48658,-60.93929 -137.48658,-136.11171 0,-75.17242 61.55484,-136.11171 137.48658,-136.11171 75.93173,0 137.48657,60.93929 137.48657,136.11171 z"
       transform="matrix(0.4731457,0,0,0.47792494,151.48059,481.17101)" />
    <path
       transform="matrix(-0.37369433,0,0,0.37746901,521.4531,529.84619)"
       d="m 556.99884,551.34047 c -37.26406,65.49744 -121.10505,88.68721 -187.26409,51.79578 -22.33641,-12.45516 -40.71043,-30.84479 -53.04723,-53.09227"
       sodipodi:ry="136.11171"
       sodipodi:rx="137.48657"
       sodipodi:cy="484.54263"
       sodipodi:cx="437.20731"
       id="path8042"
       style="fill:#ffffff;fill-opacity:1;fill-rule:nonzero;stroke:#000000;stroke-width:0;stroke-miterlimit:4;stroke-opacity:1;stroke-dasharray:none"
       sodipodi:type="arc"
       sodipodi:start="0.51295885"
       sodipodi:end="2.6395327"
       sodipodi:open="true" />
    <g
       transform="matrix(0.26120075,0,0,0.26120075,283.36768,632.30606)"
       id="g7898">
      <path
         sodipodi:nodetypes="sccssczcs"
         d="m 293,238.8 c 0,1.9 0.4,2.3 2,1.9 1.1,-0.3 4.79601,1.73191 8.39601,3.33191 3.6,1.7 5.35612,3.73191 5.35612,3.43191 0,-0.8 -11.15213,-8.06382 -12.95213,-8.06382 -1.1,0 -1.8,-0.8 -1.8,-2 -1.42789,-2.48168 -18.64664,-2.38579 -17.35975,-0.16573 1.28688,2.2201 16.26775,-3.77063 16.35975,1.56569 z"
         id="path7153"
         inkscape:connector-curvature="0"
         style="fill:#000000;stroke:none" />
      <path
         sodipodi:nodetypes="csccccccscsscccsczccsccscccsccccsccccccccccccscccccsscscsscccccsccccccccccscccsccccssccscscsc"
         d="m 474.6,239.1 c -1.9,1.5 -2.6,2.9 -2.6,5.7 0,2.7 -0.7,4.1 -2.6,5.7 -2.3,1.8 -2.4,2.3 -1.4,4.9 1,2.7 0.8,3.2 -2.5,6.6 -2,2 -3.4,4.3 -3.1,5.1 0.2,0.8 0.7,2.6 1,4.1 0.4,1.7 1.2,2.6 2.4,2.6 0.9,-0.1 2.9,0.1 4.4,0.5 1.5,0.4 3,0.3 3.3,-0.3 0.4,-0.6 -0.6,-1 -2.2,-1 -6,0 -7.3,-0.9 -7.3,-5 0,-3 0.6,-4.3 2.7,-5.8 l 2.7,-2 5.3,5.4 c 2.9,2.9 5.3,5.8 5.3,6.4 0,0.5 -1.2,1.1 -2.7,1.1 0,0 -4.65772,-0.44954 -4.78885,0.68007 C 472.38001,274.90968 477.4,273.7 477.4,273.7 c 7.10046,10.28959 26.34571,18.48507 5.14739,2.73755 -1.6,-1 -0.64739,-3.43755 1.15261,-3.43755 3.8,0 15.3,4.4 15.4,5.9 0,1.1 0.2,1.2 0.6,0.3 0.2,-0.6 2.2,-1.2 4.2,-1.2 6.3,0 8.9,-5.1 5.7,-11 -1.3,-2.2 -1.1,-2.7 1,-5.5 2.9,-3.8 3.1,-7.6 0.6,-9.8 -1.4,-1.3 -3.8,-1.7 -9.9,-1.7 l -8,0 -3.2,-5 c -5.3,-8.2 -10.2,-10.1 -15.5,-5.9 z m 11,2.1 c 3.7,4 6.7,8.8 6,9.5 -0.9,0.9 -4.9,0.6 -11.6,-0.9 -6.4,-1.4 -6.5,-1.5 -6.8,-5 -0.2,-2.8 0.2,-4 2,-5.2 3.6,-2.5 7.1,-2 10.4,1.6 z m -12.7,12.6 c 0.7,2.4 0.6,3.2 -0.6,3.6 -0.8,0.3 -1.9,0.4 -2.4,0 -1.4,-0.8 -1.1,-6.2 0.4,-6.7 1.6,-0.6 1.6,-0.5 2.6,3.1 z m 8.4,-2.7 3.9,1 -3.6,2 c -5.1,2.7 -6.6,2.5 -6.6,-1.1 0,-3.3 0.6,-3.5 6.3,-1.9 z m 29.1,1.5 c 2.2,2.2 2,4.8 -0.7,7.9 l -2.2,2.7 -5.5,-3.7 c -5.4,-3.5 -8,-6.1 -8,-7.7 0,-0.4 3.3,-0.8 7.4,-0.8 5.4,0 7.9,0.4 9,1.6 z M 493,253 c 0,0.5 -0.7,0.7 -1.5,0.4 -1.9,-0.8 -1.9,-1.4 0,-1.4 0.8,0 1.5,0.4 1.5,1 z m -1.5,1.8 c 2.2,1.4 3.5,3.4 4.7,7.2 1,2.9 1.5,5.6 1.3,6 -0.3,0.4 -3.1,1.3 -6.4,1.9 -8.1,1.6 -10.5,0.4 -13.1,-6.6 -1.1,-3 -2,-5.5 -2,-5.8 0,-0.2 1.5,-0.7 3.3,-1 1.7,-0.4 4.1,-1.4 5.2,-2.1 2.5,-1.8 3.4,-1.8 7,0.4 z m 12.5,7.4 c 2.7,2 2.7,1.9 -1.6,4.1 l -3.1,1.6 -1.2,-4.1 c -0.7,-2.2 -1.5,-4.7 -1.8,-5.5 -0.6,-1.5 1.9,-0.2 7.7,3.9 z m -27.7,-0.5 c 0.8,2.1 1.3,4 1.1,4.2 -0.3,0.3 -1.9,-1 -3.7,-2.7 -2.7,-2.7 -3,-3.4 -1.7,-4.2 2.3,-1.5 2.7,-1.3 4.3,2.7 z M 510,272 c 0,3.6 -2.1,5.2 -6.2,4.8 -2.9,-0.3 -3.3,-0.7 -3.9,-4.1 -0.6,-3.6 -0.4,-3.9 3,-5.7 3.6,-1.9 3.6,-1.9 5.4,0.2 0.9,1.1 1.7,3.3 1.7,4.8 z m -11,1.7 c 0,2.7 -0.3,2.8 -6.4,0.7 -5.3,-1.8 -5.2,-2.4 0.7,-4 4.6,-1.2 5.7,-0.5 5.7,3.3 z M 482.5,271 c 0.3,0.5 0.2,1 -0.4,1 -0.5,0 -1.3,-0.5 -1.6,-1 -0.3,-0.6 -0.2,-1 0.4,-1 0.5,0 1.3,0.4 1.6,1 z"
         id="path7155"
         inkscape:connector-curvature="0"
         style="fill:#000000;stroke:none" />
      <path
         sodipodi:nodetypes="cccccccc"
         d="m 483.7,259.8 c -1.4,1.5 -1.46767,2.06767 -0.36767,3.56767 1.2,1.6 1.68795,2.11426 1.58795,-0.48574 0,-2.3 0.0797,-3.48193 2.37972,-3.68193 3.2,-0.4 3.5,1.2 1,4.1 -1.8,1.9 -1.7,2 0.5,0.8 1.6,-0.8 2.2,-2 2,-3.4 -0.4,-2.9 -4.8,-3.5 -7.1,-0.9 z"
         id="path7157"
         inkscape:connector-curvature="0"
         style="fill:#000000;stroke:none" />
      <path
         sodipodi:nodetypes="cccsccscczccccccccc"
         d="M 271.63604,241.93604 C 265.93604,244.33604 262,246.9 263.2,247 c 0.3,0 3,-1.61994 6,-3.01994 2.9,-1.4 5.9,-1.98006 6.5,-1.98006 1,0 1.3,8.4 1.5,37.2 l 0.3,37.3 8.60399,0.41596 C 294.49419,317.32158 294.5,316.5 294.8,313.9 c 0.2,-1.7 1.2,-2.9 3,-3.7 0,0 7.16595,-2.46793 6.81775,-3.2324 -0.3482,-0.76448 -8.36191,2.87946 -8.36191,2.87946 -2.3,0.4 -1.15584,-0.0471 -1.55584,-2.54706 -0.2,-1.5 -0.5,-0.2 -0.6,2.9 l -0.1,5.8 -8,-0.62393 -8,0.62393 -0.2,-37.9 -0.3,-38 z"
         id="path7159"
         inkscape:connector-curvature="0"
         style="fill:#000000;stroke:none" />
      <path
         sodipodi:nodetypes="ccsccccccccsccsccccccccccccccccccsccccssscccccccsccsccscscccccsccccccccsscccccsccsc"
         d="m 87.7,268.5 c -2.2,0.7 -4.9,2.3 -6.2,3.5 -2.5,2.4 -5.5,9.8 -5.5,13.7 0,2.8 -1,2.9 -4.3,0.3 -2.9,-2.3 -7.9,-2.6 -9.6,-0.6 -0.7,0.8 -1.1,3.4 -0.9,5.7 0.2,3.5 0.8,4.6 2.9,5.8 2.4,1.3 3,1.2 7.5,-1.5 7.8,-4.6 10.5,-5.2 16.9,-4.1 l 5.7,0.9 -3.6,3 c -2,1.6 -4.78874,4.50586 -4.78874,5.10586 0,0.7 0.957208,0.49144 1.457208,-0.40856 1.5,-2.5 8.131532,-6.8973 14.031532,-8.4973 6.9,-1.8 6.7,-1.9 6.7,2.4 0,4.1 -2.9,8 -5,6.7 -1.2,-0.7 -0.26847,-4.72883 1.23153,-8.82883 0.7,-2 0.14279,-1.63423 -1.35721,0.26577 C 99.474325,296.13694 101.7,303.3 105.9,301 c 2.1,-1.1 2.8,-3 3.3,-8.5 0.2,-1.9 0.8,-3 1.8,-2.9 0.8,0 4.3,0.4 7.8,0.7 3.4,0.4 6.2,0.3 6.1,-0.1 0,-0.4 -2.6,-1.9 -5.7,-3.4 -4.8,-2.3 -6,-3.4 -7.1,-6.5 -1.7,-4.9 -5.6,-9.1 -10.6,-11.4 -4.7,-2.2 -8.6,-2.3 -13.8,-0.4 z m 14.1,1.5 c 4.4,2 4.45341,4.24057 2.25341,7.24057 -1.2,1.6 -1.76466,-1.01568 -3.86466,-2.11568 -1.999998,-1 -1.682727,-0.6767 -0.582727,0.4233 C 102.20602,278.34819 100.6,280.3 90.6,279.1 c -0.4,-0.1 -0.276705,-0.54739 0.0233,-1.74739 -0.0056,-1.79896 -1.662851,-0.33616 -2.764885,-0.81185 -1.293395,-0.55829 -2.230748,-0.75612 -3.377575,-3.5845 -0.9,-2.3 -1.575431,-2.07923 -1.575431,-0.17923 -0.1,1.2 2.794596,3.52297 3.594596,4.22297 1.4,1.1 0.9,2.7 -2.2,6.9 -0.2,0.3 -1.4,-0.6 -2.8,-1.9 -1.4,-1.3 -3.780181,-2.16577 -3.780181,-1.56577 0,0.6 2.380181,2.26577 3.780181,3.16577 1.4,0.9 3.424877,1.44802 3.424877,2.64802 1.307002,1.3685 2.707236,0.0597 7.875123,1.85198 3.4,1.3 2.7,3.1 -1,2.5 -1.8,-0.3 -5.1,-0.8 -7.3,-1.1 -7.6,-1.1 -7.7,-1.2 -7,-5.8 1.4,-8.4 4.6,-12.4 12,-14.8 3.7,-1.3 8,-0.9 12.300005,1.1 z m 9.2,11.1 c 0,0.9 -0.7,2.2 -1.6,3 -1.3,1 -1.7,1 -2.5,-0.2 -2.9,-4.3 -3,-4.9 -1.2,-7.3 l 1.8,-2.4 1.7,2.7 c 1,1.4 1.8,3.3 1.8,4.2 z m -19.5,-0.9 c 1.8,0.8 2.5,1.9 2.5,4 0,2.8 -0.2,2.9 -3.2,2.3 -4.5,-1 -5.1,-1.8 -3.7,-4.8 1.4,-3.1 1.1,-3 4.4,-1.5 z m 13.1,2.3 c 2,3.1 1.3,4.1 -3.1,4.8 -4.9,0.8 -6.5,0 -6.5,-3.3 0,-2.5 0.4,-2.9 3.3,-3.3 1.7,-0.2 3.5,-0.5 3.9,-0.5 0.4,-0.1 1.5,0.9 2.4,2.3 z m 12.9,4.9 3,1.6 -4,-0.2 c -2.8,-0.2 -3.9,-0.7 -3.7,-1.7 0.3,-1.2 0,-1.2 -1.2,-0.2 -1.6,1.3 -10.9,4.1 -13.8,4.1 -1,0 -1.8,-0.4 -1.8,-0.9 0,-0.7 6.7,-2.4 10.5,-2.6 0.6,0 1.8,-1 2.9,-2.3 1.6,-2 2,-2.1 3.5,-0.9 0.9,0.8 3,2.2 4.6,3.1 z m -46,-0.4 c 1.7,1.1 3.8,2 4.8,2 3.1,0 1.8,1.5 -4.1,4.7 -5.4,3 -6,3.1 -8,1.7 -1.6,-1.1 -2.2,-2.5 -2.2,-5.4 0,-5.4 4,-6.6 9.5,-3 z"
         id="path7171"
         inkscape:connector-curvature="0"
         style="fill:#000000;stroke:none" />
      <path
         d="m 91.4,272.5 c 2.3,2.1 3.6,2.5 6.9,2.3 2.5,-0.2 4.2,-0.9 4.5,-1.8 0.4,-1.2 0.2,-1.3 -0.9,-0.3 -2,2 -7.3,1.5 -10.5,-0.8 l -2.9,-2.1 2.9,2.7 z"
         id="path7173"
         inkscape:connector-curvature="0"
         style="fill:#000000;stroke:none" />
      <path
         d="m 246.8,268.7 c -2.3,0.4 -2.7,1 -3.3,5.4 -0.4,2.8 -0.5,5.3 -0.2,5.6 0.4,0.3 0.9,-1.8 1.3,-4.6 0.5,-4 1,-5.1 2.5,-5.1 1.3,0 1.9,0.9 2.2,3.2 0.3,2.9 0.4,2.7 0.5,-1 0.1,-2.3 0.1,-4.1 0,-4.1 -0.2,0.1 -1.5,0.4 -3,0.6 z"
         id="path7175"
         inkscape:connector-curvature="0"
         style="fill:#000000;stroke:none" />
      <path
         sodipodi:nodetypes="ccccccscc"
         d="m 322.2,274.7 -0.42393,5.33205 c 0.83996,-2.50911 0.62571,-9.96192 3.12393,-10.03205 1.5,0 2,1.1 2.6,5.2 0.5,2.9 0.85294,7.29419 1.05294,6.29419 3.16077,-6.44073 -0.39038,-6.0051 -0.55294,-10.09419 0,-2 -0.5,-2.4 -3,-2.4 l -3.62393,-0.052 z"
         id="path7177"
         inkscape:connector-curvature="0"
         style="fill:#000000;stroke:none" />
      <path
         sodipodi:nodetypes="cccc"
         d="m 328.70562,276.58825 c 1.8,1.1 109.59086,1.68825 113.09086,0.58825 1.8,-0.6 -103.03205,-2.41769 -108.03205,-2.51769 -4.9,0 -6.05881,1.22944 -5.05881,1.92944 z"
         id="path7187"
         inkscape:connector-curvature="0"
         style="fill:#000000;stroke:none" />
      <path
         sodipodi:nodetypes="zccccccssccccsccccccccccccccccccccccccccccccccccccccccczsccccs"
         d="M 427.20648,277.41596 C 427.27507,278.27796 456.8,278.3 458.4,278.9 l 3,1.2 -5.6,5.7 c -12.1,12.5 -21.6,26.9 -24.8,37.5 -1.2,3.7 -4.6,11.8 -7.6,18.1 l -5.6,11.3 -10.3,8.2 c -10.3,8.2 -19.5,17.1 -19.5,19 0,1.4 8.2,-2.2 17,-7.4 4.1,-2.4 10.2,-5.8 13.5,-7.5 3.3,-1.8 8.2,-5.5 10.8,-8.3 6.20602,-7.05864 10.56306,-13.47431 4.66306,-7.47431 -2.6,2.6 -6.96306,8.07431 -6.96306,8.57431 0,0.5 -3.3,2.7 -7.2,4.7 -4,2.1 -10.4,5.7 -14.3,8 -3.8,2.3 -9,5.2 -11.5,6.4 -4.5,2.2 -4.4,2.2 3.1,-5.1 4.2,-4 10.7,-9.6 14.5,-12.3 6.1,-4.4 7.5,-6.1 12.1,-14.5 2.9,-5.2 5.8,-11.4 6.4,-13.6 l 1.3,-4.2 2.8,4.4 c 1.5,2.4 3.9,4.9 5.2,5.6 l 2.5,1.1 -3,4.6 -3.12932,5.11727 L 439.9,343.1 c 3.8,-4.1 5.91647,-3.71807 9.61647,-3.11807 2.3,0.3 6.01045,0.78193 6.41045,0.18193 0.3,-0.5 -2.46908,-2.00522 -3.76908,-2.00522 -1.3,-0.1 -5.45784,-0.55864 -7.65784,-0.65864 -3.2,-0.2 -4.5,-0.9 -7.2,-4 -3.4,-4 -3.8,-5.2 -3.3,-12 0.4,-7.4 13.2,-26.7 25.4,-38.4 3.5,-3.4 3.5,-3.4 6.3,-1.6 8,5.1 11.1,10 9.2,14.7 -1.1,2.8 -1.2,2.8 -3.2,1.1 -2.6,-2.3 -1.8,-0.8 3.9,7.2 2.3,3.3 5.7,7.3 7.5,9 1.8,1.6 2.8,2.3 2.3,1.5 -1.4,-1.9 -5.9,-13.3 -7.2,-18.3 -0.8,-2.7 -0.7,-3.5 0,-3 0.8,0.4 0.9,0 0.4,-1.2 -0.6,-1.6 -0.4,-1.6 1.1,-0.4 1,0.7 12.85225,10.92373 15.35225,13.12373 2.5,2.3 -0.30443,-1.45102 -3.70443,-4.95102 C 486.44782,295.37271 478,288.1 477.9,285.6 l -0.2,-3.1 -0.6,3.3 -0.6,3.3 -4.3,-4.4 c -4.3,-4.3 -4.3,-4.4 -2,-5.2 1.8,-0.6 1.1,-0.9 -3.7,-1.6 -3.3,-0.5 -9.4,-1.1 -13.5,-1.3 -6.71197,0.43191 -25.86211,-0.046 -25.79352,0.81596 z M 482,310.9 c 0,0.2 -1.8,-2 -4.1,-4.8 -3.9,-4.9 -4.1,-5.3 -2.8,-8.2 l 1.2,-3.1 2.8,7.8 c 1.6,4.4 2.9,8.1 2.9,8.3 z"
         id="path7203"
         inkscape:connector-curvature="0"
         style="fill:#000000;stroke:none" />
      <path
         d="m 249.2,280.5 c 0,1.6 0.2,2.4 0.5,1.8 0.2,-0.7 0.2,-2.1 0,-3 -0.3,-1 -0.5,-0.5 -0.5,1.2 z"
         id="path7205"
         inkscape:connector-curvature="0"
         style="fill:#000000;stroke:none" />
      <path
         d="m 243.53956,279.81623 c 0.54513,0.5 2.54396,1 4.17936,1 2.72567,0 2.72567,-0.2 0.36343,-1 -3.63423,-1.3 -5.99648,-1.3 -4.54279,0 z"
         id="path7207"
         inkscape:connector-curvature="0"
         style="fill:#000000;stroke:none" />
      <path
         sodipodi:nodetypes="cccc"
         d="m 323.58819,281.11762 c -1.9,0.8 -2.63532,1.92944 -0.53532,1.92944 1.2,0.1 5.14713,-0.54706 5.44713,-1.04706 0.7,-1.2 -2.11181,-2.08238 -4.91181,-0.88238 z"
         id="path7209"
         inkscape:connector-curvature="0"
         style="fill:#000000;stroke:none" />
      <path
         sodipodi:nodetypes="cccccc"
         d="m 497.6,283.1 c -1.4,1.7 -2.11205,1.61205 -5.01205,1.11205 -2.6,-0.4 -2.8767,0.12329 -1.8767,0.72329 2.5,1.6 5.88875,1.16466 7.78875,-0.93534 1,-1.1 1.27671,-4.75403 1.07671,-5.05403 -0.3,-0.2 -0.97671,3.05403 -1.97671,4.15403 z"
         id="path7211"
         inkscape:connector-curvature="0"
         style="fill:#000000;stroke:none" />
      <path
         sodipodi:nodetypes="ccccc"
         d="m 320.71973,283.77977 c -0.1,1.1 -0.75221,3.95793 -0.45226,3.55793 0.3,-0.3 2.60224,-3.97265 2.30224,-4.67265 -0.3,-0.8 -1.85003,0.0147 -1.85003,1.11472 z"
         id="path7213"
         inkscape:connector-curvature="0"
         style="fill:#000000;stroke:none" />
      <path
         d="m 251,288.6 c 0,1.1 3.8,7.4 4.5,7.4 0.2,0 -0.5,-1.7 -1.7,-3.8 -2.7,-4.6 -2.8,-4.8 -2.8,-3.6 z"
         id="path7219"
         inkscape:connector-curvature="0"
         style="fill:#000000;stroke:none" />
      <path
         sodipodi:nodetypes="ccsccsc"
         d="m 83.2,295.1 c -4.5,3.2 -5,5.3 -2,7.3 1.3,0.8 3.745947,-0.21442 4.545947,-1.01442 0.9,-0.9 0.882883,-1.28288 -0.717117,-0.78288 -2.9,0.7 -6.220272,-0.77117 -3.620272,-2.27117 2.2,-1.3 7.538706,-7.07205 8.145948,-7.42027 C 90.351804,290.45405 85.6,293.5 83.2,295.1 z"
         id="path7221"
         inkscape:connector-curvature="0"
         style="fill:#000000;stroke:none" />
      <path
         sodipodi:nodetypes="sccccsccccccccccccccscccccccccs"
         d="m 479,294.5 c 0,0.2 1.8,3.4 3.9,6.9 6.3,10.2 8.3,14.5 7.6,16.7 -0.8,2.5 -1.7,2.4 -8.4,-1.1 -7.2,-3.8 -14.6,-9.9 -18.4,-15.1 -1.6,-2.1 -3.1,-3.9 -3.3,-3.9 -0.8,0 1.3,3.3 4.4,7 l 2.9,3.4 -4.3,4.4 c -2.4,2.3 -5.2,5.6 -6.4,7.2 l -2,2.8 5.2,2.5 c 2.9,1.4 7.8,3.5 10.8,4.7 13.3,5.4 14.9,6.3 16.1,9.1 2.4,6 -3.1,13.2 -22.1,28.7 -5.8,4.7 -11.4,9.3 -12.4,10.1 -2.9,2.4 4.9,-8.7 10.4,-14.8 2.6,-3 9.91488,-11.90283 11.41488,-14.70283 3.3,-6.2 -1.61488,-0.99717 -7.81488,7.70283 -2.5,3.7 -5.9,8 -7.5,9.5 -4.4,4.5 -10.2,13.7 -9.2,14.7 1.6,1.6 32.3,-24.5 36.9,-31.3 2.4,-3.5 2.8,-7.9 1.2,-11.1 -1.1,-2 -18,-11 -26.2,-13.9 l -4.7,-1.6 5.8,-6.5 5.9,-6.4 3.2,2.4 c 1.8,1.3 6,3.9 9.3,5.8 9.8,5.5 13.6,2.6 8.6,-6.4 C 482.4,298 479,292.8 479,294.5 z"
         id="path7225"
         inkscape:connector-curvature="0"
         style="fill:#000000;stroke:none" />
      <path
         d="m 259,300.4 c 2.9,3.4 9.8,8.6 11.4,8.6 0.6,0 -0.7,-1.2 -2.9,-2.6 -2.2,-1.5 -5.6,-4.1 -7.5,-5.8 -3.4,-3 -3.4,-3 -1,-0.2 z"
         id="path7227"
         inkscape:connector-curvature="0"
         style="fill:#000000;stroke:none" />
      <path
         sodipodi:nodetypes="ccsccc"
         d="m 495.9,306.7 c 1.8,3.6 1.4,4.2 -2.1,3.2 -2,-0.5 -2.8,-0.5 -2.2,0.1 0.5,0.5 2,1.1 3.4,1.2 3,0.4 3.57068,-2.28795 1.37068,-5.08795 -1.6,-2 -1.47068,-1.51205 -0.47068,0.58795 z"
         id="path7231"
         inkscape:connector-curvature="0"
         style="fill:#000000;stroke:none" />
      <path
         d="m 273,310 c 0.8,0.5 2,1 2.5,1 0.6,0 0.3,-0.5 -0.5,-1 -0.8,-0.5 -1.9,-1 -2.5,-1 -0.5,0 -0.3,0.5 0.5,1 z"
         id="path7233"
         inkscape:connector-curvature="0"
         style="fill:#000000;stroke:none" />
      <path
         sodipodi:nodetypes="cccccc"
         d="m 454.1,339.9 c -1,0.6 -0.4,1.1 2,1.6 1.9,0.3 7.2,1.8 11.8,3.1 4.5,1.4 8.5,2.3 8.8,2.1 -3.58868,-3.92468 -18.57403,-5.47896 -21.44579,-7.31426 -1.13153,-0.3271 1.10141,0.44579 -1.15421,0.51426 z"
         id="path7235"
         inkscape:connector-curvature="0"
         style="fill:#000000;stroke:none" />
      <path
         transform="matrix(0.8,0,0,0.8,-1.2478673,-1.6638231)"
         d="m 403.99702,346.62985 c 0,25.12629 -20.36887,45.49517 -45.49516,45.49517 -25.12628,0 -45.49516,-20.36888 -45.49516,-45.49517 0,-25.12628 20.36888,-45.49516 45.49516,-45.49516 25.12629,0 45.49516,20.36888 45.49516,45.49516 z"
         sodipodi:ry="45.495163"
         sodipodi:rx="45.495163"
         sodipodi:cy="346.62985"
         sodipodi:cx="358.50186"
         id="path7376"
         style="fill:none;stroke:#000000;stroke-width:1.29999995;stroke-linecap:round;stroke-miterlimit:4;stroke-opacity:1;stroke-dasharray:none;stroke-dashoffset:0"
         sodipodi:type="arc" />
      <path
         transform="scale(0.8,0.8)"
         inkscape:connector-curvature="0"
         id="path7378"
         d="M 367.99087,388.74536 367.60091,300.8747"
         style="fill:none;stroke:#000000;stroke-width:1px;stroke-linecap:butt;stroke-linejoin:miter;stroke-opacity:1" />
      <path
         sodipodi:nodetypes="cc"
         inkscape:connector-curvature="0"
         id="path7380"
         d="m 276.97455,241.53167 0,-4.57551"
         style="fill:none;stroke:#000000;stroke-width:0.80000001px;stroke-linecap:butt;stroke-linejoin:miter;stroke-opacity:1" />
      <path
         inkscape:connector-curvature="0"
         id="path7382"
         d="m 243.77084,276.4041 -134.03064,0"
         style="fill:none;stroke:#000000;stroke-width:1.5999999;stroke-linecap:butt;stroke-linejoin:miter;stroke-miterlimit:4;stroke-opacity:1;stroke-dasharray:none" />
      <path
         sodipodi:nodetypes="cc"
         transform="scale(0.8,0.8)"
         inkscape:connector-curvature="0"
         id="path7892"
         d="m 605.32869,329.90191 c 1.00669,1.9294 3.46738,0.86097 4.29059,0.52738"
         style="fill:none;stroke:#000000;stroke-width:1px;stroke-linecap:round;stroke-linejoin:miter;stroke-opacity:1" />
      <path
         sodipodi:nodetypes="cc"
         transform="scale(0.8,0.8)"
         inkscape:connector-curvature="0"
         id="path7894"
         d="m 112.76775,346.10012 c 0.42701,-1.90143 2.07172,-3.15845 3.77995,-4.15549"
         style="fill:none;stroke:#000000;stroke-width:1px;stroke-linecap:round;stroke-linejoin:miter;stroke-opacity:1" />
      <path
         style="fill:none;stroke:#000000;stroke-width:0.80000001px;stroke-linecap:round;stroke-linejoin:miter;stroke-opacity:1"
         d="m 82.390471,289.29461 c 0.341608,-1.52115 1.657376,-2.52676 3.02396,-3.32439"
         id="path7896"
         inkscape:connector-curvature="0"
         sodipodi:nodetypes="cc" />
    </g>
    <text
       sodipodi:linespacing="125%"
       id="text8038"
       style="font-size:19.75px;font-style:normal;font-variant:normal;font-weight:300;font-stretch:normal;line-height:125%;letter-spacing:0px;word-spacing:0px;fill:#000000;fill-opacity:1;stroke:none;font-family:Nissan AG;-inkscape-font-specification:Nissan AG Light"
       xml:space="preserve"
       transform="translate(-1.0105629e-6,1.3209033)"><textPath
         xlink:href="#path8042"
         id="textPath8044"
         style="font-size:14px">экспериментатор</textPath></text>
    <path
       transform="matrix(0.37084393,0,0,0.37458982,196.20767,531.24128)"
       d="M 357.01277,373.98399 C 404.68495,340.09274 468.8318,339.89748 516.7136,373.49787"
       sodipodi:ry="136.11171"
       sodipodi:rx="137.48657"
       sodipodi:cy="484.54263"
       sodipodi:cx="437.20731"
       id="path8047"
       style="fill:#ffffff;fill-opacity:1;fill-rule:nonzero;stroke:#000000;stroke-width:0;stroke-linecap:round;stroke-miterlimit:4;stroke-opacity:1;stroke-dasharray:none;stroke-dashoffset:0"
       sodipodi:type="arc"
       sodipodi:start="4.0896158"
       sodipodi:end="5.3290128"
       sodipodi:open="true" />
    <text
       xml:space="preserve"
       style="font-size:19.75px;font-style:normal;font-variant:normal;font-weight:300;font-stretch:normal;line-height:125%;letter-spacing:0px;word-spacing:0px;fill:#000000;fill-opacity:1;stroke:none;font-family:Nissan AG;-inkscape-font-specification:Nissan AG Light"
       id="text8034"
       sodipodi:linespacing="125%"
       transform="translate(0,1.7621741)"><textPath
         xlink:href="#path8047"
         id="textPath8049"><tspan
   style="font-size:15px"
   id="tspan8036"
   dx="0 4.3611593"> лучший</tspan></textPath></text>
    <path
       sodipodi:type="arc"
       style="fill:#ffffff;fill-opacity:1;fill-rule:nonzero;stroke:#000000;stroke-width:2.10291982;stroke-linecap:round;stroke-miterlimit:4;stroke-opacity:1;stroke-dasharray:none;stroke-dashoffset:0"
       id="path6421-2"
       sodipodi:cx="437.20731"
       sodipodi:cy="484.54263"
       sodipodi:rx="137.48657"
       sodipodi:ry="136.11171"
       d="m 574.69388,484.54263 a 137.48657,136.11171 0 1 1 -274.97315,0 137.48657,136.11171 0 1 1 274.97315,0 z"
       transform="matrix(-0.4731457,0,0,0.47792494,571.87658,324.11148)" />
    <path
       transform="matrix(-0.37369433,0,0,0.37746901,527.87969,372.70536)"
       d="m 556.99884,551.34047 c -37.26406,65.49744 -121.10505,88.68721 -187.26409,51.79578 -22.33641,-12.45516 -40.71043,-30.84479 -53.04723,-53.09227"
       sodipodi:ry="136.11171"
       sodipodi:rx="137.48657"
       sodipodi:cy="484.54263"
       sodipodi:cx="437.20731"
       id="path8084"
       style="fill:#ffffff;fill-opacity:1;fill-rule:nonzero;stroke:#000000;stroke-width:0;stroke-miterlimit:4;stroke-opacity:1;stroke-dasharray:none"
       sodipodi:type="arc"
       sodipodi:start="0.51295885"
       sodipodi:end="2.6395327"
       sodipodi:open="true" />
    <path
       style="fill:#000000;stroke:none"
       inkscape:connector-curvature="0"
       id="path7153-9"
       d="m 366.3261,537.53997 c 0,0.49628 0.10448,0.60076 0.5224,0.49628 0.28732,-0.0784 1.25272,0.45238 2.19305,0.8703 0.94032,0.44404 1.39902,0.97478 1.39902,0.89642 0,-0.20897 -2.91295,-2.10628 -3.38311,-2.10628 -0.28732,0 -0.47016,-0.20896 -0.47016,-0.5224 -0.37297,-0.64822 -4.87052,-0.62317 -4.53438,-0.0433 0.33613,0.57989 4.24915,-0.98489 4.27318,0.40896 z"
       sodipodi:nodetypes="sccssczcs" />
    <path
       style="fill:#000000;stroke:none"
       inkscape:connector-curvature="0"
       id="path7159-1"
       d="m 360.74582,538.35911 c -1.48885,0.62688 -2.51694,1.29659 -2.2035,1.32271 0.0784,0 0.7836,-0.42313 1.5672,-0.78882 0.75748,-0.36568 1.54109,-0.51719 1.69781,-0.51719 0.2612,0 0.0896,2.25659 0.1418,9.77917 l 0.3284,9.68029 2.24737,0.10865 c 2.19152,0.10594 2.19304,-0.10865 2.2714,-0.78777 0.0522,-0.44405 0.31344,-0.75749 0.7836,-0.96645 0,0 1.87175,-0.64462 1.7808,-0.8443 -0.091,-0.19969 -2.18413,0.75211 -2.18413,0.75211 -0.60076,0.10448 -0.30191,-0.0123 -0.40639,-0.66529 -0.0522,-0.3918 -0.1306,-0.0522 -0.15672,0.75748 l -0.0261,1.51497 -2.08961,-0.16297 -2.0896,0.16297 0.2603,-9.89951 -0.3909,-9.92563 z"
       sodipodi:nodetypes="cccsccscczccccccccc" />
    <path
       style="fill:#000000;stroke:none"
       inkscape:connector-curvature="0"
       id="path7175-9"
       d="m 354.25863,545.34987 c -0.60077,0.10448 -0.70525,0.2612 -0.86197,1.41049 -0.10448,0.73136 -0.1306,1.38436 -0.0522,1.46272 0.10448,0.0784 0.23508,-0.47016 0.33956,-1.20152 0.1306,-1.04481 0.2612,-1.33213 0.65301,-1.33213 0.33956,0 0.49628,0.23508 0.57464,0.83584 0.0784,0.75749 0.10448,0.70525 0.1306,-0.2612 0.0261,-0.60076 0.0261,-1.07092 0,-1.07092 -0.0522,0.0261 -0.3918,0.10448 -0.7836,0.15672 z" />
    <path
       style="fill:#000000;stroke:none"
       inkscape:connector-curvature="0"
       id="path7177-5"
       d="m 373.95316,546.91708 -0.11073,1.39273 c 0.2194,-0.65538 0.16344,-2.60206 0.81597,-2.62038 0.3918,0 0.52241,0.28732 0.67913,1.35825 0.1306,0.75748 0.22278,1.90524 0.27502,1.64404 0.8256,-1.68232 -0.10196,-1.56853 -0.14442,-2.63661 0,-0.5224 -0.1306,-0.62688 -0.78361,-0.62688 l -0.94657,-0.0136 z"
       sodipodi:nodetypes="ccccccscc" />
    <path
       style="fill:#000000;stroke:none"
       inkscape:connector-curvature="0"
       id="path7187-7"
       d="m 375.65243,547.41029 c 0.47017,0.28732 28.62522,0.44097 29.53942,0.15365 0.47016,-0.15672 -26.91205,-0.6315 -28.21805,-0.65762 -1.27988,0 -1.58257,0.32113 -1.32137,0.50397 z"
       sodipodi:nodetypes="cccc" />
    <path
       style="fill:#000000;stroke:none"
       inkscape:connector-curvature="0"
       id="path7205-2"
       d="m 354.88551,548.43204 c 0,0.41792 0.0522,0.62688 0.1306,0.47016 0.0522,-0.18284 0.0522,-0.54852 0,-0.7836 -0.0784,-0.2612 -0.1306,-0.1306 -0.1306,0.31344 z" />
    <path
       style="fill:#000000;stroke:none"
       inkscape:connector-curvature="0"
       id="path7207-0"
       d="m 353.407,548.25344 c 0.14238,0.1306 0.66448,0.2612 1.09165,0.2612 0.71194,0 0.71194,-0.0522 0.0949,-0.2612 -0.94927,-0.33956 -1.56629,-0.33956 -1.18658,0 z" />
    <path
       style="fill:#000000;stroke:none"
       inkscape:connector-curvature="0"
       id="path7209-4"
       d="m 374.31576,548.59336 c -0.49628,0.20896 -0.68835,0.50397 -0.13983,0.50397 0.31344,0.0261 1.34444,-0.14289 1.4228,-0.27349 0.18284,-0.31344 -0.55161,-0.54392 -1.28297,-0.23048 z"
       sodipodi:nodetypes="cccc" />
    <path
       style="fill:#000000;stroke:none"
       inkscape:connector-curvature="0"
       id="path7213-3"
       d="m 373.56651,549.28872 c -0.0261,0.28732 -0.19647,1.03381 -0.11813,0.92933 0.0784,-0.0784 0.67971,-1.03766 0.60135,-1.2205 -0.0784,-0.20896 -0.48323,0.004 -0.48323,0.29117 z"
       sodipodi:nodetypes="ccccc" />
    <path
       style="fill:#000000;stroke:none"
       inkscape:connector-curvature="0"
       id="path7219-8"
       d="m 355.35567,550.54777 c 0,0.28732 0.99256,1.93288 1.1754,1.93288 0.0522,0 -0.1306,-0.44404 -0.44404,-0.99256 -0.70524,-1.20152 -0.73136,-1.25376 -0.73136,-0.94032 z" />
    <path
       style="fill:#000000;stroke:none"
       inkscape:connector-curvature="0"
       id="path7227-4"
       d="m 357.44527,553.62994 c 0.75749,0.88808 2.55977,2.24632 2.97769,2.24632 0.15672,0 -0.18284,-0.31344 -0.75748,-0.67912 -0.57464,-0.3918 -1.46272,-1.07092 -1.95901,-1.51496 -0.88808,-0.78361 -0.88808,-0.78361 -0.2612,-0.0522 z" />
    <path
       style="fill:#000000;stroke:none"
       inkscape:connector-curvature="0"
       id="path7233-4"
       d="m 361.10208,556.13746 c 0.20897,0.1306 0.52241,0.2612 0.65301,0.2612 0.15672,0 0.0784,-0.1306 -0.1306,-0.2612 -0.20896,-0.1306 -0.49629,-0.2612 -0.65301,-0.2612 -0.1306,0 -0.0784,0.1306 0.1306,0.2612 z" />
    <path
       sodipodi:type="arc"
       style="fill:none;stroke:#000000;stroke-width:3.34991381;stroke-linecap:round;stroke-miterlimit:4;stroke-opacity:1;stroke-dasharray:none;stroke-dashoffset:0"
       id="path7376-9"
       sodipodi:cx="358.50186"
       sodipodi:cy="346.62985"
       sodipodi:rx="45.495163"
       sodipodi:ry="45.495163"
       d="m 403.99702,346.62985 c 0,25.12629 -20.36887,45.49517 -45.49516,45.49517 -25.12628,0 -45.49516,-20.36888 -45.49516,-45.49517 0,-25.12628 20.36888,-45.49516 45.49516,-45.49516 25.12629,0 45.49516,20.36888 45.49516,45.49516 z"
       transform="matrix(0.2089606,0,0,0.2089606,289.46834,474.73064)" />
    <path
       style="fill:none;stroke:#000000;stroke-width:0.40000001;stroke-linecap:butt;stroke-linejoin:miter;stroke-miterlimit:4;stroke-opacity:1;stroke-dasharray:none"
       d="m 366.68987,556.39769 -0.0815,-18.3615"
       id="path7378-7"
       inkscape:connector-curvature="0" />
    <path
       style="fill:none;stroke:#000000;stroke-width:0.20896061px;stroke-linecap:butt;stroke-linejoin:miter;stroke-opacity:1"
       d="m 362.14024,538.25348 0,-1.19512"
       id="path7380-3"
       inkscape:connector-curvature="0"
       sodipodi:nodetypes="cc" />
    <path
       style="fill:none;stroke:#000000;stroke-width:0.6076473;stroke-linecap:butt;stroke-linejoin:miter;stroke-miterlimit:4;stroke-opacity:1;stroke-dasharray:none"
       d="m 353.50699,547.037 -18.88674,0"
       id="path7382-5"
       inkscape:connector-curvature="0" />
    <path
       style="fill:#000000;stroke:none"
       inkscape:connector-curvature="0"
       id="path7235-9"
       d="m 399.63746,566.65236 c -0.3175,0.19052 -1.86648,0.31377 -1.10447,0.47253 0.60326,0.0953 4.52251,1.34067 5.98304,1.75342 1.42877,0.44451 2.93547,0.56459 3.03072,0.50109 -1.69086,-1.69357 -7.37815,-2.64054 -7.90929,-2.72704 z"
       sodipodi:nodetypes="ccccc" />
    <path
       style="fill:#000000;stroke:none"
       inkscape:connector-curvature="0"
       id="path7155-4"
       d="m 465.94662,537.01873 c -0.49629,0.3918 -0.67913,0.75748 -0.67913,1.48884 0,0.70525 -0.18284,1.07093 -0.67912,1.48885 -0.60076,0.47016 -0.62688,0.60076 -0.36568,1.27988 0.2612,0.70524 0.20896,0.83584 -0.653,1.72393 -0.88491,0.83909 -1.22156,1.32341 -0.82109,2.49066 0.40046,1.16724 3.03739,0.74296 4.30277,0.45875 0.10448,-0.15672 -1.5488,-0.0763 -1.96672,-0.0763 -1.5672,0 -1.90676,-0.23508 -1.90676,-1.306 0,-0.7836 0.15672,-1.12316 0.70524,-1.51496 l 0.70524,-0.5224 1.38437,1.41048 c 0.75748,0.75748 1.38436,1.51496 1.38436,1.67168 0,0.1306 -0.19662,0.18997 -0.58842,0.18997 0,0 -1.33342,-0.0201 -1.36767,0.27499 -0.0343,0.29505 1.27697,-0.0209 1.27697,-0.0209 1.85464,2.68764 7.11556,4.96598 1.57854,0.85272 -0.41792,-0.26121 -0.40314,-1.03557 0.067,-1.03557 0.99257,0 3.99637,1.14929 4.02249,1.54109 0,0.28732 0.0522,0.31344 0.15672,0.0784 0.0522,-0.15672 0.57465,-0.31344 1.09705,-0.31344 1.64556,0 2.32468,-1.33213 1.48884,-2.87321 -0.33956,-0.57464 -0.28732,-0.70524 0.2612,-1.4366 0.75749,-0.99257 0.80973,-1.98513 0.15672,-2.55977 -0.36568,-0.33956 -0.99256,-0.44404 -2.58588,-0.44404 l -2.08961,0 -0.83584,-1.30601 c -1.38437,-2.14184 -2.66425,-2.63812 -4.04861,-1.54108 z m 2.8732,0.54852 c 0.96645,1.0448 1.75005,2.29857 1.56721,2.48141 -0.23508,0.23508 -1.27988,0.15672 -3.02993,-0.23508 -1.67168,-0.36568 -1.6978,-0.3918 -1.77617,-1.30601 -0.0522,-0.73136 0.0523,-1.0448 0.52241,-1.35824 0.94032,-0.653 1.85452,-0.5224 2.71648,0.41792 z m -3.31725,3.29113 c 0.18285,0.62688 0.15673,0.83584 -0.15672,0.94032 -0.20896,0.0784 -0.49628,0.10448 -0.62688,0 -0.36568,-0.20896 -0.28732,-1.61944 0.10448,-1.75004 0.41792,-0.15672 0.41792,-0.1306 0.67912,0.80972 z m 2.19409,-0.70524 1.01868,0.2612 -0.94032,0.5224 c -1.33212,0.70524 -1.72392,0.653 -1.72392,-0.28732 0,-0.86196 0.15672,-0.9142 1.64556,-0.49628 z m 7.60094,0.3918 c 0.57464,0.57464 0.5224,1.25376 -0.18284,2.06349 l -0.57464,0.70524 -1.4366,-0.96645 c -1.41049,-0.9142 -2.08961,-1.59332 -2.08961,-2.01124 0,-0.10448 0.86196,-0.20896 1.93289,-0.20896 1.41048,0 2.06348,0.10448 2.3508,0.41792 z m -4.54489,0.10448 c 0,0.1306 -0.18284,0.18284 -0.3918,0.10448 -0.49628,-0.20896 -0.49628,-0.36568 0,-0.36568 0.20896,0 0.3918,0.10448 0.3918,0.2612 z m -0.3918,0.47016 c 0.57464,0.36568 0.9142,0.88808 1.22764,1.88065 0.2612,0.75748 0.3918,1.46272 0.33956,1.5672 -0.0784,0.10448 -0.80972,0.33956 -1.67168,0.49628 -2.11573,0.41792 -2.74261,0.10448 -3.42173,-1.72392 -0.28732,-0.7836 -0.5224,-1.43661 -0.5224,-1.51497 0,-0.0522 0.3918,-0.18284 0.86196,-0.2612 0.44404,-0.10448 1.07092,-0.36568 1.35824,-0.54852 0.65301,-0.47016 0.88809,-0.47016 1.82841,0.10448 z m 3.26501,1.93289 c 0.70524,0.5224 0.70524,0.49628 -0.41792,1.07092 l -0.80973,0.41792 -0.31344,-1.07092 c -0.18284,-0.57464 -0.3918,-1.22765 -0.47016,-1.43661 -0.15672,-0.3918 0.49628,-0.0522 2.01125,1.01869 z m -7.23526,-0.1306 c 0.20896,0.54852 0.33956,1.0448 0.28732,1.09704 -0.0784,0.0784 -0.49628,-0.2612 -0.96644,-0.70524 -0.70525,-0.70524 -0.78361,-0.88809 -0.44405,-1.09705 0.60077,-0.3918 0.70525,-0.33956 1.12317,0.70525 z m 8.80246,2.69036 c 0,0.94033 -0.54852,1.35825 -1.61944,1.25377 -0.75748,-0.0784 -0.86196,-0.18284 -1.01869,-1.07093 -0.15672,-0.94032 -0.10448,-1.01868 0.78361,-1.48884 0.94032,-0.49628 0.94032,-0.49628 1.41048,0.0522 0.23508,0.28732 0.44404,0.86196 0.44404,1.25376 z m -2.87321,0.44405 c 0,0.70524 -0.0784,0.73136 -1.67168,0.18284 -1.38436,-0.47017 -1.35824,-0.62689 0.18284,-1.04481 1.20152,-0.31344 1.48884,-0.1306 1.48884,0.86197 z m -4.30981,-0.70525 c 0.0784,0.1306 0.0522,0.2612 -0.10448,0.2612 -0.1306,0 -0.33956,-0.1306 -0.41792,-0.2612 -0.0784,-0.15672 -0.0522,-0.2612 0.10448,-0.2612 0.1306,0 0.33956,0.10448 0.41792,0.2612 z"
       sodipodi:nodetypes="csccczcsscccsczccsccscccscccccccccccccccccsccsccsscscsscccccsccccccccccscccsccccsscsscscscsc" />
    <path
       style="fill:#000000;stroke:none"
       inkscape:connector-curvature="0"
       id="path7157-0"
       d="m 468.32354,542.42558 c -0.36568,0.39181 -0.38335,0.54008 -0.096,0.93188 0.31344,0.41792 0.44089,0.55225 0.41477,-0.12687 0,-0.60076 0.0208,-0.90949 0.62159,-0.96173 0.83584,-0.10448 0.9142,0.31345 0.2612,1.07093 -0.47017,0.49628 -0.44405,0.5224 0.1306,0.20896 0.41792,-0.20896 0.57464,-0.5224 0.5224,-0.88808 -0.10448,-0.75749 -1.25377,-0.91421 -1.85453,-0.23509 z"
       sodipodi:nodetypes="cccccccc" />
    <path
       style="fill:#000000;stroke:none"
       inkscape:connector-curvature="0"
       id="path7203-1"
       d="m 391.8086,547.35765 c 0.0217,0.27368 9.39611,0.28068 9.90412,0.47119 1.90701,0.4295 -0.14449,0.80154 -1.1602,2.09038 -3.84183,3.96882 -6.52343,8.64131 -7.53946,12.00688 -0.38101,1.17478 -1.82868,3.56248 -2.78119,5.56277 -0.95549,2.97663 -2.92624,4.22832 -5.2659,6.09096 -3.27031,2.60355 -5.60566,5.71384 -5.60566,6.3171 0,0.44451 2.60355,-0.69852 5.3976,-2.34954 1.30178,-0.76201 3.23856,-1.84153 4.28633,-2.3813 1.04777,-0.57151 2.60355,-1.74628 3.42906,-2.63529 1.97045,-2.24116 3.35384,-4.27817 1.48056,-2.37315 -1.33267,1.79864 -2.78358,3.32779 -4.49687,4.21468 -1.27002,0.66676 -3.30205,1.80979 -4.54033,2.54005 -1.20652,0.73026 -2.85755,1.65102 -3.65131,2.03203 -1.42878,0.69851 -1.39703,0.69851 0.98427,-1.61927 1.33352,-1.27002 3.39731,-3.04806 4.60383,-3.90533 1.93678,-1.39702 2.38129,-1.93678 3.84182,-4.60383 0.92077,-1.65104 1.84153,-3.61957 2.03204,-4.31808 l 0.41275,-1.33352 0.88903,1.39702 c 0.47626,0.76201 1.23827,1.55577 1.65102,1.77803 l 0.79377,0.34925 -3.12982,4.265 c -1.21105,1.93006 0.6834,-0.15358 2.02148,-1.74697 1.20652,-1.30178 2.35185,-2.17451 3.52661,-1.98399 0.73027,0.0953 1.90835,0.24826 2.03535,0.0577 0.0953,-0.15876 -0.78394,-0.63667 -1.19669,-0.63667 -0.41276,-0.0317 -1.7329,-0.17738 -2.43142,-0.20913 -1.01602,-0.0634 -1.42877,-0.28575 -2.28604,-1.27002 -1.07951,-1.27002 -0.97223,-1.58408 -0.81347,-3.74313 0.127,-2.34953 4.09067,-8.20965 7.96423,-11.92447 1.11128,-1.07952 0.9774,-1.41421 1.86641,-0.8427 2.54005,1.61927 3.52432,3.17506 2.92106,4.66733 -0.34926,0.88902 -0.38101,0.88902 -1.01603,0.34926 -0.82551,-0.73026 -0.57151,-0.25401 1.23828,2.28605 0.73026,1.04776 1.80978,2.31778 2.38129,2.85755 0.57151,0.50801 0.88901,0.73026 0.73026,0.47626 -0.44451,-0.60327 -1.87328,-4.22283 -2.28604,-5.81037 -0.254,-0.85726 -0.22225,-1.11126 0,-0.95251 0.25401,0.127 0.28576,0 0.12701,-0.38101 -0.19051,-0.508 -0.12701,-0.508 0.34925,-0.127 0.31751,0.22225 4.08067,3.46835 4.87443,4.16687 0.79377,0.73026 -0.0966,-0.46072 -1.17618,-1.57198 -1.55577,-1.55579 -4.23801,-3.86491 -4.26976,-4.65868 l -0.0634,-0.98427 -0.1905,1.04777 -0.19051,1.04778 -1.36528,-1.39704 c -1.36527,-1.36527 -1.36527,-1.39702 -0.63501,-1.65102 0.57151,-0.19051 0.34926,-0.28576 -1.17477,-0.50801 -1.04776,-0.15875 -2.98456,-0.34926 -4.28633,-0.41276 -2.13108,0.13713 -8.21137,-0.0146 -8.1896,0.25907 z m 17.39726,10.63137 c 0,0.0634 -0.57151,-0.63501 -1.30177,-1.52402 -1.23827,-1.55578 -1.30177,-1.68278 -0.88901,-2.60356 l 0.381,-0.98426 0.88902,2.47655 c 0.50801,1.39702 0.92076,2.57179 0.92076,2.63529 z"
       sodipodi:nodetypes="scccccscccccccccccccccccccccccccccccccccccccccccccczsscccss" />
    <path
       style="fill:#000000;stroke:none"
       inkscape:connector-curvature="0"
       id="path7211-2"
       d="m 471.95423,548.51156 c -0.36568,0.44404 -2.05227,0.37977 -2.56195,-0.34281 -0.67912,-0.10448 0.50141,0.66548 0.76261,0.8222 0.653,0.41793 1.53814,0.30421 2.03442,-0.24431 0.2612,-0.28732 0.60096,-1.58451 0.32018,-1.56348 -0.28078,0.021 -0.29406,1.04108 -0.55526,1.3284 z"
       sodipodi:nodetypes="cccczc" />
    <path
       style="fill:#000000;stroke:none"
       inkscape:connector-curvature="0"
       id="path7225-3"
       d="m 408.25335,552.78193 c 0,0.0634 0.57151,1.07951 1.23827,2.19079 2.01776,3.1341 3.59595,6.95423 -0.25401,4.95309 -2.28603,-1.20653 -4.63558,-3.14331 -5.8421,-4.79433 -0.50801,-0.66678 -0.98427,-1.23829 -1.04777,-1.23829 -0.25401,0 0.41276,1.04778 1.39703,2.22255 l 0.92076,1.07952 -1.36527,1.39702 c -0.76201,0.73027 -1.65104,1.77804 -2.03205,2.28605 l -0.63501,0.88901 1.65104,0.79377 c 0.92077,0.44451 2.47654,1.11127 3.42906,1.49228 4.22282,1.71453 4.16284,2.26061 4.54385,3.14962 0.76202,1.90504 -0.41628,3.93075 -6.44888,8.85211 -1.84154,1.49227 -3.61957,2.95279 -3.93708,3.2068 -0.92076,0.76202 1.55578,-2.7623 3.30207,-4.69909 0.82551,-0.95252 3.14802,-3.77922 3.62428,-4.66823 1.04777,-1.96854 -0.51273,-0.31661 -2.48127,2.4457 -0.79376,1.17476 -1.87327,2.54003 -2.3813,3.01629 -1.39702,1.42879 -3.23855,4.34983 -2.92104,4.66735 0.50801,0.50801 10.72876,-7.40024 12.1893,-9.55928 1.89301,-4.90301 -4.40475,-7.0252 -8.05599,-8.36365 l -1.53962,-0.62634 1.65222,-1.75611 1.96795,-1.86639 c 1.04079,1.1664 2.47129,2.03499 3.73215,2.76923 3.11156,1.74627 4.34175,0.35218 2.75422,-2.50538 -2.38129,-4.22283 -3.46081,-5.87385 -3.46081,-5.33409 z"
       sodipodi:nodetypes="scccsccccccccccccccscccccccs" />
    <path
       style="fill:#000000;stroke:none"
       inkscape:connector-curvature="0"
       id="path7231-4"
       d="m 412.95243,557.67152 c -0.63501,-0.15876 -0.88901,-0.15876 -0.69851,0.0317 0.15876,0.15875 0.63501,0.34926 1.07952,0.38101 0.95252,0.127 1.13372,-0.72643 0.4352,-1.61545 -0.50801,-0.63501 -3.33057,-3.48571 -3.01307,-2.81895 0.99165,0.61701 4.46547,4.65014 2.19686,4.02167 z"
       sodipodi:nodetypes="cscccc" />
    <path
       style="fill:none;stroke:#000000;stroke-width:0.20896059px;stroke-linecap:round;stroke-linejoin:miter;stroke-opacity:1"
       d="m 468.47059,543.50213 c 0.21035,0.40317 0.72454,0.17991 0.89656,0.1102"
       id="path7892-2"
       inkscape:connector-curvature="0"
       sodipodi:nodetypes="cc" />
    <g
       id="g8597"
       transform="matrix(1.5568886,0,0,1.5568886,-146.72425,-2.9982224)">
      <path
         sodipodi:nodetypes="ccsccccccccsccsccccccccccccccccccsccccssscccccccsccsccscscccccsccccccccsscccccsccsc"
         d="m 300.93295,348.57153 c -0.73881,0.23508 -1.64553,0.77239 -2.0821,1.17537 -0.83955,0.80599 -1.84701,3.29106 -1.84701,4.60076 0,0.94032 -0.33583,0.9739 -1.44405,0.1008 -0.97388,-0.77239 -2.65298,-0.87313 -3.22388,-0.20149 -0.23507,0.26866 -0.3694,1.1418 -0.30224,1.91419 0.0671,1.17538 0.26866,1.54478 0.97388,1.94776 0.80597,0.43657 1.00747,0.40299 2.51866,-0.50373 2.61942,-1.54477 3.52613,-1.74627 5.6754,-1.37686 l 1.91418,0.30224 -1.20895,1.00746 c -0.67165,0.53731 -1.60817,1.51317 -1.60817,1.71467 0,0.23507 0.32145,0.16503 0.48936,-0.13721 0.50373,-0.83956 2.73075,-2.31627 4.7121,-2.85358 2.31717,-0.60448 2.25,-0.63806 2.25,0.80597 0,1.37687 -0.97388,2.68658 -1.6791,2.25001 -0.40299,-0.23508 -0.0901,-1.58805 0.41357,-2.96492 0.23507,-0.67164 0.048,-0.5488 -0.45578,0.0892 -1.14179,1.41045 -0.39436,3.81597 1.01609,3.04358 0.70522,-0.36942 0.9403,-1.00748 1.10821,-2.85449 0.0671,-0.63806 0.26866,-1.00747 0.60448,-0.97388 0.26865,0 1.44404,0.13432 2.61941,0.23507 1.1418,0.13433 2.08209,0.1008 2.04851,-0.0336 0,-0.13432 -0.87313,-0.63806 -1.91418,-1.14179 -1.61194,-0.7724 -2.01494,-1.1418 -2.38434,-2.18285 -0.5709,-1.64552 -1.8806,-3.05598 -3.5597,-3.82837 -1.57837,-0.73881 -2.88808,-0.77239 -4.63435,-0.13433 z m 4.73509,0.50373 c 1.47762,0.67164 1.49555,1.42408 0.75675,2.43154 -0.40299,0.53733 -0.59262,-0.34108 -1.29784,-0.71048 -0.67164,-0.33582 -0.5651,-0.22726 -0.19569,0.14214 0.87313,0.94032 0.3338,1.59577 -3.02442,1.19279 -0.13433,-0.0336 -0.093,-0.18383 0.008,-0.58682 -0.001,-0.60413 -0.55841,-0.11288 -0.92851,-0.27264 -0.43434,-0.18748 -0.74913,-0.25392 -1.13426,-1.20375 -0.30224,-0.77239 -0.52906,-0.69825 -0.52906,-0.0602 -0.0335,0.403 0.93849,1.1831 1.20715,1.41818 0.47015,0.3694 0.30224,0.90671 -0.73882,2.31716 -0.0671,0.1008 -0.47015,-0.20149 -0.9403,-0.63806 -0.47015,-0.43656 -1.26946,-0.72731 -1.26946,-0.52582 0,0.2015 0.79931,0.7609 1.26946,1.06314 0.47015,0.30224 1.15015,0.48628 1.15015,0.88927 0.43892,0.45956 0.90914,0.02 2.64464,0.62193 1.14179,0.43657 0.90672,1.04105 -0.33582,0.83956 -0.60448,-0.1008 -1.71269,-0.26866 -2.45151,-0.36941 -2.55224,-0.3694 -2.58582,-0.40298 -2.35075,-1.94777 0.47015,-2.8209 1.54478,-4.16419 4.02987,-4.97017 1.24254,-0.43656 2.68657,-0.30223 4.13061,0.36941 z m 3.08956,3.72763 c 0,0.30224 -0.23508,0.7388 -0.53732,1.00746 -0.43656,0.33582 -0.57089,0.33582 -0.83955,-0.0671 -0.97388,-1.44403 -1.00746,-1.64552 -0.40298,-2.45149 l 0.60447,-0.80598 0.5709,0.90672 c 0.33582,0.47015 0.60448,1.10821 0.60448,1.41045 z m -6.54853,-0.30224 c 0.60448,0.26866 0.83956,0.63806 0.83956,1.34328 0,0.94031 -0.0671,0.9739 -1.07463,0.77239 -1.51121,-0.33582 -1.7127,-0.60448 -1.24254,-1.61194 0.47015,-1.04104 0.3694,-1.00746 1.47761,-0.50373 z m 4.39927,0.77239 c 0.67164,1.04104 0.43657,1.37686 -1.04104,1.61195 -1.64554,0.26866 -2.18285,0 -2.18285,-1.10822 0,-0.83955 0.13433,-0.97388 1.10821,-1.10821 0.57089,-0.0671 1.17538,-0.16791 1.30971,-0.16791 0.13433,-0.0336 0.50373,0.30224 0.80597,0.77239 z m 4.33211,1.64553 1.00746,0.53732 -1.34328,-0.0671 c -0.9403,-0.0671 -1.30972,-0.23507 -1.24256,-0.57089 0.1008,-0.403 0,-0.403 -0.40298,-0.0671 -0.53731,0.43656 -3.66045,1.37686 -4.63434,1.37686 -0.33582,0 -0.60448,-0.13433 -0.60448,-0.30224 0,-0.23507 2.25001,-0.80597 3.52613,-0.87313 0.20149,0 0.60448,-0.33584 0.97388,-0.7724 0.53732,-0.67164 0.67165,-0.70523 1.17538,-0.30224 0.30225,0.26866 1.00747,0.7388 1.54479,1.04106 z m -15.44782,-0.13433 c 0.57089,0.36941 1.27613,0.67165 1.61195,0.67165 1.04105,0 0.60448,0.50373 -1.37688,1.57836 -1.81343,1.00746 -2.01492,1.04104 -2.68657,0.57089 -0.53731,-0.3694 -0.7388,-0.83955 -0.7388,-1.81343 0,-1.81345 1.34328,-2.21643 3.1903,-1.00747 z"
         id="path7171-6"
         inkscape:connector-curvature="0"
         style="fill:#000000;stroke:none" />
      <path
         d="m 302.17549,349.91481 c 0.77239,0.70524 1.20896,0.83957 2.31717,0.77241 0.83956,-0.0671 1.41046,-0.30224 1.5112,-0.60449 0.13433,-0.40299 0.0671,-0.43657 -0.30223,-0.1008 -0.67166,0.67165 -2.45151,0.50374 -3.52614,-0.26866 l -0.97388,-0.70522 0.97388,0.90671 z"
         id="path7173-5"
         inkscape:connector-curvature="0"
         style="fill:#000000;stroke:none" />
      <path
         sodipodi:nodetypes="ccsccsc"
         d="m 299.42175,357.5044 c -1.5112,1.07462 -1.67911,1.77986 -0.67165,2.4515 0.43657,0.26866 1.25798,-0.072 1.52664,-0.34067 0.30224,-0.30224 0.29649,-0.43082 -0.24083,-0.26291 -0.97388,0.23508 -2.08891,-0.25897 -1.21576,-0.7627 0.73881,-0.43657 2.53165,-2.37496 2.73558,-2.49189 0.26775,-0.15354 -1.32801,0.86935 -2.13398,1.40667 z"
         id="path7221-6"
         inkscape:connector-curvature="0"
         style="fill:#000000;stroke:none" />
      <path
         sodipodi:nodetypes="cc"
         inkscape:connector-curvature="0"
         id="path7894-5"
         d="m 301.77728,351.38575 c 0.11468,-0.51084 0.55657,-0.84854 1.01551,-1.11639"
         style="fill:none;stroke:#000000;stroke-width:0.26865757px;stroke-linecap:round;stroke-linejoin:miter;stroke-opacity:1" />
      <path
         style="fill:none;stroke:#000000;stroke-width:0.26865759px;stroke-linecap:round;stroke-linejoin:miter;stroke-opacity:1"
         d="m 299.14989,355.55482 c 0.11468,-0.51084 0.55658,-0.84854 1.01551,-1.1164"
         id="path7896-9"
         inkscape:connector-curvature="0"
         sodipodi:nodetypes="cc" />
    </g>
    <path
       transform="matrix(0.37084393,0,0,0.37458982,202.63427,374.10045)"
       d="M 357.01277,373.98399 C 404.68495,340.09274 468.8318,339.89748 516.7136,373.49787"
       sodipodi:ry="136.11171"
       sodipodi:rx="137.48657"
       sodipodi:cy="484.54263"
       sodipodi:cx="437.20731"
       id="path8118"
       style="fill:#ffffff;fill-opacity:1;fill-rule:nonzero;stroke:#000000;stroke-width:0;stroke-linecap:round;stroke-miterlimit:4;stroke-opacity:1;stroke-dasharray:none;stroke-dashoffset:0"
       sodipodi:type="arc"
       sodipodi:start="4.0896158"
       sodipodi:end="5.3290128"
       sodipodi:open="true" />
    <text
       xml:space="preserve"
       style="font-size:15.5px;font-style:normal;font-variant:normal;font-weight:300;font-stretch:normal;line-height:125%;letter-spacing:0px;word-spacing:0px;fill:#000000;fill-opacity:1;stroke:none;font-family:Nissan AG;-inkscape-font-specification:Nissan AG Light"
       id="text8034-0"
       sodipodi:linespacing="125%"
       transform="translate(0.38836341,1.5439282)"><textPath
         xlink:href="#path8047-6"
         id="textPath8049-9"><tspan
   style="font-size:15.5px"
   id="tspan8036-8"
   dx="0 4.3611593"> лучший</tspan></textPath></text>
    <path
       transform="matrix(0.42199482,0,0,0.42625737,180.27072,349.06532)"
       style="fill:none;stroke:#000000;stroke-width:0;stroke-linecap:round;stroke-miterlimit:4;stroke-dashoffset:0;stroke-opacity:1;stroke-dasharray:none"
       d="m 315.78789,548.39482 c 12.58159,23.44868 31.816,42.7423 55.33438,55.50473 66.58486,36.13278 150.14982,11.98627 186.64758,-53.93273"
       id="path3627" />
    <text
       xml:space="preserve"
       style="font-size:19.75px;font-style:normal;font-variant:normal;font-weight:300;font-stretch:normal;line-height:125%;letter-spacing:0px;word-spacing:0px;fill:#000000;fill-opacity:1;stroke:none;font-family:Nissan AG;-inkscape-font-specification:Nissan AG Light"
       id="text3629"
       sodipodi:linespacing="125%"><textPath
         xlink:href="#path3627"
         id="textPath3640"><tspan
   style="font-size:15.5px"
   id="tspan3631"> экспериментатор</tspan></textPath></text>
    <g
       id="g7217"
       transform="matrix(0.68151963,0.39347553,-0.39347553,0.68151963,350.51113,30.516219)">
      <path
         style="fill:#000000;stroke:none"
         d="m 395.20097,514.59386 c -1.72499,0.32605 -3.22837,1.2806 -4.74479,2.09671 -1.23965,0.10023 -1.92507,-1.2717 -3.06374,-1.58291 -1.19688,-0.58309 -2.71609,-0.86438 -3.91444,-0.13321 -1.30867,1.0252 0.0642,3.1271 -1.19935,3.96546 -1.67261,1.10497 -3.47212,2.18004 -4.64355,3.85308 -0.3276,1.41229 -0.088,3.07491 1.15984,3.97395 1.1223,1.06035 2.48767,1.82191 3.89041,2.44543 -0.36813,1.42932 -0.0908,3.09241 1.09985,4.05927 1.42101,0.82165 3.11955,-8.5e-4 4.32589,-0.86402 1.00212,-0.66988 1.87441,-1.55654 2.96882,-2.07331 1.42454,-0.28378 2.34049,1.14653 3.38282,1.86037 1.22101,0.95754 2.84789,1.78605 4.42548,1.33664 1.24861,-0.70806 1.43668,-2.53663 0.90169,-3.75559 -0.69302,-1.82435 -2.0161,-3.33762 -2.73133,-5.14083 -0.0738,-1.34688 1.39034,-2.0533 1.78258,-3.26512 0.12991,-1.0502 0.8709,-1.36604 1.77627,-0.9944 1.44815,0.70364 2.66118,1.37247 3.32302,2.89727 0.35586,1.87795 -3.09992,5.10317 -4.95808,5.86518 -0.51061,0.35792 0.0343,0.0211 0.22628,0.48451 1.26056,0.40596 3.11419,-1.2112 3.9637,-1.96539 0.98315,-0.96025 1.68771,-2.29577 1.50944,-3.70185 0.21701,-1.6676 -1.0088,-2.91164 -2.40384,-3.56243 -1.19997,-0.84894 -3.29677,-1.18572 -2.70365,-3.09973 0.0387,-0.94162 1.25419,-2.68493 -1.94203,-2.79804 2.2694,0.20652 1.78731,2.74931 1.36748,4.16908 -1.67231,-0.72198 -3.5012,-0.89001 -5.25352,-1.33397 -0.67435,-0.23432 -2.02561,-0.19576 -2.26824,-0.58618 1.02798,-0.93798 2.44945,-1.29233 3.74464,-1.71086 0.59162,-0.25393 3.66611,0.045 3.6392,-0.42857 -0.37872,-0.41979 -2.94808,-0.079 -3.66085,-0.0105 z m -8.61986,0.83575 c 0.63649,0.40102 2.02975,0.67243 1.83023,1.35243 -1.71426,0.29736 -2.7485,0.53194 -4.33511,1.26427 -1.13899,-0.67767 -0.68802,-2.85033 0.68006,-2.94624 0.77284,-0.097 1.09682,0.0535 1.82482,0.32954 z m 2.15854,3.08174 c -1.22106,1.31032 -2.26181,2.77234 -3.30697,4.22275 -0.84083,-1.06686 -1.07172,-2.24213 -1.37681,-3.5408 0.74385,-1.11798 1.92579,-1.01781 3.11917,-1.45719 0.61506,-0.0394 2.44027,-0.65406 2.50005,-0.27898 -0.31182,0.35141 -0.62363,0.70281 -0.93544,1.05422 z m 5.1894,-0.66139 c 1.62973,0.28921 3.18357,0.87916 4.78647,1.27688 0.22216,1.37156 -0.49695,2.55209 -1.43106,3.43253 -1.69341,1.59613 -4.52632,-3.65393 -6.49279,-5.1673 1.06961,-0.0966 2.09291,0.30647 3.13738,0.45789 z m -2.51626,1.32491 c 1.53729,1.68767 3.18262,3.13861 4.46418,5.03531 -0.0423,0.45225 -0.58786,1.86158 0.30807,1.0478 1.29309,0.25285 1.08479,1.88437 1.89195,2.73428 0.88444,1.06747 0.0484,1.5113 -1.00947,1.32279 -1.70252,0.1905 -2.94423,0.35605 -4.64991,0.1729 0.65143,-1.06405 2.6258,-2.69822 3.43796,-3.62511 0.61241,-0.21437 1.29981,-2.09946 0.30822,-1.12644 -1.06361,1.07995 -3.34589,3.27823 -4.59943,4.14209 -1.95488,-1.54674 -3.52239,-2.96968 -5.10281,-4.89394 -0.6667,-1.22944 0.7999,-2.10805 1.44765,-3.02822 1.04691,-0.91637 1.24266,-1.95156 2.20889,-2.77961 0.70232,-0.0594 0.81225,0.63287 1.2947,0.99815 z m -8.25259,0.30313 c 0.14329,1.59776 1.58587,2.65834 1.55286,4.17285 -0.60296,1.24503 -1.32087,2.16236 -1.68824,3.51235 -0.3989,2.0452 -1.89242,0.5994 -2.83563,-0.0984 -1.11275,-0.96094 -2.30268,-2.24379 -1.80736,-3.81831 0.57442,-1.27322 1.85186,-1.84222 2.92534,-2.67947 0.4793,-0.1427 1.69665,-2.11224 1.85303,-1.089 z m 3.1713,5.32508 c 1.34971,1.66869 2.63872,3.0085 4.1708,4.50256 -0.72722,0.8172 -1.92746,0.19239 -2.93861,0.33749 -1.98029,0.61933 1.84472,0.24257 1.71023,1.10333 -1.39816,1.08789 -2.14693,1.79031 -3.89888,2.1775 -1.51366,0.0645 -2.16291,-1.54496 -2.04688,-2.83031 0.1138,-1.56901 6.7648,1.03533 7.06137,0.29325 0.007,-0.95948 -7.35398,-1.044 -6.97709,-2.37755 0.71232,-1.32073 1.05631,-2.95139 2.10906,-4.03421 0.41037,0.0695 0.5105,0.59847 0.81,0.82794 z m 12.88658,5.43636 c 0.66621,1.37502 -0.42462,3.25549 -2.08287,2.64299 -1.36685,-0.48528 -2.01662,-1.19466 -3.22551,-1.96764 -1.1412,-0.96499 1.0002,-0.44233 1.55469,-0.59434 1.24804,-0.0266 2.38881,-0.31017 3.60169,-0.60832 0.20053,0.0424 0.099,0.34536 0.152,0.52731 z"
         id="path4716"
         inkscape:connector-curvature="0"
         sodipodi:nodetypes="ccccccccccccccccccccccccccccccccccccccccccccscccccccccccccccccccccccccccccccccccccc" />
      <path
         d="m 390.23203,522.00487 c -0.35614,0.0848 -1.56021,1.23799 -1.67893,1.59413 -0.11871,0.32222 0.45789,1.4415 0.79707,1.57717 0.15263,0.0509 0.83098,0.10175 1.50934,0.10175 1.89938,0 2.37423,-0.5766 1.645,-2.00114 -0.54268,-1.0684 -1.37366,-1.52629 -2.27248,-1.27191 z m 0.93273,1.32279 c 0.15263,0.35613 0.13567,0.47485 -0.11871,0.76315 -0.42397,0.47484 -0.89882,0.44093 -1.03449,-0.0848 -0.0509,-0.23742 -0.18654,-0.42397 -0.27134,-0.42397 -0.10175,0 -0.13567,0.18655 -0.10175,0.42397 0.10175,0.47485 -0.0509,0.54268 -0.37309,0.16959 -0.45789,-0.55964 0.22046,-1.27191 1.23799,-1.27191 0.33918,0 0.52572,0.11871 0.66139,0.42397 z m 1.13625,1.20408 c -0.2883,0.35613 -0.52573,0.2883 -0.2883,-0.0848 0.11871,-0.18655 0.27134,-0.2883 0.33917,-0.23742 0.0848,0.0339 0.0678,0.18654 -0.0509,0.32222 z"
         id="path4718"
         inkscape:connector-curvature="0"
         style="fill:#000000;stroke:none" />
    </g>
    <path
       style="fill:none;stroke:#000000;stroke-width:0.68821251;stroke-linecap:round;stroke-linejoin:miter;stroke-miterlimit:4;stroke-opacity:1;stroke-dasharray:none"
       d="m 375.80702,547.40766 24.2819,0"
       id="path9182"
       inkscape:connector-curvature="0" />
  </g>
</svg>
