<?xml version="1.0" encoding="UTF-8" standalone="no"?>
<!-- Created with Inkscape (http://www.inkscape.org/) -->

<svg
   xmlns:dc="http://purl.org/dc/elements/1.1/"
   xmlns:cc="http://creativecommons.org/ns#"
   xmlns:rdf="http://www.w3.org/1999/02/22-rdf-syntax-ns#"
   xmlns:svg="http://www.w3.org/2000/svg"
   xmlns="http://www.w3.org/2000/svg"
   xmlns:xlink="http://www.w3.org/1999/xlink"
   xmlns:sodipodi="http://sodipodi.sourceforge.net/DTD/sodipodi-0.dtd"
   xmlns:inkscape="http://www.inkscape.org/namespaces/inkscape"
   width="131.03925"
   height="131.16194"
   id="svg2"
   version="1.1"
   inkscape:version="0.48.4 r9939"
   sodipodi:docname="th.svg">
  <defs
     id="defs4">
    <inkscape:perspective
       sodipodi:type="inkscape:persp3d"
       inkscape:vp_x="0 : 65.580971 : 1"
       inkscape:vp_y="0 : 1000 : 0"
       inkscape:vp_z="131.03925 : 65.580971 : 1"
       inkscape:persp3d-origin="65.519623 : 43.720647 : 1"
       id="perspective5889" />
  </defs>
  <sodipodi:namedview
     id="base"
     pagecolor="#ffffff"
     bordercolor="#666666"
     borderopacity="1.0"
     inkscape:pageopacity="0.0"
     inkscape:pageshadow="2"
     inkscape:zoom="3.0751388"
     inkscape:cx="80.743475"
     inkscape:cy="85.669653"
     inkscape:document-units="px"
     inkscape:current-layer="layer1"
     showgrid="false"
     fit-margin-top="0"
     fit-margin-left="0"
     fit-margin-right="0"
     fit-margin-bottom="0"
     inkscape:window-width="1278"
     inkscape:window-height="782"
     inkscape:window-x="0"
     inkscape:window-y="16"
     inkscape:window-maximized="0"
     showguides="true"
     inkscape:guide-bbox="true" />
  <metadata
     id="metadata7">
    <rdf:RDF>
      <cc:Work
         rdf:about="">
        <dc:format>image/svg+xml</dc:format>
        <dc:type
           rdf:resource="http://purl.org/dc/dcmitype/StillImage" />
        <dc:title />
      </cc:Work>
    </rdf:RDF>
  </metadata>
  <g
     inkscape:label="Layer 1"
     inkscape:groupmode="layer"
     id="layer1"
     transform="translate(-234.86288,-536.86877)">
    <path
       sodipodi:type="arc"
       style="fill:none;stroke:#000000;stroke-width:1.53093815;stroke-linecap:round;stroke-miterlimit:4;stroke-opacity:1;stroke-dasharray:none;stroke-dashoffset:0"
       id="path2985"
       sodipodi:cx="340.79337"
       sodipodi:cy="572.63477"
       sodipodi:rx="105.29082"
       sodipodi:ry="94.69944"
       d="m 446.08418,572.63477 a 105.29082,94.69944 0 1 1 -210.58163,0 105.29082,94.69944 0 1 1 210.58163,0 z"
       transform="matrix(0.61783641,0,0,0.68693648,89.825779,209.09274)" />
    <path
       inkscape:connector-curvature="0"
       id="path16199"
       d="m 264.53125,584.06245 c -0.20675,0.0234 -0.41851,0.0696 -0.59375,0.1875 -0.006,0.009 -0.006,0.022 0,0.0313 -0.006,0.009 -0.006,0.022 0,0.0313 0.0897,0.10985 0.23952,0.13559 0.40625,0.15625 0.16673,0.0207 0.36368,0.0337 0.5625,0.0313 0.39765,-0.005 0.80054,0.005 1.0625,0.25 1.02922,0.83965 2.09376,1.90079 3.53125,1.9375 2.26066,0.51445 4.25257,1.77111 6.4375,2.5625 1.14551,0.42227 2.40822,0.98449 3.5625,1.375 0.2709,0.0164 0.9617,-0.0334 1.8125,-0.0937 0.8508,-0.0604 1.86971,-0.13123 2.71875,-0.15625 0.42452,-0.0125 0.81174,-0.0172 1.125,0 0.31326,0.0172 0.53382,0.0679 0.65625,0.125 0.0612,0.0286 0.0899,0.0325 0.0937,0.0625 0.004,0.03 -0.002,0.0998 -0.0625,0.15625 -0.12014,0.11293 -0.38795,0.2475 -0.84375,0.4375 -2.06905,0.85873 -3.72487,1.11286 -6,0.8125 -1.96532,-0.24181 -3.77267,-0.4538 -5.75,-0.625 -0.66177,-0.0302 -1.50806,-0.21289 -2.09375,-0.0625 -0.003,-0.004 -0.0278,0.003 -0.0313,0 -0.003,-0.003 0.005,-0.0289 0,-0.0313 -0.0183,-0.009 -0.0501,-0.005 -0.0625,0 -0.0124,0.005 -0.0226,0.026 -0.0313,0.0313 -0.022,0.004 -0.0685,0.0112 -0.0937,0.0313 -0.0252,0.02 -0.0365,0.0468 -0.0625,0.0937 -0.0521,0.0938 -0.11227,0.271 -0.1875,0.5625 -0.11817,0.49631 -0.28121,1.69494 -0.375,2.65625 -0.13651,0.45136 -0.3043,0.95126 -0.4375,1.40625 -0.1332,0.45499 -0.23139,0.85389 -0.21875,1.125 l 0.3125,6.5 c 0,0.63413 0.0543,2.27138 0.3125,3.75 0.98358,5.4331 0.88061,7.01364 1.15625,9.28125 0.0605,0.49762 0.10009,0.92429 0.15625,1.46875 -0.0201,1.29015 0.0262,4.58018 0.0625,7.65625 0.0363,3.07607 0.0625,5.93858 0.0625,6.375 0.028,0.43559 0.0157,1.6941 -0.0625,2.5 -0.0196,0.20148 -0.0679,0.37595 -0.0937,0.5 -0.0129,0.062 -0.0176,0.12252 -0.0313,0.15625 -0.007,0.0169 -0.0257,-0.008 -0.0313,0 -0.0156,-0.0271 -0.0432,-0.0537 -0.0625,-0.125 -0.0386,-0.14267 -0.0793,-0.37927 -0.125,-0.71875 -0.39638,-1.35234 -0.87532,-4.691 -1.34375,-9.75 -0.29957,-2.21601 -0.7513,-4.58272 -0.96875,-6.40625 -0.38834,-3.1487 -0.9666,-5.70633 -1.5625,-7.40625 -0.29795,-0.84996 -0.58847,-1.48332 -0.875,-1.875 -0.14326,-0.19584 -0.30098,-0.33679 -0.4375,-0.40625 -0.12628,-0.0643 -0.2299,-0.0586 -0.34375,0 -0.006,-0.006 -0.0257,0.007 -0.0313,0 -0.0167,-0.0206 -0.0306,-0.0465 -0.0625,-0.0625 -0.0361,-0.0181 -0.0845,-0.019 -0.15625,0 -0.0127,0.003 -0.017,-0.005 -0.0313,0 -3e-4,-6e-5 -0.0309,-1.9e-4 -0.0313,0 -0.001,0.002 8.7e-4,0.0298 0,0.0313 -0.006,0.0132 -0.0224,0.0367 -0.0313,0.0625 -0.0177,0.0517 -0.0326,0.11593 -0.0625,0.21875 -0.0599,0.20563 -0.15146,0.50906 -0.25,0.875 -0.19707,0.73188 -0.458,1.71775 -0.71875,2.71875 -0.26075,1.001 -0.51589,2.00863 -0.71875,2.78125 -0.10143,0.38631 -0.18587,0.73293 -0.25,0.96875 -0.0321,0.11791 -0.0739,0.21279 -0.0937,0.28125 -0.01,0.0342 0.006,0.0423 0,0.0625 -0.006,0.0202 -0.0306,0.0612 -0.0313,0.0625 -0.16657,0.41645 -0.50571,1.68592 -0.84375,3.09375 -0.33804,1.40783 -0.67166,2.94398 -0.8125,3.8125 -0.44482,2.69235 -1.25909,6.35585 -1.65625,7.6875 -0.0927,0.29988 -0.21845,0.99922 -0.40625,1.6875 -0.0684,0.1983 -0.10508,0.26458 -0.15625,0.375 -0.0512,0.11042 -0.11525,0.26154 -0.1875,0.53125 -0.39319,1.3045 -0.59477,2.48486 -0.625,3.0625 -0.002,0.004 0.004,0.0249 0,0.0313 -0.004,0.006 -0.0277,-0.007 -0.0313,0 -7.5e-4,0.002 6.3e-4,0.0289 0,0.0313 -0.0199,0.018 -0.0362,0.0284 -0.0625,0.0625 -0.0284,0.037 -0.0775,0.11417 -0.125,0.21875 -0.29793,-0.74617 -0.2972,-1.40017 -0.21875,-2.0625 0.0807,-0.68166 0.24654,-1.38521 0.21875,-2.21875 0.39904,-4.65221 1.00723,-9.24689 1,-13.9375 0.28529,-4.94412 1.02347,-9.85557 1.75,-14.75 0.41705,-1.68075 0.88348,-3.45877 0.21875,-5.15625 -0.53932,-2.24558 -0.88827,-4.52701 -1.21875,-6.8125 0.006,-0.009 0.006,-0.022 0,-0.0313 -0.018,-0.0204 -0.0428,-0.025 -0.0625,-0.0313 -0.0197,-0.006 -0.0465,-0.005 -0.0625,0 -0.032,0.01 -0.0444,0.027 -0.0625,0.0313 -3.8e-4,1.4e-4 -0.0295,-0.001 -0.0313,0 -0.002,0.002 0.002,0.0294 0,0.0313 -6.3e-4,4.4e-4 -0.0313,10e-6 -0.0313,0 -0.02,0.008 -0.0444,0.0182 -0.0625,0.0313 -0.0258,0.0187 -0.0492,0.0713 -0.0625,0.125 -0.29826,0.18704 -0.73987,0.53849 -1.21875,1.28125 -0.84676,1.25981 -3.17262,5.5555 -3.75,6.8125 -0.008,0.005 -0.0236,-0.005 -0.0313,0 -0.003,0.007 0.003,0.0247 0,0.0313 -0.21815,0.12727 -0.46754,0.19843 -0.75,0.71875 -0.42147,0.8078 -0.84124,1.56223 -1.21875,2.1875 -0.37751,0.62527 -0.7225,1.1002 -0.9375,1.28125 -0.0954,0.0795 -0.23336,0.29195 -0.40625,0.5625 -0.17289,0.27055 -0.35788,0.60524 -0.5625,0.96875 -0.40106,0.71249 -0.80688,1.51589 -1.03125,2 -0.006,0.003 -0.0246,-0.003 -0.0313,0 -0.003,0.007 0.003,0.0248 0,0.0313 -0.12414,0.0671 -0.27558,0.18853 -0.4375,0.375 -0.17505,0.20159 -0.38511,0.46715 -0.5625,0.71875 -0.17739,0.2516 -0.33914,0.51193 -0.46875,0.71875 -0.12961,0.20682 -0.21723,0.3673 -0.25,0.4375 -0.0536,0.0912 -0.11326,0.14253 -0.15625,0.1875 -0.0215,0.0225 -0.0164,0.0529 -0.0313,0.0625 -0.0149,0.01 -0.032,-8e-5 -0.0313,0 -0.001,-0.007 -0.007,-0.0366 0,-0.0625 0.0134,-0.0517 0.0608,-0.13704 0.125,-0.25 0.95126,-2.27368 2.1165,-4.02508 3.1875,-6.25 1.28064,-2.64661 2.95846,-5.61783 4,-8.375 0.23053,-0.67536 1.41935,-3.62933 2.0625,-5.5 0.004,-0.0113 0.0274,-0.02 0.0313,-0.0313 0.079,-0.0237 0.17935,-0.0278 0.28125,-0.0937 0.11588,-0.075 0.25515,-0.19154 0.4375,-0.4375 0.60539,-0.79166 1.6917,-1.73662 3,-2.4375 0.49586,-0.25973 0.88312,-0.6086 1.15625,-0.90625 0.13656,-0.14883 0.26348,-0.29987 0.34375,-0.40625 0.0803,-0.10638 0.13512,-0.16109 0.15625,-0.1875 0.0449,-0.0449 0.0484,-0.0933 0.0625,-0.125 0.007,-0.0159 0.0392,-0.0442 0.0313,-0.0625 -0.008,-0.0183 -0.0457,-0.0282 -0.0625,-0.0313 -0.0337,-0.006 -0.0652,0.0146 -0.125,0.0313 -0.0598,0.0166 -0.15543,0.0567 -0.25,0.0937 -0.37829,0.14837 -1.01592,0.44546 -2,0.9375 -1.60557,0.82448 -2.31751,1.52384 -2.84375,2.34375 -0.0383,0.0597 -0.11123,0.11115 -0.15625,0.1875 -0.031,0.054 -0.0287,0.0702 -0.0313,0.0937 -0.003,0.0236 -0.009,0.0502 -0.0313,0.0937 -0.14239,0.18735 -0.32534,0.48394 -0.625,1.09375 -0.0342,0.0695 -0.0271,0.0521 -0.0625,0.125 -0.41427,0.70808 -0.85281,1.4488 -1.1875,2.03125 -0.16735,0.29123 -0.30143,0.54012 -0.40625,0.71875 -0.0524,0.0893 -0.0937,0.16793 -0.125,0.21875 -0.0157,0.0254 -0.0217,0.0483 -0.0313,0.0625 -0.01,0.0142 -0.0351,0.003 -0.0313,0 -0.006,0.009 -0.006,0.022 0,0.0313 -0.65774,1.58715 -1.17346,3.24402 -1.9375,4.78125 -1.86141,4.10536 -4.12703,8.04684 -5.46875,12.375 -0.0603,0.23338 -0.17583,0.58366 -0.25,0.90625 -0.0371,0.16129 -0.0584,0.30856 -0.0625,0.4375 -0.004,0.12894 -5e-4,0.24868 0.0625,0.3125 0.009,0.006 0.022,0.006 0.0313,0 0.009,0.006 0.022,0.006 0.0313,0 0.73287,-0.86935 2.30912,-3.22912 2.9375,-4.15625 0.006,-0.009 0.006,-0.022 0,-0.0313 -0.004,-0.0243 -0.0125,-0.0528 -0.0313,-0.0625 -0.009,-0.005 -0.0225,4.2e-4 -0.0313,0 0.43806,-0.46441 1.24099,-1.50875 2.71875,-3.6875 1.11537,-1.65383 1.7442,-2.92334 2,-3.625 l 0,-0.0313 c 0.46365,-0.42432 1.1441,-1.07372 1.375,-1.5 0.13848,-0.26541 0.79782,-1.39643 1.53125,-2.625 0.73343,-1.22857 1.54327,-2.55909 1.90625,-3.15625 0.15662,-0.26484 0.20662,-0.37506 0.21875,-0.46875 0.61986,3.74763 1.44857,7.62013 0.46875,11.40625 -0.45378,2.46355 -0.53919,5.12988 -0.96875,7.59375 -0.50901,3.27954 -0.62951,6.50091 -0.71875,9.8125 -0.2248,3.90263 -0.73836,7.60304 -1,11.5 -0.0717,1.86197 -0.1654,3.7402 0.125,5.59375 -0.006,0.009 -0.006,0.022 0,0.0313 0.009,0.006 0.022,0.006 0.0313,0 0.15459,-0.056 0.26807,-0.23328 0.375,-0.46875 0.0535,-0.11774 0.1075,-0.27154 0.15625,-0.40625 -0.0249,0.0902 -0.0468,0.18804 -0.0625,0.25 -0.008,0.031 -0.0281,0.0452 -0.0313,0.0625 -0.002,0.009 -4.5e-4,0.0222 0,0.0313 7e-5,2.3e-4 -10e-5,0.0311 0,0.0313 1e-4,1.5e-4 0.0311,-7e-5 0.0313,0 l 0.0313,0 c 1.9e-4,-2.6e-4 -5.4e-4,-0.0304 0,-0.0313 0.003,-0.008 -0.005,-0.0182 0,-0.0313 0.01,-0.0261 0.0476,-0.0502 0.0625,-0.0937 0.0297,-0.0872 0.0518,-0.21691 0.0937,-0.34375 0.0839,-0.25367 0.19016,-0.55757 0.25,-0.71875 0.27632,-0.74437 0.71081,-1.96105 1.09375,-3.0625 0.38294,-1.10145 0.71251,-2.08039 0.78125,-2.375 0.16379,-0.70196 0.7032,-2.88315 1.03125,-4.3125 0.15204,-0.70175 0.3808,-1.62472 0.59375,-2.46875 0.21295,-0.84403 0.40968,-1.60597 0.46875,-2.03125 0.0286,-0.20576 0.18775,-1.02741 0.4375,-2.1875 0.24975,-1.16009 0.60253,-2.65623 0.9375,-4.15625 0.66993,-3.00004 1.36454,-6.08254 1.5625,-6.78125 0.0518,-0.18545 0.0606,-0.22044 0.0937,-0.34375 0.003,-0.0105 -0.003,-0.0193 0,-0.0313 0.0176,-0.009 0.038,-0.004 0.0625,-0.0313 0.0308,-0.0344 0.0692,-0.11743 0.125,-0.21875 0.007,-0.0135 0.0231,-0.0161 0.0313,-0.0313 0.11135,-0.0488 0.19946,-0.0836 0.25,-0.125 0.0281,-0.023 0.0477,-0.0504 0.0625,-0.0625 0.0148,-0.0121 0.0376,6.8e-4 0.0313,0 0.008,0.0173 0.0185,0.0496 0.0313,0.0937 0.0254,0.0883 0.0529,0.22159 0.125,0.4375 0.6286,1.21064 0.98477,3.19027 1.59375,7.5 0.35144,2.31948 0.75697,4.60571 0.875,5.125 0.11612,0.51091 0.297,1.86839 0.4375,3.15625 0.29289,3.12811 0.72623,6.06957 1.15625,8.21875 0.21501,1.07459 0.43106,1.9507 0.625,2.5625 0.097,0.3059 0.19551,0.55442 0.28125,0.71875 0.0429,0.0822 0.084,0.14291 0.125,0.1875 0.041,0.0446 0.0791,0.0625 0.125,0.0625 0.0217,0 0.0514,-0.0167 0.0625,-0.0313 0.0111,-0.0145 -0.009,-0.0394 0,-0.0625 0.019,-0.0463 0.0428,-0.10322 0.0625,-0.1875 0.0394,-0.16856 0.0814,-0.4138 0.125,-0.71875 0.0872,-0.6099 0.19168,-1.45467 0.28125,-2.4375 0.17914,-1.96566 0.34354,-4.45315 0.40625,-6.5 l 0,-0.0625 0,-0.0625 c 7.1e-4,-0.0232 -4.4e-4,-0.0739 0,-0.0937 l -0.0618,-2.5314 c -0.14057,-4.8263 -0.58559,-12.32605 -1.21875,-16.03125 -0.14757,-0.87486 -0.29455,-3.66 -0.40625,-6.5 -0.1117,-2.84 -0.18932,-5.74272 -0.21875,-6.90625 0.0914,-0.84408 0.23503,-1.89392 0.375,-2.59375 0.13666,-0.64423 0.15516,-0.97629 0.125,-1.1875 1.12491,0.30971 2.14211,0.46376 3.28125,0.78125 1.88589,0.33981 3.96,0.58161 5.875,0.71875 0.54931,0.068 0.79109,0.0711 1.125,0.0313 0.33391,-0.0398 0.75445,-0.12219 1.65625,-0.1875 1.72811,-0.50584 3.06227,-1.66489 4.65625,-2.46875 0.15043,-0.0688 0.27418,-0.13646 0.34375,-0.1875 0.0696,-0.051 0.0934,-0.10631 0.0937,-0.15625 1.6e-4,-0.025 -0.0136,-0.0456 -0.0313,-0.0625 -0.0176,-0.0169 -0.0352,-0.0205 -0.0625,-0.0313 -0.0546,-0.0214 -0.13288,-0.0213 -0.21875,-0.0313 -0.34349,-0.0398 -0.88434,-0.0243 -1.125,-0.0313 -2.29643,-0.0216 -4.61879,0.13805 -6.90625,0.15625 -2.50481,-0.88137 -4.96379,-1.87849 -7.4375,-2.84375 -1.26906,-0.48505 -2.50298,-1.08762 -3.8125,-1.4375 -0.71065,-0.22318 -1.30139,-0.6251 -1.9375,-0.96875 -0.63611,-0.34365 -1.30899,-0.62747 -2.125,-0.59375 z"
       style="fill:#000000;stroke:none"
       sodipodi:nodetypes="ccccccccccccscccccccccscccccscccccscccccccccsccccccccccccssccscscccccccccccccccccccscccccccccccscsscccsssccccccccccccccccccccccccccccsscccccccccccccccccccsccccccccccccccccccccccsscscsscccccccsccccscscccsccsssccccccscccccscccccccccccscc" />
    <g
       id="g5544"
       transform="matrix(1,-0.10141902,0,1,59.440277,30.922494)">
      <path
         sodipodi:nodetypes="ccccccccccccccccccccccccccccccccccccccccccccscccccccccccccccccccccccccccccccccccccc"
         inkscape:connector-curvature="0"
         id="path4716"
         d="m 208.1005,555.61903 c -1.72499,0.32605 -3.22837,1.2806 -4.74479,2.09671 -1.23965,0.10023 -1.92507,-1.2717 -3.06374,-1.58291 -1.19688,-0.58309 -2.71609,-0.86438 -3.91444,-0.13321 -1.30867,1.0252 0.0642,3.1271 -1.19935,3.96546 -1.67261,1.10497 -3.47212,2.18004 -4.64355,3.85308 -0.3276,1.41229 -0.088,3.07491 1.15984,3.97395 1.1223,1.06035 2.48767,1.82191 3.89041,2.44543 -0.36813,1.42932 -0.0908,3.09241 1.09985,4.05927 1.42101,0.82165 3.11955,-8.5e-4 4.32589,-0.86402 1.00212,-0.66988 1.87441,-1.55654 2.96882,-2.07331 1.42454,-0.28378 2.34049,1.14653 3.38282,1.86037 1.22101,0.95754 2.84789,1.78605 4.42548,1.33664 1.24861,-0.70806 1.43668,-2.53663 0.90169,-3.75559 -0.69302,-1.82435 -2.0161,-3.33762 -2.73133,-5.14083 -0.0738,-1.34688 1.39034,-2.0533 1.78258,-3.26512 0.12991,-1.0502 0.8709,-1.36604 1.77627,-0.9944 1.44815,0.70364 2.66118,1.37247 3.32302,2.89727 0.35586,1.87795 -3.09992,5.10317 -4.95808,5.86518 -0.51061,0.35792 0.0343,0.0211 0.22628,0.48451 1.26056,0.40596 3.11419,-1.2112 3.9637,-1.96539 0.98315,-0.96025 1.68771,-2.29577 1.50944,-3.70185 0.21701,-1.6676 -1.0088,-2.91164 -2.40384,-3.56243 -1.19997,-0.84894 -3.29677,-1.18572 -2.70365,-3.09973 0.0387,-0.94162 1.25419,-2.68493 -1.94203,-2.79804 2.2694,0.20652 1.78731,2.74931 1.36748,4.16908 -1.67231,-0.72198 -3.5012,-0.89001 -5.25352,-1.33397 -0.67435,-0.23432 -2.02561,-0.19576 -2.26824,-0.58618 1.02798,-0.93798 2.44945,-1.29233 3.74464,-1.71086 0.59162,-0.25393 3.66611,0.045 3.6392,-0.42857 -0.37872,-0.41979 -2.94808,-0.079 -3.66085,-0.0105 z m -8.61986,0.83575 c 0.63649,0.40102 2.02975,0.67243 1.83023,1.35243 -1.71426,0.29736 -2.7485,0.53194 -4.33511,1.26427 -1.13899,-0.67767 -0.68802,-2.85033 0.68006,-2.94624 0.77284,-0.097 1.09682,0.0535 1.82482,0.32954 z m 2.15854,3.08174 c -1.22106,1.31032 -2.26181,2.77234 -3.30697,4.22275 -0.84083,-1.06686 -1.07172,-2.24213 -1.37681,-3.5408 0.74385,-1.11798 1.92579,-1.01781 3.11917,-1.45719 0.61506,-0.0394 2.44027,-0.65406 2.50005,-0.27898 -0.31182,0.35141 -0.62363,0.70281 -0.93544,1.05422 z m 5.1894,-0.66139 c 1.62973,0.28921 3.18357,0.87916 4.78647,1.27688 0.22216,1.37156 -0.49695,2.55209 -1.43106,3.43253 -1.69341,1.59613 -4.52632,-3.65393 -6.49279,-5.1673 1.06961,-0.0966 2.09291,0.30647 3.13738,0.45789 z m -2.51626,1.32491 c 1.53729,1.68767 3.18262,3.13861 4.46418,5.03531 -0.0423,0.45225 -0.58786,1.86158 0.30807,1.0478 1.29309,0.25285 1.08479,1.88437 1.89195,2.73428 0.88444,1.06747 0.0484,1.5113 -1.00947,1.32279 -1.70252,0.1905 -2.94423,0.35605 -4.64991,0.1729 0.65143,-1.06405 2.6258,-2.69822 3.43796,-3.62511 0.61241,-0.21437 1.29981,-2.09946 0.30822,-1.12644 -1.06361,1.07995 -3.34589,3.27823 -4.59943,4.14209 -1.95488,-1.54674 -3.52239,-2.96968 -5.10281,-4.89394 -0.6667,-1.22944 0.7999,-2.10805 1.44765,-3.02822 1.04691,-0.91637 1.24266,-1.95156 2.20889,-2.77961 0.70232,-0.0594 0.81225,0.63287 1.2947,0.99815 z m -8.25259,0.30313 c 0.14329,1.59776 1.58587,2.65834 1.55286,4.17285 -0.60296,1.24503 -1.32087,2.16236 -1.68824,3.51235 -0.3989,2.0452 -1.89242,0.5994 -2.83563,-0.0984 -1.11275,-0.96094 -2.30268,-2.24379 -1.80736,-3.81831 0.57442,-1.27322 1.85186,-1.84222 2.92534,-2.67947 0.4793,-0.1427 1.69665,-2.11224 1.85303,-1.089 z m 3.1713,5.32508 c 1.34971,1.66869 2.63872,3.0085 4.1708,4.50256 -0.72722,0.8172 -1.92746,0.19239 -2.93861,0.33749 -1.98029,0.61933 1.84472,0.24257 1.71023,1.10333 -1.39816,1.08789 -2.14693,1.79031 -3.89888,2.1775 -1.51366,0.0645 -2.16291,-1.54496 -2.04688,-2.83031 0.1138,-1.56901 6.7648,1.03533 7.06137,0.29325 0.007,-0.95948 -7.35398,-1.044 -6.97709,-2.37755 0.71232,-1.32073 1.05631,-2.95139 2.10906,-4.03421 0.41037,0.0695 0.5105,0.59847 0.81,0.82794 z m 12.88658,5.43636 c 0.66621,1.37502 -0.42462,3.25549 -2.08287,2.64299 -1.36685,-0.48528 -2.01662,-1.19466 -3.22551,-1.96764 -1.1412,-0.96499 1.0002,-0.44233 1.55469,-0.59434 1.24804,-0.0266 2.38881,-0.31017 3.60169,-0.60832 0.20053,0.0424 0.099,0.34536 0.152,0.52731 z"
         style="fill:#000000;stroke:none" />
      <path
         style="fill:#000000;stroke:none"
         inkscape:connector-curvature="0"
         id="path4718"
         d="m 203.13156,563.03004 c -0.35614,0.0848 -1.56021,1.23799 -1.67893,1.59413 -0.11871,0.32222 0.45789,1.4415 0.79707,1.57717 0.15263,0.0509 0.83098,0.10175 1.50934,0.10175 1.89938,0 2.37423,-0.5766 1.645,-2.00114 -0.54268,-1.0684 -1.37366,-1.52629 -2.27248,-1.27191 z m 0.93273,1.32279 c 0.15263,0.35613 0.13567,0.47485 -0.11871,0.76315 -0.42397,0.47484 -0.89882,0.44093 -1.03449,-0.0848 -0.0509,-0.23742 -0.18654,-0.42397 -0.27134,-0.42397 -0.10175,0 -0.13567,0.18655 -0.10175,0.42397 0.10175,0.47485 -0.0509,0.54268 -0.37309,0.16959 -0.45789,-0.55964 0.22046,-1.27191 1.23799,-1.27191 0.33918,0 0.52572,0.11871 0.66139,0.42397 z m 1.13625,1.20408 c -0.2883,0.35613 -0.52573,0.2883 -0.2883,-0.0848 0.11871,-0.18655 0.27134,-0.2883 0.33917,-0.23742 0.0848,0.0339 0.0678,0.18654 -0.0509,0.32222 z" />
    </g>
    <g
       id="g6060"
       transform="translate(0.3728236,0)">
      <path
         sodipodi:nodetypes="ccczcczcccccccccccccc"
         inkscape:connector-curvature="0"
         id="rect5905"
         d="m 280.53125,589.625 c -0.003,0.0536 0.008,0.4194 0.0313,0.46776 0.1425,0.23336 0.58458,0.27278 0.59375,-4.9e-4 -0.0182,-8.17428 0.0634,-23.87074 0.36583,-24.60913 0.30241,-0.73839 62.38417,-0.38939 62.38417,-0.38939 l 0,56.53125 c 0,0 -62.41764,0.34037 -62.8125,0 -0.39486,-0.34037 0.0887,-19.00838 0.125,-28.5 -0.002,-0.0432 0.0263,-0.39751 0.008,-0.43651 -0.0701,-0.15838 -0.32183,0.0771 -0.47644,0.15526 -0.10802,0.0492 -0.18365,-0.2657 -0.1875,-0.14708 -0.16148,10.16289 -0.30031,21.30306 -10e-4,29.58458 l 63.65777,0 0.34375,0 0,-0.3125 0,-57.1875 0,-0.3125 -0.34375,0 -63.4375,0 c -0.61636,8.13308 -0.26654,17.83943 -0.25005,25.15625 z"
         style="font-size:medium;font-style:normal;font-variant:normal;font-weight:normal;font-stretch:normal;text-indent:0;text-align:start;text-decoration:none;line-height:normal;letter-spacing:normal;word-spacing:normal;text-transform:none;direction:ltr;block-progression:tb;writing-mode:lr-tb;text-anchor:start;baseline-shift:baseline;color:#000000;fill:#000000;fill-opacity:1;stroke:none;stroke-width:0.64082235;marker:none;visibility:visible;display:inline;overflow:visible;enable-background:accumulate;font-family:Sans;-inkscape-font-specification:Sans" />
      <path
         sodipodi:nodetypes="csccscccsccc"
         inkscape:connector-curvature="0"
         d="m 285.03329,635.17172 c -0.11712,0.42164 0.0949,1.073 0.28232,1.073 0.37479,0 1.45604,-0.43956 2.03914,-0.89998 2.83341,-3.04202 5.10581,-6.01199 8.03162,-9.00312 1.33518,-1.3586 3.21119,-4.26035 3.21119,-4.35404 0,-0.30452 -5.1069,5.09827 -6.88714,7.11275 -0.91355,1.03067 -2.03791,2.24873 -2.52982,2.69379 -0.46848,0.44506 -1.00724,1.12436 -1.19463,1.47572 -0.42164,0.773 -1.94421,2.50639 -2.20188,2.50639 -0.30451,0 2.19325,-5.00867 5.21498,-11.56745 0.70272,-1.546 0.63727,-2.53359 0.21944,-2.25283 -2.88225,3.68713 -4.79823,8.65312 -6.18522,13.21577 z"
         id="path4478"
         style="fill:#000000;stroke:none" />
      <path
         style="fill:#000000;stroke:none"
         id="path5887"
         d="m 339.37193,634.86021 c 0.11712,0.42164 -0.0949,1.073 -0.28232,1.073 -0.37479,0 -1.45604,-0.43956 -2.03914,-0.89998 -2.83341,-3.04202 -5.10581,-6.01199 -8.03162,-9.00312 -1.33518,-1.3586 -3.21119,-4.26035 -3.21119,-4.35404 0,-0.30452 5.1069,5.09827 6.88714,7.11275 0.91355,1.03067 2.03791,2.24873 2.52982,2.69379 0.46848,0.44506 1.00724,1.12436 1.19463,1.47572 0.42164,0.773 1.94421,2.50639 2.20188,2.50639 0.30451,0 -2.19325,-5.00867 -5.21498,-11.56745 -0.70272,-1.546 -0.63727,-2.53359 -0.21944,-2.25283 2.88225,3.68713 4.79823,8.65312 6.18522,13.21577 z"
         inkscape:connector-curvature="0"
         sodipodi:nodetypes="csccscccsccc" />
    </g>
    <path
       style="fill:none;stroke:#000000;stroke-width:0;stroke-linecap:round;stroke-miterlimit:4;stroke-opacity:1;stroke-dashoffset:0;stroke-dasharray:none"
       d="m 273.61286,552.9626 c 18.33864,-11.21813 41.37696,-11.37676 59.86835,-0.41223"
       id="path5907"
       inkscape:connector-curvature="0" />
    <path
       style="fill:#000000;stroke:none"
       id="path4260-5"
       d="m 210.51746,548.5254 c -0.24108,0.0709 -0.92998,0.21458 -1.35541,0.59746 -0.74087,0.83298 -0.80829,0.64177 -1.75857,0.22603 -1.03521,-0.43961 -1.3081,-0.40727 -2.71202,-0.464 -1.38974,-0.0426 -1.71093,0.009 -2.108,0.26465 -0.42543,0.26944 -0.55047,0.3781 -0.55047,0.98789 0,0.76577 0.71328,1.86231 1.43651,2.55718 l 0.43961,0.41125 -0.89415,0.64237 c -0.42542,0.39707 -0.73666,0.93172 -0.79339,1.10189 -0.18435,0.4538 0.0851,1.26211 0.49634,1.53155 0.52469,0.34035 1.15065,0.50281 0.6685,0.0916 -0.35452,-0.2978 -0.88968,-0.69886 -0.88968,-1.13847 0,-0.48215 0.0993,-0.6048 0.79414,-1.25713 0.42543,-0.41125 0.68915,-0.77323 0.74587,-0.74488 0.0567,0.0283 0.34035,0.32617 0.63815,0.66651 l 0.55305,0.62397 -0.38288,1.1203 c -0.28012,0.64374 -0.15432,1.09832 -0.86007,0.87598 -2.06721,-1.0902 -0.77224,-0.0518 -0.81479,-0.0234 -0.0284,0.0426 0.34184,0.19679 0.5971,0.23933 0.24108,0.0567 0.48216,0.14182 0.51052,0.19854 0.0426,0.0709 -0.10001,0.42543 -0.1851,0.8225 -0.34035,1.46064 0.33188,2.47073 1.35292,2.13039 0.56724,-0.18436 2.08709,-1.25963 3.00885,-2.13885 0.40735,-0.60523 0.98393,-0.28469 1.4512,-0.27367 0.70905,0.24108 1.48851,0.39881 2.50954,0.49808 0.58142,0.0567 1.09256,-0.0215 1.30527,-0.19182 0.30278,-0.15438 0.60282,-0.58776 0.29082,-0.47431 -0.6665,0.22689 -4.28801,0.0389 -4.7418,-0.35814 -0.25526,-0.24107 0.8633,-0.78008 1.84179,-1.03533 0.55306,-0.14181 1.47146,-0.51798 2.01034,-0.78742 0.63815,-0.31198 0.91269,-0.51712 0.96941,-0.41785 0.0567,0.0851 0.011,0.58814 0.0393,1.18375 0.0426,0.86504 -0.0108,1.12863 -0.19518,1.31299 -0.12763,0.1418 -0.31186,0.47779 -0.24095,0.53451 0.25525,0.156 0.83967,-0.49048 0.82549,-1.5257 0,-0.56724 -0.17341,-1.32119 -0.23014,-1.47719 -0.0851,-0.19853 -0.0142,-0.35452 0.29781,-0.60978 0.22689,-0.18435 0.59298,-0.59883 0.69225,-0.76901 0.0851,-0.17017 0.20417,-0.86268 -0.0937,-0.56489 -0.85231,1.05822 -0.83157,1.77136 -1.63641,0.70247 -0.63437,-0.65075 -0.62375,-0.58305 -0.15512,-1.29308 0.36871,-0.56724 0.51972,-0.63989 0.80334,-0.63989 0.58142,0 0.8485,0.31459 0.96194,1.02364 0,0 -0.0545,0.7239 0.0826,0.76566 0.12374,0.0376 0.15341,-0.75645 0.15341,-0.75645 0.0142,-0.46797 -0.0709,-0.65233 -0.42543,-0.99267 -0.24108,-0.2269 -0.56724,-0.41125 -0.73741,-0.41125 -0.26944,0 -0.32616,-0.0993 -0.39707,-0.73741 -0.11345,-0.83668 -0.5247,-1.50319 -1.13448,-1.82935 -0.53888,-0.26944 -1.63081,-0.36871 -2.18387,-0.19853 z m 1.73008,0.35415 c 0.56724,0.11345 1.05234,0.75197 1.17997,1.40429 0.15599,0.86505 0.31861,0.61752 -1.76599,0.64588 -1.0494,0 -2.32109,0.33261 -2.9025,0.41769 -1.02591,0.13958 -1.23958,0.22682 -0.53667,-0.45618 0.46987,-0.64538 0.47631,-0.43838 1.1248,-0.0736 0.36871,0.19853 1.29496,0.61539 1.32332,0.58702 0.0426,-0.0426 -0.66117,-0.73866 -1.07241,-0.96556 -0.70054,-0.38968 -0.75108,-0.24293 -0.16358,-0.79587 0.87922,-0.8225 1.44229,-1.02131 2.12298,-0.8795 0.11345,0.0142 0.43482,0.0591 0.69008,0.11584 z m -5.59892,0.73502 c 1.06572,0.39246 1.87928,0.64696 1.06376,1.26745 -0.60702,0.30775 -0.80831,0.71145 -1.38973,0.8958 -0.90759,0.28361 -2.5257,1.41202 -2.42643,1.51129 0.0426,0.0426 0.96045,-0.28546 1.34333,-0.46981 0.64154,-0.21807 2.24615,-1.45909 1.40649,-0.30904 -0.21271,0.26944 -0.58142,0.77995 -0.79413,1.14866 -0.21272,0.38288 -0.43961,0.68069 -0.49633,0.68069 -0.14181,0 -1.62438,-1.89087 -2.23416,-2.72754 -1.32906,-2.05443 -0.1452,-2.36511 1.3879,-2.36381 0.8934,-0.0142 1.30262,0.0827 2.1393,0.36631 z m 6.77022,2.13215 c -0.20527,0.6755 -0.60753,0.98593 -1.54423,0.30813 l -1.01681,-0.62235 0.60978,-0.0709 c 0.58143,-0.0709 2.15652,-0.29038 1.95126,0.38512 z m -2.15054,0.40802 c 1.38975,1.00685 1.37556,0.59672 0.31199,1.85883 -1.1313,1.35758 -2.8165,2.88856 -4.17855,1.96034 -0.35452,-0.24108 -0.88258,-0.61401 -1.19456,-0.91181 -0.7546,-0.41797 -0.52888,-0.58802 -0.1377,-1.29794 0.21271,-0.38289 0.46312,-0.85683 0.76092,-1.2539 0.58142,-0.73741 0.95013,-0.89341 2.48167,-1.04939 1.12031,-0.12763 1.11956,0.0841 1.95623,0.69387 z m 2.04282,1.57508 c 0.2978,0.28363 0.53887,0.59561 0.53887,0.69487 0,0.24108 -2.86456,1.47483 -3.4318,1.47483 -0.0851,0 0.49447,-0.34793 1.00499,-0.90099 0.5247,-0.53888 0.89104,-1.14033 1.01867,-1.33887 0.4253,-0.45388 0.50447,-0.25583 0.86927,0.0702 z m -5.94184,2.62349 c 0.28362,0.15599 0.18435,0.11602 -0.89341,0.25783 -1.86557,0.31078 -1.57447,0.0594 -1.14682,-1.14184 0.23846,-0.99935 0.36677,-0.16538 0.80666,0.11087 0.46797,0.38289 1.0634,0.67387 1.23357,0.77314 z m 1.16284,0.99267 c -2.48167,2.26896 -3.40692,2.73867 -3.93162,1.98708 -0.26944,-0.36871 -0.30029,-0.65904 -0.10175,-1.59499 -0.16609,-1.10685 1.3917,-0.47135 1.96726,-0.61015 0.57418,-0.13846 1.62658,-0.37754 1.75421,-0.2499 0.0851,0.0851 0.64699,0.38102 0.77461,0.38102 0.15599,-0.0142 -0.24991,-0.28176 -0.46263,-0.3952 -0.25525,-0.15599 -0.24107,-0.18435 0.28363,-0.34035 0.31198,-0.0851 0.59559,-0.14181 0.62396,-0.11344 0.0284,0.0284 -0.36871,0.45379 -0.90759,0.93594 z"
       inkscape:connector-curvature="0"
       sodipodi:nodetypes="cccccsccccccsccccccccccccccccccccccccccccccscsccsccccccccccccccccccscccsccczccczcccccccccsscccccccccccsccccscc" />
    <path
       style="fill:#000000;stroke:none"
       id="path4262-0"
       d="m 208.10853,553.76673 c -0.36871,0.26944 -0.18436,0.65233 0.32616,0.65233 0.53888,0 0.85086,-0.34035 0.5956,-0.63815 -0.21271,-0.26944 -0.56724,-0.26944 -0.92176,-0.0142 z m 0.75159,0.18435 c 0.0709,0.2269 -0.31198,0.38289 -0.62396,0.26944 -0.18436,-0.0709 -0.19853,-0.12763 -0.0567,-0.31198 0.21272,-0.24107 0.58142,-0.21271 0.68069,0.0426 z"
       inkscape:connector-curvature="0" />
    <path
       style="fill:#000000;stroke:none"
       d="m 297.89748,583.16934 c 0.20026,0.24537 0.90294,-0.0484 1.23311,0.2598 0.62417,0.50921 1.26378,1.15661 2.12558,1.17862 1.37244,0.31231 2.58033,1.06052 3.90071,1.53876 0.6943,0.25594 1.45306,0.59523 2.15069,0.83125 0.63972,0.0388 5.53742,-0.55241 3.32393,0.3703 -1.25452,0.52067 -2.24682,0.65964 -3.62653,0.4775 -1.18974,-0.14639 -2.28366,-0.26839 -3.48041,-0.37201 -0.42849,-0.0196 -0.99939,-0.16414 -1.34304,-0.0398 0.71123,0.20242 1.34425,0.29081 2.06156,0.49073 1.14094,0.20558 2.39122,0.35405 3.55,0.43703 0.66358,0.0822 0.60749,-0.0186 1.70048,-0.0978 1.04159,-0.30489 1.84048,-0.99201 2.80799,-1.47994 0.72375,-0.33111 -0.31157,-0.26356 -0.60709,-0.27214 -1.38934,-0.0131 -2.78393,0.0877 -4.16948,0.0987 -1.51693,-0.53376 -3.00899,-1.13433 -4.50643,-1.71865 -0.76926,-0.29402 -1.52243,-0.66298 -2.31302,-0.87421 -0.86655,-0.27214 -1.48247,-0.99666 -2.46172,-0.95619 -0.12356,0.014 -0.24324,0.0587 -0.34633,0.12809 z"
       id="path4348-7"
       inkscape:connector-curvature="0"
       sodipodi:nodetypes="ccccccccccccccccccc" />
    <path
       style="fill:#000000;stroke:none"
       id="path4362-7"
       d="m 295.71361,584.67253 c -1.04939,0.53888 -1.46727,0.95897 -1.79343,1.51203 -0.49634,0.86504 -0.24145,1.14571 0.36833,0.32322 0.36871,-0.48216 1.05345,-1.04406 1.84758,-1.46949 0.59561,-0.31198 0.91054,-0.83373 0.96726,-0.90464 0.21271,-0.21271 -0.19853,-0.0567 -1.38974,0.53888 z"
       inkscape:connector-curvature="0"
       sodipodi:nodetypes="cccccc" />
    <path
       style="fill:#000000;stroke:none"
       sodipodi:nodetypes="cccsc"
       id="path4392-0"
       d="m 293.45717,587.04771 c -0.25866,0.60349 -0.98473,1.83765 -0.94162,1.89012 0.043,0.0263 0.83385,-1.10296 1.0925,-1.70645 0.28023,-0.57725 0.45267,-1.10203 0.40956,-1.15451 -0.043,-0.0524 -0.28022,0.39358 -0.56044,0.97084 z"
       inkscape:connector-curvature="0" />
    <path
       style="fill:#000000;stroke:none"
       id="path4396-2"
       d="m 301.9958,587.82072 c -0.0709,0.29779 -0.17018,1.02103 -0.2269,1.60245 -0.0426,0.58142 -0.11345,1.17702 -0.15599,1.30465 -0.0426,0.14181 -0.0142,0.25526 0.0567,0.25526 0.0709,0 0.17017,-0.42543 0.22689,-0.96431 0.0426,-0.5247 0.17018,-1.34719 0.26944,-1.84353 0.19854,-0.93595 0.0567,-1.23375 -0.17017,-0.35452 z"
       inkscape:connector-curvature="0" />
    <path
       style="fill:#000000;stroke:none"
       d="m 295.37327,588.28869 c 0.37673,2.35585 0.95524,4.80143 0.33601,7.1942 -0.27438,1.4896 -0.31499,3.09778 -0.57534,4.59112 -0.30796,1.98413 -0.39361,3.9415 -0.44763,5.94622 -0.13614,2.36354 -0.44623,4.60386 -0.60457,6.96229 -0.0434,1.12737 -0.1035,2.26477 0.0719,3.38455 0.45265,-0.16388 0.86587,-2.21883 0.38628,-1.0993 -0.39658,-0.94398 0.0106,-1.62379 -0.0229,-2.628 0.24163,-2.81698 0.60677,-5.59652 0.60239,-8.43468 0.17277,-2.99423 0.62761,-5.96494 1.06744,-8.928 0.25251,-1.01764 0.53099,-2.10579 0.13111,-3.12696 -0.32674,-1.36042 -0.54115,-2.74436 -0.74124,-4.12809 -0.1528,-0.17312 -0.28006,0.15143 -0.20349,0.26665 z"
       id="path4404-4"
       inkscape:connector-curvature="0"
       sodipodi:nodetypes="ccccccccccccc" />
    <path
       style="fill:#000000;stroke:none"
       sodipodi:nodetypes="cccccccccccc"
       inkscape:connector-curvature="0"
       id="path4412-4"
       d="m 292.38954,588.89698 c -0.39779,0.95987 -0.71706,1.95192 -1.18044,2.88423 -1.12736,2.48641 -2.49584,4.87919 -3.30735,7.497 -0.0736,0.28475 -0.28828,0.86031 -0.16029,0.98997 0.44158,-0.52382 1.39755,-1.9658 1.77808,-2.52724 -0.0825,-0.50066 -1.08826,1.16178 -1.17965,1.35757 -0.13206,0.22461 -0.26331,0.23782 -0.10621,-0.0388 0.57662,-1.37822 1.29515,-2.44147 1.94293,-3.7872 0.77568,-1.60302 1.77962,-3.39861 2.40944,-5.06587 0.17971,-0.52649 1.61367,-3.69926 1.61832,-4.26177 -0.13308,-0.23773 -1.75774,2.90227 -1.81483,2.95209 z" />
    <path
       style="fill:#000000;stroke:none"
       sodipodi:nodetypes="ccccc"
       id="path4414-4"
       d="m 294.65651,588.90618 c -0.58142,0.86504 -2.67563,4.56999 -2.60473,4.65508 0.0426,0.0426 0.9435,-0.87278 1.12785,-1.21312 0.17017,-0.32617 1.63462,-2.77297 2.07423,-3.4962 0.77995,-1.31883 0.0975,-1.02352 -0.59735,0.0542 z"
       inkscape:connector-curvature="0" />
    <path
       style="fill:#000000;stroke:none"
       sodipodi:nodetypes="ccccsc"
       id="path4438-5"
       d="m 291.91347,593.47912 c -0.51052,0.97849 -1.0459,1.88773 -1.31533,2.11463 -0.25526,0.21271 -1.5496,2.50819 -1.47869,2.5791 0.0709,0.0567 0.90758,-1.09194 2.0137,-2.72276 0.8225,-1.21956 1.51737,-2.46749 1.46064,-2.63766 -0.0284,-0.0851 -0.41088,0.17035 -0.68032,0.66669 z"
       inkscape:connector-curvature="0" />
    <path
       style="fill:#000000;stroke:none"
       id="path4444-7"
       d="m 301.55618,594.88285 c 0,0.38289 0.0276,1.37979 0.18361,2.27319 0.5956,3.28999 0.54236,4.2451 0.70905,5.61642 0.089,0.73203 0.17092,1.69675 0.24183,2.16472 0.0851,0.48216 0.21271,1.65918 0.28361,2.63767 l 0.11345,1.77263 -0.0426,-1.77263 c -0.0851,-2.92129 -0.35129,-7.46742 -0.73417,-9.70802 -0.19854,-1.17702 -0.42121,-8.59498 -0.42121,-8.94951 -0.11021,0.53585 -0.53675,1.60749 -0.51698,2.03164 z"
       inkscape:connector-curvature="0"
       sodipodi:nodetypes="ccsccccccsc" />
    <path
       style="fill:#000000;stroke:none"
       id="path4462-7"
       d="m 299.03197,598.15866 c -0.2269,0.48216 -0.19854,0.63815 0.0284,0.21272 0.31496,-0.12538 0.16657,-0.32065 0.34052,0.20056 0.38289,0.73741 0.5934,1.93801 0.9621,4.54731 0.21272,1.40392 0.46318,2.78427 0.53409,3.09625 0.0709,0.31198 0.18435,1.14645 0.26944,1.92641 0.35452,3.78632 1.05621,7.09068 1.38237,7.09068 0.156,0 0.46947,-3.58906 0.54038,-6.07073 0.0426,-1.40393 -0.45507,-6.88754 -0.54013,-6.30612 -0.0567,0.46798 0.0724,8.71741 0.0724,9.29883 0.0343,0.53301 -0.0591,3.05422 -0.28094,1.40705 -0.24108,-0.82249 -0.53409,-2.8338 -0.81771,-5.8969 -0.18127,-1.34089 -0.45904,-2.77818 -0.59081,-3.8832 -0.5247,-4.2543 -1.62769,-6.74076 -2.12402,-5.63465 z"
       inkscape:connector-curvature="0"
       sodipodi:nodetypes="ccccccscccccccc" />
    <path
       style="fill:#000000;stroke:none"
       id="path4474-1"
       d="m 297.52878,602.75331 c -0.19853,0.49634 -0.83668,3.134 -1.00685,4.18339 -0.26944,1.63082 -0.7516,3.85724 -0.99267,4.66556 -0.24108,0.77995 -1.27371,4.67069 -1.08936,4.45798 0.0709,-0.0709 1.28292,-3.59387 1.38219,-4.0193 0.0993,-0.42543 0.43463,-1.73413 0.63317,-2.59917 0.18435,-0.85086 0.56208,-2.20689 0.63299,-2.71741 0.0709,-0.51051 1.53781,-7.11167 1.77888,-7.96254 0.24194,-0.86555 0.30213,-0.97597 -0.0297,-0.86485 -0.0284,-0.0851 -1.25198,4.74288 -1.30871,4.85634 z"
       inkscape:connector-curvature="0"
       sodipodi:nodetypes="ccccscsccc" />
    <path
       style="fill:#000000;stroke:none"
       id="path4482-3"
       d="m 295.07667,613.16597 c -0.26704,0.88597 -0.47473,1.83303 -0.44506,2.07742 0,0.27496 0.26703,-0.39714 0.56373,-1.49695 0.29671,-1.09982 0.50439,-2.01634 0.44506,-2.07744 -0.0594,-0.0612 -0.32637,0.611 -0.56373,1.49697 z"
       inkscape:connector-curvature="0" />
    <g
       id="g6065"
       transform="matrix(0.5722163,0,0,0.5722163,145.48838,248.65602)">
      <path
         style="font-size:medium;font-style:normal;font-variant:normal;font-weight:normal;font-stretch:normal;text-indent:0;text-align:start;text-decoration:none;line-height:normal;letter-spacing:normal;word-spacing:normal;text-transform:none;direction:ltr;block-progression:tb;writing-mode:lr-tb;text-anchor:start;baseline-shift:baseline;color:#000000;fill:#000000;fill-opacity:1;stroke:none;stroke-width:0.64082235;marker:none;visibility:visible;display:inline;overflow:visible;enable-background:accumulate;font-family:Sans;-inkscape-font-specification:Sans"
         d="m 280.53125,589.625 c -0.003,0.0536 0.008,0.4194 0.0313,0.46776 0.1425,0.23336 0.58458,0.27278 0.59375,-4.9e-4 -0.0182,-8.17428 0.0634,-23.87074 0.36583,-24.60913 0.30241,-0.73839 62.38417,-0.38939 62.38417,-0.38939 l 0,56.53125 c 0,0 -62.41764,0.34037 -62.8125,0 -0.39486,-0.34037 0.0887,-19.00838 0.125,-28.5 -0.002,-0.0432 0.0263,-0.39751 0.008,-0.43651 -0.0701,-0.15838 -0.32183,0.0771 -0.47644,0.15526 -0.10802,0.0492 -0.18365,-0.2657 -0.1875,-0.14708 -0.16148,10.16289 -0.30031,21.30306 -10e-4,29.58458 l 63.65777,0 0.34375,0 0,-0.3125 0,-57.1875 0,-0.3125 -0.34375,0 -63.4375,0 c -0.61636,8.13308 -0.26654,17.83943 -0.25005,25.15625 z"
         id="path6067"
         inkscape:connector-curvature="0"
         sodipodi:nodetypes="ccczcczcccccccccccccc" />
      <path
         style="fill:#000000;stroke:none"
         id="path6069"
         d="m 285.03329,635.17172 c -0.11712,0.42164 0.0949,1.073 0.28232,1.073 0.37479,0 1.45604,-0.43956 2.03914,-0.89998 2.83341,-3.04202 5.10581,-6.01199 8.03162,-9.00312 1.33518,-1.3586 3.21119,-4.26035 3.21119,-4.35404 0,-0.30452 -5.1069,5.09827 -6.88714,7.11275 -0.91355,1.03067 -2.03791,2.24873 -2.52982,2.69379 -0.46848,0.44506 -1.00724,1.12436 -1.19463,1.47572 -0.42164,0.773 -1.94421,2.50639 -2.20188,2.50639 -0.30451,0 2.19325,-5.00867 5.21498,-11.56745 0.70272,-1.546 0.63727,-2.53359 0.21944,-2.25283 -2.88225,3.68713 -4.79823,8.65312 -6.18522,13.21577 z"
         inkscape:connector-curvature="0"
         sodipodi:nodetypes="csccscccsccc" />
      <path
         sodipodi:nodetypes="csccscccsccc"
         inkscape:connector-curvature="0"
         d="m 339.37193,634.86021 c 0.11712,0.42164 -0.0949,1.073 -0.28232,1.073 -0.37479,0 -1.45604,-0.43956 -2.03914,-0.89998 -2.83341,-3.04202 -5.10581,-6.01199 -8.03162,-9.00312 -1.33518,-1.3586 -3.21119,-4.26035 -3.21119,-4.35404 0,-0.30452 5.1069,5.09827 6.88714,7.11275 0.91355,1.03067 2.03791,2.24873 2.52982,2.69379 0.46848,0.44506 1.00724,1.12436 1.19463,1.47572 0.42164,0.773 1.94421,2.50639 2.20188,2.50639 0.30451,0 -2.19325,-5.00867 -5.21498,-11.56745 -0.70272,-1.546 -0.63727,-2.53359 -0.21944,-2.25283 2.88225,3.68713 4.79823,8.65312 6.18522,13.21577 z"
         id="path6071"
         style="fill:#000000;stroke:none" />
    </g>
    <path
       sodipodi:nodetypes="cccccsccccccsccccccccccccccccccccccccccccccscsccsccccccccccccccccccscccsccczccczcccccccccsscccccccccccsccccscc"
       inkscape:connector-curvature="0"
       d="m 203.80837,577.80088 c -0.13078,0.0385 -0.5045,0.11641 -0.73528,0.32411 -0.40192,0.45188 -0.43849,0.34815 -0.954,0.12262 -0.56159,-0.23848 -0.70963,-0.22094 -1.47123,-0.25171 -0.75392,-0.0231 -0.92816,0.005 -1.14356,0.14357 -0.23079,0.14616 -0.29862,0.20511 -0.29862,0.53591 0,0.41542 0.38694,1.01028 0.77928,1.38723 l 0.23848,0.2231 -0.48506,0.34848 c -0.23078,0.2154 -0.39962,0.50544 -0.4304,0.59776 -0.10001,0.24618 0.0462,0.68467 0.26926,0.83084 0.28463,0.18463 0.62421,0.27277 0.36265,0.0497 -0.19232,-0.16155 -0.48264,-0.37912 -0.48264,-0.6176 0,-0.26156 0.0539,-0.3281 0.43081,-0.68198 0.23079,-0.22309 0.37385,-0.41946 0.40462,-0.40408 0.0308,0.0154 0.18464,0.17694 0.34619,0.36157 l 0.30002,0.33849 -0.20771,0.60775 c -0.15196,0.34922 -0.0837,0.59582 -0.46657,0.4752 -1.12143,-0.59141 -0.41893,-0.0281 -0.44201,-0.0127 -0.0154,0.0231 0.18544,0.10676 0.32392,0.12983 0.13078,0.0308 0.26156,0.0769 0.27694,0.10771 0.0231,0.0385 -0.0542,0.23079 -0.10041,0.44619 -0.18463,0.79238 0.18004,1.34034 0.73394,1.15571 0.30772,-0.10002 1.13221,-0.68333 1.63225,-1.1603 0.22099,-0.32833 0.53377,-0.15444 0.78726,-0.14846 0.38465,0.13078 0.80749,0.21635 1.36139,0.2702 0.31541,0.0308 0.59269,-0.0117 0.70809,-0.10406 0.16425,-0.0838 0.32702,-0.31885 0.15776,-0.2573 -0.36157,0.12308 -2.32618,0.0211 -2.57235,-0.19429 -0.13848,-0.13078 0.46832,-0.42318 0.99914,-0.56165 0.30003,-0.0769 0.79824,-0.281 1.09058,-0.42716 0.34618,-0.16925 0.49512,-0.28053 0.52589,-0.22668 0.0308,0.0462 0.006,0.31906 0.0213,0.64217 0.0231,0.46927 -0.006,0.61226 -0.10588,0.71227 -0.0692,0.0769 -0.16918,0.2592 -0.13072,0.28997 0.13847,0.0846 0.45551,-0.26608 0.44782,-0.82767 0,-0.30772 -0.0941,-0.71673 -0.12485,-0.80136 -0.0462,-0.1077 -0.008,-0.19232 0.16156,-0.33079 0.12308,-0.10001 0.32168,-0.32486 0.37553,-0.41718 0.0462,-0.0923 0.11076,-0.46799 -0.0508,-0.30644 -0.46236,0.57407 -0.45111,0.96093 -0.88772,0.38108 -0.34414,-0.35303 -0.33838,-0.3163 -0.0842,-0.70148 0.20002,-0.30772 0.28194,-0.34713 0.4358,-0.34713 0.31541,0 0.46029,0.17066 0.52183,0.55531 0,0 -0.0296,0.3927 0.0448,0.41536 0.0671,0.0204 0.0832,-0.41036 0.0832,-0.41036 0.008,-0.25387 -0.0385,-0.35388 -0.23079,-0.53851 -0.13079,-0.12309 -0.30772,-0.2231 -0.40004,-0.2231 -0.14616,0 -0.17693,-0.0539 -0.2154,-0.40003 -0.0616,-0.45389 -0.28464,-0.81546 -0.61544,-0.9924 -0.29233,-0.14617 -0.88469,-0.20002 -1.18472,-0.1077 z m 0.93855,0.19212 c 0.30772,0.0615 0.57088,0.40793 0.64011,0.76181 0.0846,0.46927 0.17284,0.33499 -0.95802,0.35038 -0.56928,0 -1.25916,0.18043 -1.57456,0.22659 -0.55654,0.0757 -0.67246,0.12305 -0.29114,-0.24747 0.2549,-0.35011 0.25839,-0.23782 0.61019,-0.0399 0.20002,0.1077 0.7025,0.33384 0.71788,0.31845 0.0231,-0.0231 -0.35867,-0.40071 -0.58177,-0.5238 -0.38003,-0.2114 -0.40745,-0.13179 -0.0887,-0.43175 0.47697,-0.44619 0.78242,-0.55404 1.15169,-0.47711 0.0615,0.008 0.23588,0.0321 0.37436,0.0628 z m -3.03733,0.39874 c 0.57813,0.2129 1.01948,0.35097 0.57707,0.68757 -0.3293,0.16695 -0.43849,0.38595 -0.75391,0.48596 -0.49235,0.15385 -1.37015,0.766 -1.3163,0.81985 0.0231,0.0231 0.52103,-0.15486 0.72874,-0.25486 0.34802,-0.1183 1.2185,-0.79154 0.763,-0.16765 -0.11539,0.14616 -0.31541,0.42311 -0.43081,0.62313 -0.11539,0.2077 -0.23848,0.36926 -0.26925,0.36926 -0.0769,0 -0.8812,-1.02577 -1.212,-1.47965 -0.72099,-1.11449 -0.0788,-1.28303 0.75292,-1.28233 0.48466,-0.008 0.70665,0.0449 1.16054,0.19872 z m 3.67274,1.15666 c -0.11136,0.36645 -0.32958,0.53485 -0.83772,0.16715 l -0.55161,-0.33761 0.3308,-0.0385 c 0.31542,-0.0385 1.16988,-0.15753 1.05853,0.20892 z m -1.16664,0.22134 c 0.75392,0.5462 0.74622,0.32371 0.16925,1.00839 -0.61371,0.73647 -1.5279,1.567 -2.2668,1.06346 -0.19232,-0.13079 -0.47878,-0.3331 -0.64803,-0.49465 -0.40936,-0.22674 -0.28691,-0.31899 -0.0747,-0.70411 0.11539,-0.20771 0.25124,-0.46482 0.41279,-0.68022 0.31541,-0.40004 0.51543,-0.48466 1.34627,-0.56928 0.60775,-0.0692 0.60734,0.0456 1.06122,0.37641 z m 1.1082,0.85446 c 0.16155,0.15387 0.29233,0.32311 0.29233,0.37696 0,0.13078 -1.55398,0.80007 -1.8617,0.80007 -0.0462,0 0.26824,-0.18875 0.54519,-0.48877 0.28465,-0.29234 0.48338,-0.61862 0.55262,-0.72632 0.23072,-0.24622 0.27366,-0.13878 0.47156,0.0381 z m -3.22336,1.4232 c 0.15386,0.0846 0.10001,0.0629 -0.48466,0.13987 -1.01204,0.1686 -0.85412,0.0322 -0.62213,-0.61943 0.12936,-0.54213 0.19897,-0.0897 0.4376,0.0601 0.25387,0.20771 0.57688,0.36556 0.66919,0.41941 z m 0.63083,0.53851 c -1.34627,1.23088 -1.8482,1.48569 -2.13285,1.07796 -0.14616,-0.20002 -0.1629,-0.35752 -0.0552,-0.86525 -0.0901,-0.60045 0.75497,-0.25571 1.0672,-0.331 0.31149,-0.0751 0.8824,-0.20481 0.95164,-0.13557 0.0462,0.0462 0.35098,0.2067 0.42021,0.2067 0.0846,-0.008 -0.13557,-0.15285 -0.25097,-0.21439 -0.13847,-0.0846 -0.13078,-0.10001 0.15387,-0.18464 0.16924,-0.0462 0.32309,-0.0769 0.33848,-0.0615 0.0154,0.0154 -0.20001,0.24618 -0.49235,0.50774 z"
       id="path6075"
       style="fill:#000000;stroke:none" />
    <path
       inkscape:connector-curvature="0"
       d="m 202.19285,580.90884 c -0.20002,0.14617 -0.10001,0.35388 0.17694,0.35388 0.29233,0 0.46157,-0.18463 0.3231,-0.34619 -0.11539,-0.14616 -0.30772,-0.14616 -0.50004,-0.008 z m 0.40773,0.10001 c 0.0385,0.12309 -0.16925,0.20771 -0.33849,0.14617 -0.10002,-0.0385 -0.1077,-0.0692 -0.0308,-0.16925 0.1154,-0.13078 0.31541,-0.11539 0.36926,0.0231 z"
       id="path6077"
       style="fill:#000000;stroke:none" />
    <path
       sodipodi:nodetypes="ccccccccccccccccccc"
       inkscape:connector-curvature="0"
       id="path6079"
       d="m 317.21907,583.71678 c 0.10863,0.13311 0.48983,-0.0263 0.66894,0.14093 0.3386,0.27624 0.68558,0.62745 1.15309,0.63939 0.74453,0.16942 1.39979,0.57531 2.11608,0.83475 0.37665,0.13884 0.78826,0.3229 1.16672,0.45094 0.34704,0.0211 3.00396,-0.29967 1.80318,0.20088 -0.68056,0.28246 -1.21887,0.35785 -1.96734,0.25904 -0.64542,-0.0794 -1.23885,-0.1456 -1.88807,-0.20181 -0.23245,-0.0106 -0.54215,-0.089 -0.72858,-0.0216 0.38583,0.10981 0.72924,0.15776 1.11837,0.26621 0.61894,0.11153 1.2972,0.19207 1.92582,0.23709 0.35998,0.0446 0.32955,-0.0101 0.92248,-0.0531 0.56505,-0.1654 0.99844,-0.53815 1.5233,-0.80284 0.39262,-0.17963 -0.16903,-0.14298 -0.32934,-0.14764 -0.7537,-0.007 -1.51024,0.0476 -2.26188,0.0535 -0.82291,-0.28956 -1.63233,-0.61536 -2.44467,-0.93234 -0.41731,-0.15951 -0.8259,-0.35966 -1.25478,-0.47425 -0.47009,-0.14763 -0.80422,-0.54067 -1.33545,-0.51872 -0.067,0.008 -0.13195,0.0318 -0.18787,0.0695 z"
       style="fill:#000000;stroke:none" />
    <path
       sodipodi:nodetypes="cccccc"
       inkscape:connector-curvature="0"
       d="m 316.03435,584.53223 c -0.56928,0.29234 -0.79597,0.52023 -0.97291,0.82026 -0.26926,0.46927 -0.13098,0.62153 0.19981,0.17534 0.20002,-0.26157 0.57148,-0.56639 1.00229,-0.79718 0.32311,-0.16924 0.49395,-0.45228 0.52472,-0.49075 0.11539,-0.11539 -0.1077,-0.0308 -0.75391,0.29233 z"
       id="path6081"
       style="fill:#000000;stroke:none" />
    <path
       inkscape:connector-curvature="0"
       d="m 314.81026,585.82073 c -0.14031,0.32739 -0.5342,0.9969 -0.51081,1.02536 0.0233,0.0143 0.45235,-0.59833 0.59266,-0.92572 0.15203,-0.31315 0.24557,-0.59783 0.22218,-0.6263 -0.0233,-0.0284 -0.15201,0.21351 -0.30403,0.52666 z"
       id="path6083"
       sodipodi:nodetypes="cccsc"
       style="fill:#000000;stroke:none" />
    <path
       inkscape:connector-curvature="0"
       d="m 319.44234,586.24008 c -0.0385,0.16155 -0.0923,0.55389 -0.12309,0.8693 -0.0231,0.31542 -0.0615,0.63852 -0.0846,0.70776 -0.0231,0.0769 -0.008,0.13847 0.0308,0.13847 0.0385,0 0.0923,-0.23079 0.12308,-0.52312 0.0231,-0.28464 0.0923,-0.73083 0.14617,-1.00009 0.10771,-0.50774 0.0308,-0.66929 -0.0923,-0.19232 z"
       id="path6085"
       style="fill:#000000;stroke:none" />
    <path
       sodipodi:nodetypes="ccccccccccccc"
       inkscape:connector-curvature="0"
       id="path6087"
       d="m 315.84972,586.49395 c 0.20437,1.27801 0.5182,2.6047 0.18228,3.90274 -0.14885,0.80809 -0.17088,1.6805 -0.31211,2.49061 -0.16707,1.07636 -0.21353,2.13821 -0.24284,3.22574 -0.0738,1.28218 -0.24207,2.49752 -0.32797,3.77693 -0.0235,0.61159 -0.0561,1.22861 0.039,1.83607 0.24555,-0.0889 0.46972,-1.20368 0.20955,-0.59635 -0.21514,-0.5121 0.006,-0.88088 -0.0124,-1.42565 0.13108,-1.52817 0.32916,-3.03603 0.32678,-4.57569 0.0937,-1.62432 0.34047,-3.23589 0.57907,-4.8433 0.13699,-0.55206 0.28806,-1.14236 0.0711,-1.69633 -0.17725,-0.73801 -0.29357,-1.48878 -0.40211,-2.23943 -0.0829,-0.0939 -0.15193,0.0821 -0.11039,0.14466 z"
       style="fill:#000000;stroke:none" />
    <path
       d="m 314.23109,586.82393 c -0.21579,0.52072 -0.38899,1.05889 -0.64037,1.56466 -0.61157,1.34883 -1.35395,2.64688 -1.79419,4.067 -0.0399,0.15448 -0.15638,0.46671 -0.087,0.53705 0.23955,-0.28417 0.75815,-1.06642 0.96458,-1.37099 -0.0447,-0.2716 -0.59036,0.63025 -0.63994,0.73646 -0.0716,0.12185 -0.14284,0.12901 -0.0576,-0.0211 0.31281,-0.74766 0.7026,-1.32446 1.05401,-2.0545 0.4208,-0.86961 0.96542,-1.84369 1.30709,-2.74816 0.0975,-0.28561 0.87539,-2.00679 0.87791,-2.31194 -0.0722,-0.12897 -0.95355,1.57444 -0.98452,1.60146 z"
       id="path6089"
       inkscape:connector-curvature="0"
       sodipodi:nodetypes="cccccccccccc"
       style="fill:#000000;stroke:none" />
    <path
       inkscape:connector-curvature="0"
       d="m 315.46089,586.82892 c -0.31541,0.46928 -1.45149,2.47916 -1.41303,2.52532 0.0231,0.0231 0.51184,-0.47347 0.61184,-0.6581 0.0923,-0.17695 0.88676,-1.5043 1.12524,-1.89664 0.42311,-0.71544 0.0529,-0.55524 -0.32405,0.0294 z"
       id="path6091"
       sodipodi:nodetypes="ccccc"
       style="fill:#000000;stroke:none" />
    <path
       inkscape:connector-curvature="0"
       d="m 313.97283,589.30968 c -0.27695,0.53081 -0.56738,1.02406 -0.71355,1.14715 -0.13847,0.11539 -0.84063,1.36066 -0.80216,1.39912 0.0385,0.0308 0.49235,-0.59236 1.0924,-1.47705 0.44619,-0.6616 0.82315,-1.33858 0.79237,-1.43089 -0.0154,-0.0462 -0.22289,0.0924 -0.36906,0.36167 z"
       id="path6093"
       sodipodi:nodetypes="ccccsc"
       style="fill:#000000;stroke:none" />
    <path
       sodipodi:nodetypes="ccsccccccsc"
       inkscape:connector-curvature="0"
       d="m 319.20385,590.07118 c 0,0.20771 0.015,0.74851 0.0996,1.23317 0.3231,1.78477 0.29422,2.3029 0.38465,3.04682 0.0483,0.39712 0.0927,0.92046 0.13119,1.17433 0.0462,0.26156 0.11539,0.90008 0.15385,1.4309 l 0.0616,0.96162 -0.0231,-0.96162 c -0.0462,-1.58476 -0.19057,-4.05097 -0.39828,-5.26646 -0.1077,-0.63851 -0.2285,-4.66264 -0.2285,-4.85497 -0.0598,0.29069 -0.29118,0.87204 -0.28045,1.10213 z"
       id="path6095"
       style="fill:#000000;stroke:none" />
    <path
       sodipodi:nodetypes="ccccccscccccccc"
       inkscape:connector-curvature="0"
       d="m 317.83451,591.84825 c -0.12309,0.26157 -0.10771,0.34619 0.0154,0.1154 0.17086,-0.068 0.0904,-0.17395 0.18472,0.1088 0.20771,0.40004 0.32191,1.05134 0.52193,2.46685 0.11539,0.76161 0.25127,1.51042 0.28973,1.67967 0.0385,0.16924 0.10001,0.62193 0.14617,1.04505 0.19232,2.05402 0.57298,3.84658 0.74992,3.84658 0.0846,0 0.25468,-1.94701 0.29314,-3.29328 0.0231,-0.76161 -0.24687,-3.73638 -0.29301,-3.42097 -0.0308,0.25387 0.0393,4.72906 0.0393,5.04447 0.0186,0.28915 -0.0321,1.65687 -0.15241,0.76331 -0.13078,-0.44619 -0.28973,-1.5373 -0.44359,-3.19898 -0.0983,-0.72741 -0.24903,-1.50712 -0.32051,-2.10658 -0.28464,-2.30789 -0.883,-3.65676 -1.15225,-3.05671 z"
       id="path6097"
       style="fill:#000000;stroke:none" />
    <path
       sodipodi:nodetypes="ccccscsccc"
       inkscape:connector-curvature="0"
       d="m 317.01905,594.34078 c -0.1077,0.26926 -0.45388,1.70015 -0.5462,2.26943 -0.14617,0.88469 -0.40773,2.09249 -0.53851,2.53099 -0.13078,0.42312 -0.69097,2.53378 -0.59096,2.41839 0.0385,-0.0385 0.69597,-1.94962 0.74982,-2.18041 0.0539,-0.23079 0.23578,-0.94074 0.34348,-1.41001 0.10001,-0.46158 0.30492,-1.1972 0.34339,-1.47415 0.0385,-0.27695 0.83424,-3.85798 0.96502,-4.31956 0.13124,-0.46955 0.1639,-0.52945 -0.0161,-0.46917 -0.0154,-0.0462 -0.67918,2.57294 -0.70995,2.63449 z"
       id="path6099"
       style="fill:#000000;stroke:none" />
    <path
       inkscape:connector-curvature="0"
       d="m 315.68882,599.98949 c -0.14487,0.48063 -0.25753,0.99439 -0.24144,1.12697 0,0.14916 0.14486,-0.21544 0.30582,-0.81207 0.16096,-0.59664 0.27362,-1.09383 0.24143,-1.12698 -0.0322,-0.0332 -0.17705,0.33146 -0.30581,0.81208 z"
       id="path6101"
       style="fill:#000000;stroke:none" />
    <g
       transform="matrix(0.29969561,0,0,0.29969561,238.08926,408.77449)"
       id="g6103">
      <path
         sodipodi:nodetypes="ccczcczcccccccccccccc"
         inkscape:connector-curvature="0"
         id="path6105"
         d="m 280.53125,589.625 c -0.003,0.0536 0.008,0.4194 0.0313,0.46776 0.1425,0.23336 0.58458,0.27278 0.59375,-4.9e-4 -0.0182,-8.17428 0.0634,-23.87074 0.36583,-24.60913 0.30241,-0.73839 62.38417,-0.38939 62.38417,-0.38939 l 0,56.53125 c 0,0 -62.41764,0.34037 -62.8125,0 -0.39486,-0.34037 0.0887,-19.00838 0.125,-28.5 -0.002,-0.0432 0.0263,-0.39751 0.008,-0.43651 -0.0701,-0.15838 -0.32183,0.0771 -0.47644,0.15526 -0.10802,0.0492 -0.18365,-0.2657 -0.1875,-0.14708 -0.16148,10.16289 -0.30031,21.30306 -10e-4,29.58458 l 63.65777,0 0.34375,0 0,-0.3125 0,-57.1875 0,-0.3125 -0.34375,0 -63.4375,0 c -0.61636,8.13308 -0.26654,17.83943 -0.25005,25.15625 z"
         style="font-size:medium;font-style:normal;font-variant:normal;font-weight:normal;font-stretch:normal;text-indent:0;text-align:start;text-decoration:none;line-height:normal;letter-spacing:normal;word-spacing:normal;text-transform:none;direction:ltr;block-progression:tb;writing-mode:lr-tb;text-anchor:start;baseline-shift:baseline;color:#000000;fill:#000000;fill-opacity:1;stroke:none;stroke-width:0.64082235;marker:none;visibility:visible;display:inline;overflow:visible;enable-background:accumulate;font-family:Sans;-inkscape-font-specification:Sans" />
      <path
         sodipodi:nodetypes="csccscccsccc"
         inkscape:connector-curvature="0"
         d="m 285.03329,635.17172 c -0.11712,0.42164 0.0949,1.073 0.28232,1.073 0.37479,0 1.45604,-0.43956 2.03914,-0.89998 2.83341,-3.04202 5.10581,-6.01199 8.03162,-9.00312 1.33518,-1.3586 3.21119,-4.26035 3.21119,-4.35404 0,-0.30452 -5.1069,5.09827 -6.88714,7.11275 -0.91355,1.03067 -2.03791,2.24873 -2.52982,2.69379 -0.46848,0.44506 -1.00724,1.12436 -1.19463,1.47572 -0.42164,0.773 -1.94421,2.50639 -2.20188,2.50639 -0.30451,0 2.19325,-5.00867 5.21498,-11.56745 0.70272,-1.546 0.63727,-2.53359 0.21944,-2.25283 -2.88225,3.68713 -4.79823,8.65312 -6.18522,13.21577 z"
         id="path6107"
         style="fill:#000000;stroke:none" />
      <path
         style="fill:#000000;stroke:none"
         id="path6109"
         d="m 339.37193,634.86021 c 0.11712,0.42164 -0.0949,1.073 -0.28232,1.073 -0.37479,0 -1.45604,-0.43956 -2.03914,-0.89998 -2.83341,-3.04202 -5.10581,-6.01199 -8.03162,-9.00312 -1.33518,-1.3586 -3.21119,-4.26035 -3.21119,-4.35404 0,-0.30452 5.1069,5.09827 6.88714,7.11275 0.91355,1.03067 2.03791,2.24873 2.52982,2.69379 0.46848,0.44506 1.00724,1.12436 1.19463,1.47572 0.42164,0.773 1.94421,2.50639 2.20188,2.50639 0.30451,0 -2.19325,-5.00867 -5.21498,-11.56745 -0.70272,-1.546 -0.63727,-2.53359 -0.21944,-2.25283 2.88225,3.68713 4.79823,8.65312 6.18522,13.21577 z"
         inkscape:connector-curvature="0"
         sodipodi:nodetypes="csccscccsccc" />
    </g>
    <text
       xml:space="preserve"
       style="font-size:15px;font-style:normal;font-variant:normal;font-weight:300;font-stretch:normal;line-height:125%;letter-spacing:0px;word-spacing:0px;fill:#000000;fill-opacity:1;stroke:none;font-family:Nissan AG;-inkscape-font-specification:Nissan AG Light"
       id="text6117"
       sodipodi:linespacing="125%"
       transform="matrix(0.99987383,0.01588451,-0.01588451,0.99987383,7.3503444,3.9957781)"><textPath
         xlink:href="#path5907"
         id="textPath6125"><tspan
   id="tspan6119">  лучший</tspan></textPath></text>
    <path
       transform="matrix(0.55104328,0,0,0.61267307,112.58843,251.61855)"
       style="fill:none;stroke:#000000;stroke-width:0;stroke-linecap:round;stroke-miterlimit:4;stroke-dashoffset:0;stroke-opacity:1;stroke-dasharray:none"
       d="m 269.20629,642.07845 c 39.72553,33.12725 100.91615,33.73651 141.44733,1.40835"
       id="path6129" />
    <text
       xml:space="preserve"
       style="font-size:19.75px;font-style:normal;font-variant:normal;font-weight:300;font-stretch:normal;line-height:125%;letter-spacing:0px;word-spacing:0px;fill:#000000;fill-opacity:1;stroke:none;font-family:Nissan AG;-inkscape-font-specification:Nissan AG Light"
       id="text6131"
       sodipodi:linespacing="125%"
       transform="translate(-0.88108706,0)"><textPath
         xlink:href="#path6129"
         id="textPath6136"><tspan
   style="font-size:15px"
   id="tspan6133"
   dx="0 0 0 0 -0.93453389">    теоретик</tspan></textPath></text>
    <g
       id="g5544-2"
       transform="matrix(0.56792242,-0.05759813,0,0.56792242,181.43349,268.55632)">
      <path
         sodipodi:nodetypes="ccccccccccccccccccccccccccccccccccccccccccccscccccccccccccccccccccccccccccccccccccc"
         inkscape:connector-curvature="0"
         id="path4716-3"
         d="m 208.1005,555.61903 c -1.72499,0.32605 -3.22837,1.2806 -4.74479,2.09671 -1.23965,0.10023 -1.92507,-1.2717 -3.06374,-1.58291 -1.19688,-0.58309 -2.71609,-0.86438 -3.91444,-0.13321 -1.30867,1.0252 0.0642,3.1271 -1.19935,3.96546 -1.67261,1.10497 -3.47212,2.18004 -4.64355,3.85308 -0.3276,1.41229 -0.088,3.07491 1.15984,3.97395 1.1223,1.06035 2.48767,1.82191 3.89041,2.44543 -0.36813,1.42932 -0.0908,3.09241 1.09985,4.05927 1.42101,0.82165 3.11955,-8.5e-4 4.32589,-0.86402 1.00212,-0.66988 1.87441,-1.55654 2.96882,-2.07331 1.42454,-0.28378 2.34049,1.14653 3.38282,1.86037 1.22101,0.95754 2.84789,1.78605 4.42548,1.33664 1.24861,-0.70806 1.43668,-2.53663 0.90169,-3.75559 -0.69302,-1.82435 -2.0161,-3.33762 -2.73133,-5.14083 -0.0738,-1.34688 1.39034,-2.0533 1.78258,-3.26512 0.12991,-1.0502 0.8709,-1.36604 1.77627,-0.9944 1.44815,0.70364 2.66118,1.37247 3.32302,2.89727 0.35586,1.87795 -3.09992,5.10317 -4.95808,5.86518 -0.51061,0.35792 0.0343,0.0211 0.22628,0.48451 1.26056,0.40596 3.11419,-1.2112 3.9637,-1.96539 0.98315,-0.96025 1.68771,-2.29577 1.50944,-3.70185 0.21701,-1.6676 -1.0088,-2.91164 -2.40384,-3.56243 -1.19997,-0.84894 -3.29677,-1.18572 -2.70365,-3.09973 0.0387,-0.94162 1.25419,-2.68493 -1.94203,-2.79804 2.2694,0.20652 1.78731,2.74931 1.36748,4.16908 -1.67231,-0.72198 -3.5012,-0.89001 -5.25352,-1.33397 -0.67435,-0.23432 -2.02561,-0.19576 -2.26824,-0.58618 1.02798,-0.93798 2.44945,-1.29233 3.74464,-1.71086 0.59162,-0.25393 3.66611,0.045 3.6392,-0.42857 -0.37872,-0.41979 -2.94808,-0.079 -3.66085,-0.0105 z m -8.61986,0.83575 c 0.63649,0.40102 2.02975,0.67243 1.83023,1.35243 -1.71426,0.29736 -2.7485,0.53194 -4.33511,1.26427 -1.13899,-0.67767 -0.68802,-2.85033 0.68006,-2.94624 0.77284,-0.097 1.09682,0.0535 1.82482,0.32954 z m 2.15854,3.08174 c -1.22106,1.31032 -2.26181,2.77234 -3.30697,4.22275 -0.84083,-1.06686 -1.07172,-2.24213 -1.37681,-3.5408 0.74385,-1.11798 1.92579,-1.01781 3.11917,-1.45719 0.61506,-0.0394 2.44027,-0.65406 2.50005,-0.27898 -0.31182,0.35141 -0.62363,0.70281 -0.93544,1.05422 z m 5.1894,-0.66139 c 1.62973,0.28921 3.18357,0.87916 4.78647,1.27688 0.22216,1.37156 -0.49695,2.55209 -1.43106,3.43253 -1.69341,1.59613 -4.52632,-3.65393 -6.49279,-5.1673 1.06961,-0.0966 2.09291,0.30647 3.13738,0.45789 z m -2.51626,1.32491 c 1.53729,1.68767 3.18262,3.13861 4.46418,5.03531 -0.0423,0.45225 -0.58786,1.86158 0.30807,1.0478 1.29309,0.25285 1.08479,1.88437 1.89195,2.73428 0.88444,1.06747 0.0484,1.5113 -1.00947,1.32279 -1.70252,0.1905 -2.94423,0.35605 -4.64991,0.1729 0.65143,-1.06405 2.6258,-2.69822 3.43796,-3.62511 0.61241,-0.21437 1.29981,-2.09946 0.30822,-1.12644 -1.06361,1.07995 -3.34589,3.27823 -4.59943,4.14209 -1.95488,-1.54674 -3.52239,-2.96968 -5.10281,-4.89394 -0.6667,-1.22944 0.7999,-2.10805 1.44765,-3.02822 1.04691,-0.91637 1.24266,-1.95156 2.20889,-2.77961 0.70232,-0.0594 0.81225,0.63287 1.2947,0.99815 z m -8.25259,0.30313 c 0.14329,1.59776 1.58587,2.65834 1.55286,4.17285 -0.60296,1.24503 -1.32087,2.16236 -1.68824,3.51235 -0.3989,2.0452 -1.89242,0.5994 -2.83563,-0.0984 -1.11275,-0.96094 -2.30268,-2.24379 -1.80736,-3.81831 0.57442,-1.27322 1.85186,-1.84222 2.92534,-2.67947 0.4793,-0.1427 1.69665,-2.11224 1.85303,-1.089 z m 3.1713,5.32508 c 1.34971,1.66869 2.63872,3.0085 4.1708,4.50256 -0.72722,0.8172 -1.92746,0.19239 -2.93861,0.33749 -1.98029,0.61933 1.84472,0.24257 1.71023,1.10333 -1.39816,1.08789 -2.14693,1.79031 -3.89888,2.1775 -1.51366,0.0645 -2.16291,-1.54496 -2.04688,-2.83031 0.1138,-1.56901 6.7648,1.03533 7.06137,0.29325 0.007,-0.95948 -7.35398,-1.044 -6.97709,-2.37755 0.71232,-1.32073 1.05631,-2.95139 2.10906,-4.03421 0.41037,0.0695 0.5105,0.59847 0.81,0.82794 z m 12.88658,5.43636 c 0.66621,1.37502 -0.42462,3.25549 -2.08287,2.64299 -1.36685,-0.48528 -2.01662,-1.19466 -3.22551,-1.96764 -1.1412,-0.96499 1.0002,-0.44233 1.55469,-0.59434 1.24804,-0.0266 2.38881,-0.31017 3.60169,-0.60832 0.20053,0.0424 0.099,0.34536 0.152,0.52731 z"
         style="fill:#000000;stroke:none" />
      <path
         style="fill:#000000;stroke:none"
         inkscape:connector-curvature="0"
         id="path4718-5"
         d="m 203.13156,563.03004 c -0.35614,0.0848 -1.56021,1.23799 -1.67893,1.59413 -0.11871,0.32222 0.45789,1.4415 0.79707,1.57717 0.15263,0.0509 0.83098,0.10175 1.50934,0.10175 1.89938,0 2.37423,-0.5766 1.645,-2.00114 -0.54268,-1.0684 -1.37366,-1.52629 -2.27248,-1.27191 z m 0.93273,1.32279 c 0.15263,0.35613 0.13567,0.47485 -0.11871,0.76315 -0.42397,0.47484 -0.89882,0.44093 -1.03449,-0.0848 -0.0509,-0.23742 -0.18654,-0.42397 -0.27134,-0.42397 -0.10175,0 -0.13567,0.18655 -0.10175,0.42397 0.10175,0.47485 -0.0509,0.54268 -0.37309,0.16959 -0.45789,-0.55964 0.22046,-1.27191 1.23799,-1.27191 0.33918,0 0.52572,0.11871 0.66139,0.42397 z m 1.13625,1.20408 c -0.2883,0.35613 -0.52573,0.2883 -0.2883,-0.0848 0.11871,-0.18655 0.27134,-0.2883 0.33917,-0.23742 0.0848,0.0339 0.0678,0.18654 -0.0509,0.32222 z" />
    </g>
    <g
       transform="matrix(0.28809991,-0.02921881,0,0.28809991,258.28138,424.14039)"
       id="g5600">
      <path
         style="fill:#000000;stroke:none"
         d="m 208.1005,555.61903 c -1.72499,0.32605 -3.22837,1.2806 -4.74479,2.09671 -1.23965,0.10023 -1.92507,-1.2717 -3.06374,-1.58291 -1.19688,-0.58309 -2.71609,-0.86438 -3.91444,-0.13321 -1.30867,1.0252 0.0642,3.1271 -1.19935,3.96546 -1.67261,1.10497 -3.47212,2.18004 -4.64355,3.85308 -0.3276,1.41229 -0.088,3.07491 1.15984,3.97395 1.1223,1.06035 2.48767,1.82191 3.89041,2.44543 -0.36813,1.42932 -0.0908,3.09241 1.09985,4.05927 1.42101,0.82165 3.11955,-8.5e-4 4.32589,-0.86402 1.00212,-0.66988 1.87441,-1.55654 2.96882,-2.07331 1.42454,-0.28378 2.34049,1.14653 3.38282,1.86037 1.22101,0.95754 2.84789,1.78605 4.42548,1.33664 1.24861,-0.70806 1.43668,-2.53663 0.90169,-3.75559 -0.69302,-1.82435 -2.0161,-3.33762 -2.73133,-5.14083 -0.0738,-1.34688 1.39034,-2.0533 1.78258,-3.26512 0.12991,-1.0502 0.8709,-1.36604 1.77627,-0.9944 1.44815,0.70364 2.66118,1.37247 3.32302,2.89727 0.35586,1.87795 -3.09992,5.10317 -4.95808,5.86518 -0.51061,0.35792 0.0343,0.0211 0.22628,0.48451 1.26056,0.40596 3.11419,-1.2112 3.9637,-1.96539 0.98315,-0.96025 1.68771,-2.29577 1.50944,-3.70185 0.21701,-1.6676 -1.0088,-2.91164 -2.40384,-3.56243 -1.19997,-0.84894 -3.29677,-1.18572 -2.70365,-3.09973 0.0387,-0.94162 1.25419,-2.68493 -1.94203,-2.79804 2.2694,0.20652 1.78731,2.74931 1.36748,4.16908 -1.67231,-0.72198 -3.5012,-0.89001 -5.25352,-1.33397 -0.67435,-0.23432 -2.02561,-0.19576 -2.26824,-0.58618 1.02798,-0.93798 2.44945,-1.29233 3.74464,-1.71086 0.59162,-0.25393 3.66611,0.045 3.6392,-0.42857 -0.37872,-0.41979 -2.94808,-0.079 -3.66085,-0.0105 z m -8.61986,0.83575 c 0.63649,0.40102 2.02975,0.67243 1.83023,1.35243 -1.71426,0.29736 -2.7485,0.53194 -4.33511,1.26427 -1.13899,-0.67767 -0.68802,-2.85033 0.68006,-2.94624 0.77284,-0.097 1.09682,0.0535 1.82482,0.32954 z m 2.15854,3.08174 c -1.22106,1.31032 -2.26181,2.77234 -3.30697,4.22275 -0.84083,-1.06686 -1.07172,-2.24213 -1.37681,-3.5408 0.74385,-1.11798 1.92579,-1.01781 3.11917,-1.45719 0.61506,-0.0394 2.44027,-0.65406 2.50005,-0.27898 -0.31182,0.35141 -0.62363,0.70281 -0.93544,1.05422 z m 5.1894,-0.66139 c 1.62973,0.28921 3.18357,0.87916 4.78647,1.27688 0.22216,1.37156 -0.49695,2.55209 -1.43106,3.43253 -1.69341,1.59613 -4.52632,-3.65393 -6.49279,-5.1673 1.06961,-0.0966 2.09291,0.30647 3.13738,0.45789 z m -2.51626,1.32491 c 1.53729,1.68767 3.18262,3.13861 4.46418,5.03531 -0.0423,0.45225 -0.58786,1.86158 0.30807,1.0478 1.29309,0.25285 1.08479,1.88437 1.89195,2.73428 0.88444,1.06747 0.0484,1.5113 -1.00947,1.32279 -1.70252,0.1905 -2.94423,0.35605 -4.64991,0.1729 0.65143,-1.06405 2.6258,-2.69822 3.43796,-3.62511 0.61241,-0.21437 1.29981,-2.09946 0.30822,-1.12644 -1.06361,1.07995 -3.34589,3.27823 -4.59943,4.14209 -1.95488,-1.54674 -3.52239,-2.96968 -5.10281,-4.89394 -0.6667,-1.22944 0.7999,-2.10805 1.44765,-3.02822 1.04691,-0.91637 1.24266,-1.95156 2.20889,-2.77961 0.70232,-0.0594 0.81225,0.63287 1.2947,0.99815 z m -8.25259,0.30313 c 0.14329,1.59776 1.58587,2.65834 1.55286,4.17285 -0.60296,1.24503 -1.32087,2.16236 -1.68824,3.51235 -0.3989,2.0452 -1.89242,0.5994 -2.83563,-0.0984 -1.11275,-0.96094 -2.30268,-2.24379 -1.80736,-3.81831 0.57442,-1.27322 1.85186,-1.84222 2.92534,-2.67947 0.4793,-0.1427 1.69665,-2.11224 1.85303,-1.089 z m 3.1713,5.32508 c 1.34971,1.66869 2.63872,3.0085 4.1708,4.50256 -0.72722,0.8172 -1.92746,0.19239 -2.93861,0.33749 -1.98029,0.61933 1.84472,0.24257 1.71023,1.10333 -1.39816,1.08789 -2.14693,1.79031 -3.89888,2.1775 -1.51366,0.0645 -2.16291,-1.54496 -2.04688,-2.83031 0.1138,-1.56901 6.7648,1.03533 7.06137,0.29325 0.007,-0.95948 -7.35398,-1.044 -6.97709,-2.37755 0.71232,-1.32073 1.05631,-2.95139 2.10906,-4.03421 0.41037,0.0695 0.5105,0.59847 0.81,0.82794 z m 12.88658,5.43636 c 0.66621,1.37502 -0.42462,3.25549 -2.08287,2.64299 -1.36685,-0.48528 -2.01662,-1.19466 -3.22551,-1.96764 -1.1412,-0.96499 1.0002,-0.44233 1.55469,-0.59434 1.24804,-0.0266 2.38881,-0.31017 3.60169,-0.60832 0.20053,0.0424 0.099,0.34536 0.152,0.52731 z"
         id="path5602"
         inkscape:connector-curvature="0"
         sodipodi:nodetypes="ccccccccccccccccccccccccccccccccccccccccccccscccccccccccccccccccccccccccccccccccccc" />
      <path
         d="m 203.13156,563.03004 c -0.35614,0.0848 -1.56021,1.23799 -1.67893,1.59413 -0.11871,0.32222 0.45789,1.4415 0.79707,1.57717 0.15263,0.0509 0.83098,0.10175 1.50934,0.10175 1.89938,0 2.37423,-0.5766 1.645,-2.00114 -0.54268,-1.0684 -1.37366,-1.52629 -2.27248,-1.27191 z m 0.93273,1.32279 c 0.15263,0.35613 0.13567,0.47485 -0.11871,0.76315 -0.42397,0.47484 -0.89882,0.44093 -1.03449,-0.0848 -0.0509,-0.23742 -0.18654,-0.42397 -0.27134,-0.42397 -0.10175,0 -0.13567,0.18655 -0.10175,0.42397 0.10175,0.47485 -0.0509,0.54268 -0.37309,0.16959 -0.45789,-0.55964 0.22046,-1.27191 1.23799,-1.27191 0.33918,0 0.52572,0.11871 0.66139,0.42397 z m 1.13625,1.20408 c -0.2883,0.35613 -0.52573,0.2883 -0.2883,-0.0848 0.11871,-0.18655 0.27134,-0.2883 0.33917,-0.23742 0.0848,0.0339 0.0678,0.18654 -0.0509,0.32222 z"
         id="path5604"
         inkscape:connector-curvature="0"
         style="fill:#000000;stroke:none" />
    </g>
  </g>
</svg>
