<?xml version="1.0" encoding="UTF-8" standalone="no"?>
<!-- Created with Inkscape (http://www.inkscape.org/) -->

<svg
   xmlns:dc="http://purl.org/dc/elements/1.1/"
   xmlns:cc="http://creativecommons.org/ns#"
   xmlns:rdf="http://www.w3.org/1999/02/22-rdf-syntax-ns#"
   xmlns:svg="http://www.w3.org/2000/svg"
   xmlns="http://www.w3.org/2000/svg"
   xmlns:sodipodi="http://sodipodi.sourceforge.net/DTD/sodipodi-0.dtd"
   xmlns:inkscape="http://www.inkscape.org/namespaces/inkscape"
   width="131.16969"
   height="131.04277"
   id="svg7206"
   version="1.1"
   inkscape:version="0.48.4 r9939"
   sodipodi:docname="veteran.svg">
  <defs
     id="defs7208" />
  <sodipodi:namedview
     id="base"
     pagecolor="#ffffff"
     bordercolor="#666666"
     borderopacity="1.0"
     inkscape:pageopacity="0.0"
     inkscape:pageshadow="2"
     inkscape:zoom="1.6050781"
     inkscape:cx="89.982632"
     inkscape:cy="114.5022"
     inkscape:document-units="px"
     inkscape:current-layer="layer1"
     showgrid="false"
     fit-margin-top="0"
     fit-margin-left="0"
     fit-margin-right="0"
     fit-margin-bottom="0"
     inkscape:window-width="1278"
     inkscape:window-height="782"
     inkscape:window-x="0"
     inkscape:window-y="16"
     inkscape:window-maximized="0"
     showguides="true"
     inkscape:guide-bbox="true" />
  <metadata
     id="metadata7211">
    <rdf:RDF>
      <cc:Work
         rdf:about="">
        <dc:format>image/svg+xml</dc:format>
        <dc:type
           rdf:resource="http://purl.org/dc/dcmitype/StillImage" />
        <dc:title />
      </cc:Work>
    </rdf:RDF>
  </metadata>
  <g
     inkscape:label="Layer 1"
     inkscape:groupmode="layer"
     id="layer1"
     transform="translate(-80.35136,-550.80735)">
    <path
       sodipodi:type="arc"
       style="fill:none;stroke:#000000;stroke-width:1.87983704;stroke-linecap:round;stroke-miterlimit:4;stroke-opacity:1;stroke-dasharray:none;stroke-dashoffset:0"
       id="path7214"
       sodipodi:cx="195.23094"
       sodipodi:cy="549.16132"
       sodipodi:rx="114.11385"
       sodipodi:ry="131.98711"
       d="m 309.3448,549.16132 c 0,72.89446 -51.09052,131.9871 -114.11386,131.9871 -63.02334,0 -114.113852,-59.09264 -114.113852,-131.9871 0,-72.89447 51.090512,-131.98711 114.113852,-131.98711 63.02334,0 114.11386,59.09264 114.11386,131.98711 z"
       transform="matrix(0.57007066,0,0,0.4928736,34.638819,345.66412)" />
    <path
       style="fill:#000000;stroke:none"
       id="path8173"
       d="m 6.4764612,561.97427 c -4.08558,0.64744 -6.89860004,1.2279 -8.48371,1.78604 -2.05396,0.71442 -5.04558,2.0986 -6.02791,2.76837 -0.3572,0.26791 -1.25023,0.82605 -1.94232,1.25023 -1.6297702,0.98233 -5.3134802,4.39814 -6.2511602,5.76 -0.37953,0.58046 -1.27255,1.69674 -1.98697,2.50046 -0.69209,0.80372 -1.65209,2.0986 -2.12093,2.90232 -0.44651,0.80372 -1.16093,1.85302 -1.54046,2.34419 -2.85767,3.61674 -7.025038,8.24111 -10.083644,19.24761 -0.714418,2.52279 -0.99426,6.02343 -2.891933,10.55552 -0.982324,2.36651 -0.821622,6.25264 -0.509064,6.25264 0.06698,0 0.579417,-0.0794 0.713371,-0.68223 0.558139,-2.25488 0.05905,-4.01263 0.885093,-5.95496 1.652091,-3.88464 2.021235,-6.87327 2.713328,-9.35141 3.036279,-10.93953 7.151079,-16.52936 9.807819,-19.67727 0.37953,-0.44651 0.88212,-1.59548 1.217,-2.2206 0.31256,-0.64744 1.42832,-1.57526 2.25436,-2.55758 0.82605,-0.96 1.89768,-2.47762 2.38884,-3.16972 1.07162,-1.49581 4.29793,-4.23147 6.4188602,-5.59333 3.17023,-2.03162 7.51281,-4.00717 10.28118,-4.54299 5.40278,-1.02697 7.59225,-1.03893 11.7001598,-0.88265 6.56371,0.24558 11.95612,1.541 18.07333,4.57727 4.44278,2.21023 11.25103,7.0206 13.48359,9.47641 0.98232,1.11628 3.40334,2.44649 3.40334,2.24556 0,-0.31256 -4.88825,-4.84413 -6.56267,-6.11669 -7.56837,-5.78232 -13.57394,-8.66231 -21.76742,-10.42603 -1.78605,-0.40186 -3.23721,-0.51349 -7.03255,-0.60279 -2.6344198,-0.0447 -5.4027898,0 -6.1395298,0.11163 z"
       inkscape:connector-curvature="0"
       sodipodi:nodetypes="ccccccccccscsccccccccccscccc" />
    <g
       id="g3119"
       transform="matrix(0.99521876,0.09767094,-0.09767094,0.99521876,55.963187,-15.498583)">
      <path
         sodipodi:nodetypes="cccccc"
         inkscape:connector-curvature="0"
         d="m 127.41882,568.31473 c -3.59441,1.60744 -7.41208,3.70604 -7.74697,4.21953 -0.067,0.13395 0.78734,0.46138 1.45711,0.0595 1.71907,-1.00465 6.3933,-3.59813 7.66586,-4.06697 0.58046,-0.22325 0.92353,-0.90417 0.99051,-0.99347 0.20093,-0.33488 -0.1786,-0.20093 -2.36651,0.7814 z"
         id="path8179"
         style="fill:#000000;stroke:none" />
      <path
         sodipodi:nodetypes="ssscccss"
         inkscape:connector-curvature="0"
         d="m 125.40952,570.10077 c 0,0.0446 -1.34547,-0.62951 -0.49706,1.13421 0.84838,1.76372 3.45001,6.32996 3.82954,7.17833 0.37953,0.84837 1.17728,1.22047 1.24426,1.1535 0.067,-0.0447 -0.0625,-1.65061 -0.86625,-3.43665 -0.80372,-1.76372 -2.00631,-3.93971 -2.36352,-4.78808 -0.37954,-0.82605 -1.05674,-1.33061 -1.14604,-1.33061 -0.11163,0 -0.20093,0.0446 -0.20093,0.0893 z"
         id="path8181"
         style="fill:#000000;stroke:none" />
    </g>
    <path
       style="fill:#000000;stroke:none"
       id="path8183"
       d="m 165.38103,565.02699 c -1.24624,1.74953 -1.74992,2.17333 -2.73254,3.92287 -0.38346,0.71899 -0.91431,1.68123 -1.22587,2.16055 -0.2876,0.50329 -0.39265,0.96983 -0.24884,0.96983 0.14379,0 0.6922,0.49529 0.6922,0.39943 0,-0.33553 1.16637,-2.94704 1.38206,-2.94704 0.11983,0 0.95865,0.55123 1.84539,1.24625 2.66025,2.01316 5.75827,3.05328 6.95659,2.28636 0.21569,-0.14379 -0.64627,-0.81242 -1.58096,-0.81242 -1.79746,0.0239 -2.09228,-0.41463 -4.48891,-2.23606 -1.36093,-0.98161 -2.09057,-0.56407 -1.30535,-2.03635 0.62972,-1.68607 1.79442,-3.0199 3.39522,-2.93269 2.49249,0.16776 5.132,2.66188 5.132,4.79488 0,0.83881 -2.13614,2.0499 -2.75926,2.4813 -0.43139,0.28759 0.93943,0.82681 1.25099,0.82681 0.59915,0 2.14735,-1.84458 2.26718,-2.99495 0.23967,-2.01317 -1.74953,-4.60152 -4.55357,-6.01552 -0.67106,-0.33553 -1.60574,-0.59916 -2.10903,-0.59916 -0.79089,0 -0.95865,0.11983 -1.9173,1.48591 z"
       inkscape:connector-curvature="0"
       sodipodi:nodetypes="cccsssccccccscsccsc" />
    <path
       style="fill:#000000;stroke:none"
       id="path8187"
       d="m 5.2843599,579.05332 c -2.23256,0.51349 -3.88465,1.0493 -5.35812996,1.71907 -3.28186004,1.54046 -6.34046004,3.59441 -7.36744004,4.95627 -0.31256,0.40186 -1.27256,1.67442 -2.14325,2.83535 -1.1609299,1.51814 -1.8976799,2.79069 -2.6344199,4.55441 -0.55814,1.33954 -1.22791,2.83535 -1.49581,3.30419 -1.54047,2.85767 -4.28054,9.26958 -6.11123,16.23515 -1.11628,4.21953 -1.80837,6.5384 -2.43349,7.47608 -0.89302,1.38418 -1.52411,3.50362 -1.39016,3.61525 0.0446,0.067 0.77543,0.32594 1.04333,-0.20988 0.26791,-0.51348 0.46892,-1.33109 0.87078,-1.93388 0.82605,-1.27256 1.93934,-4.2354 2.98864,-8.34331 1.58511,-6.22883 4.37574,-13.51589 5.9162,-16.39589 0.24558,-0.46884 0.97041,-2.12985 1.55088,-3.46938 0.64744,-1.56279 1.5731999,-2.99313 2.4215799,-4.13173 0.73674,-0.98232 1.72948,-2.08967 2.15367,-2.64781 2.14325,-2.90232 7.25434004,-5.68558 12.65713,-6.77954 2.79069,-0.55814 3.49469,-0.79032 7.2007401,-0.768 6.22883,0.0446 8.4078,0.73526 11.5557,3.07944 0.62512,0.46884 1.95573,1.53005 3.18364,2.42307 2.47814,1.80837 5.52483,5.08575 7.62343,7.76482 6.56372,8.41674 7.86159,10.45284 9.4467,14.784 0.42419,1.16093 1.16985,2.61358 1.46008,3.35033 0.8707,2.21023 3.17767,7.16056 3.40092,7.85265 0.13395,0.35721 0.35721,0.69209 0.49116,0.73674 0.17861,0.067 0.13396,-0.22325 -0.13395,-0.87069 -0.51349,-1.18326 -3.48279,-8.93023 -4.50976,-11.67627 -1.51814,-4.17488 -2.92465,-6.42976 -7.97023,-12.9265 -4.1972,-5.38046 -6.42976,-7.67999 -10.11348,-10.29208 -1.27255,-0.89303 -2.83534,-2.03163 -3.43813,-2.52279 -2.25488,-1.76372 -5.80465,-2.50047 -11.83255,-2.47814 -3.4604601,0.0223 -4.0855801,0.0893 -7.0325501,0.75907 z"
       inkscape:connector-curvature="0"
       sodipodi:nodetypes="ccccccccccccccccccccccsccccccccc" />
    <path
       style="fill:#000000;stroke:none"
       id="path8189"
       d="m 45.302491,577.2637 c 1.29468,2.0093 6.01697,5.71892 7.51474,7.43799 3.32557,3.81767 7.74272,10.80557 9.92591,15.67254 0.83774,1.89767 1.80241,4.0186 2.13243,4.68837 0.33001,0.66976 0.68542,1.47348 0.78696,1.78604 0.10154,0.31256 0.55849,1.07163 0.99006,1.69674 0.43155,0.60279 0.91389,1.31721 1.06621,1.56279 0.1777,0.22326 0.50771,0.40186 0.76158,0.37954 0.25385,-0.0223 0.78696,0.22325 1.21852,0.51349 0.5585,0.42418 0.78697,0.49116 0.93928,0.2679 0.15232,-0.20093 -0.12693,-0.42418 -0.91389,-0.73674 -0.63465,-0.24558 -1.14237,-0.55814 -1.14237,-0.69209 0,-0.15628 -0.27924,-0.42419 -0.60926,-0.60279 -0.78697,-0.46884 -2.29892,-3.97395 -4.43134,-8.75162 -2.28474,-5.13488 -6.25794,-11.7095 -9.78659,-15.83973 -1.01545,-1.18325 -2.96838,-2.93607 -3.70458,-3.98537 -1.39622,-2.05395 -5.96619,-5.25009 -4.74766,-3.39706 z"
       inkscape:connector-curvature="0"
       sodipodi:nodetypes="cccssccccccsccccc" />
    <path
       style="fill:#000000;stroke:none"
       id="path8191"
       d="m 110.53611,571.39477 c -1.21538,1.05437 -4.1729,4.08804 -4.58511,4.69826 -0.30916,0.45767 -0.25006,0.62173 0.84809,2.04312 1.86076,2.45928 4.72834,5.80777 5.44724,6.37833 0.36611,0.29959 0.68834,0.65447 0.73408,0.78991 0.0381,0.15642 0.26703,0.0496 0.54369,-0.25349 0.26904,-0.2822 1.55508,-1.59596 2.8621,-2.90208 1.31466,-1.32709 2.42137,-2.53982 2.46719,-2.66569 -1.83151,0.69517 -4.14738,4.43173 -5.98089,3.61334 -0.42344,-0.0116 -2.22014,-1.79172 -2.09795,-2.12739 0.0535,-0.14685 -0.0594,-0.67085 0.71911,-1.50412 1.8566,-2.03264 1.63639,-2.20784 1.04688,-1.82848 -0.28046,0.18302 -1.00136,0.67895 -1.68638,1.45121 -1.85899,1.73156 -4.30331,-2.27085 -3.50081,-3.34501 0.40834,-0.46908 1.45086,-1.3347 2.32856,-2.17938 2.35834,-2.30141 1.91127,-2.85287 1.82736,-2.88342 -0.042,-0.0153 -0.48841,0.2974 -0.97303,0.71494 z"
       inkscape:connector-curvature="0"
       sodipodi:nodetypes="cccccccccscccccscc" />
    <path
       style="fill:#000000;stroke:none"
       id="path8197"
       d="m 272.47196,588.16001 c 0,0.15627 0.20093,0.66976 0.44651,1.16092 0.58046,1.11628 0.58046,1.11628 -0.24558,1.11628 -0.60279,0 -0.66977,-0.067 -0.51349,-0.51349 0.33488,-1.09395 0.31256,-1.1386 -0.13396,-0.33488 -0.37953,0.71442 -0.58046,0.84837 -1.18325,0.84837 -0.37953,0 -0.84837,0.0893 -1.02698,0.20093 -0.2679,0.17861 -0.15628,0.31256 0.51349,0.71442 0.60279,0.33488 0.7814,0.58047 0.69209,0.84837 -0.40186,0.93768 -0.51348,1.58512 -0.31255,1.58512 0.13395,0 0.58046,-0.26791 1.00465,-0.60279 l 0.78139,-0.58047 1.25023,0.60279 c 0.66977,0.33489 1.29488,0.53582 1.36186,0.46884 0.067,-0.067 -0.0893,-0.62512 -0.33488,-1.22791 l -0.46884,-1.11627 0.80372,-0.44652 0.82605,-0.42418 -1.0493,-0.0223 -1.07163,0 -0.64744,-1.29488 c -0.37954,-0.69209 -0.66977,-1.1386 -0.69209,-0.98232 z m -1.11628,2.94697 c 0,0.37953 -0.067,0.40186 -0.55814,0.1786 -0.60279,-0.2679 -0.53582,-0.62511 0.13395,-0.62511 0.26791,0 0.42419,0.15628 0.42419,0.44651 z m 2.36651,-0.1786 c 0.0893,0.13395 -0.11163,0.46883 -0.49117,0.78139 -0.75906,0.60279 -0.78139,0.60279 -1.29488,0.22326 -0.29023,-0.22326 -0.35721,-0.44652 -0.2679,-0.7814 0.13395,-0.40186 0.33488,-0.49116 1.02697,-0.49116 0.46884,0 0.93767,0.11163 1.02698,0.26791 z m 0.87069,-0.0447 c -0.067,0.11163 -0.22325,0.22326 -0.35721,0.22326 -0.11162,0 -0.20093,-0.11163 -0.20093,-0.22326 0,-0.13395 0.15628,-0.22325 0.35721,-0.22325 0.17861,0 0.26791,0.0893 0.20093,0.22325 z m -0.11162,1.56279 c 0.24558,0.49117 0.40186,0.89303 0.33488,0.89303 -0.067,0 -0.55814,-0.22326 -1.0493,-0.46884 l -0.93768,-0.46884 0.51349,-0.42418 c 0.29023,-0.24558 0.55814,-0.42419 0.60279,-0.42419 0.0447,0 0.29023,0.40186 0.53582,0.89302 z m -2.45582,0.0223 c 0,0.20093 -0.93767,0.89302 -1.0493,0.78139 -0.0446,-0.0447 0.0223,-0.33488 0.17861,-0.64744 0.22325,-0.51349 0.87069,-0.62511 0.87069,-0.13395 z"
       inkscape:connector-curvature="0" />
    <path
       style="fill:#000000;stroke:none"
       id="path8201"
       d="m 181.14773,576.07439 c -1.10643,0.53672 -4.38885,3.4998 -5.40008,4.69986 l -0.59795,0.71848 0.28723,0.46366 c 0.33463,-0.28621 2.04488,-1.58478 3.0888,-2.47319 2.18215,-1.88431 2.70915,-2.63627 4.59954,-2.97216 1.12104,-0.1992 1.04108,0.0312 1.69852,0.41318 2.02018,1.16029 1.93377,2.78415 -0.31586,5.56477 l -0.98113,1.28012 -0.8744,-0.88846 c -1.21225,-1.46258 -3.14786,-3.29547 -3.84927,-3.66969 -1.30195,0.29684 0.0616,0.95047 1.34321,2.03792 0.34824,0.30092 1.08919,1.05512 1.74318,1.80058 1.31969,1.55685 1.18513,0.98669 -0.3869,2.60386 -0.59549,0.60466 -0.46695,1.52811 -0.45133,1.61604 0.0664,0.37368 2.64966,-2.44355 4.21978,-4.58191 1.38936,-1.87948 2.06606,-2.6694 1.99976,-4.06348 -0.0634,-1.1225 -1.2147,-2.52579 -2.2292,-3.00311 -0.845,-0.41674 -2.57939,-0.18819 -3.8939,0.45353 z"
       inkscape:connector-curvature="0"
       sodipodi:nodetypes="cccccsccccccccscccc" />
    <path
       style="fill:#000000;stroke:none"
       id="path8205"
       d="m 100.12548,586.17787 c -0.955215,0.16 -3.400595,1.97478 -4.353495,3.22963 -1.142218,1.50154 -0.350136,1.94594 1.04416,0.37921 1.59868,-1.78567 2.94927,-2.7608 3.869895,-2.48869 1.4987,0.44297 1.71207,0.88941 0.68544,4.52034 -0.59877,2.10449 0.04,2.72395 1.34522,0.82827 0.82687,-1.22226 2.06417,-2.1975 3.12307,-2.62949 0.60633,-0.23984 0.66999,-0.0325 1.61445,0.31654 2.14827,0.84448 1.73317,1.20139 -0.37472,5.02491 -1.10383,2.00178 -1.00798,2.68041 -1.22208,2.61713 -0.61457,-0.20491 -3.78945,-2.14439 -4.84919,-2.96978 -1.915605,-1.47413 -5.743439,-4.11874 -5.860717,-4.037 -0.326532,0.15957 -0.02196,0.9092 1.496142,1.91663 0.93908,0.60348 2.56265,1.8842 3.684185,2.65802 1.12788,0.75241 2.73285,1.73895 3.48947,2.17211 0.77803,0.43949 1.51308,0.75143 1.68678,0.87261 0.41164,0.26135 0.94965,-0.15697 2.22919,-2.59571 1.63191,-3.07955 1.72514,-3.82024 1.63813,-4.70733 -0.11327,-1.03454 -0.36481,-1.36497 -1.49026,-2.04682 -0.78679,-0.48863 -1.0223,-0.55824 -1.80867,-0.41818 -1.07492,0.17117 -1.79368,0.63385 -3.17141,2.06579 l -0.76973,0.93963 0.15084,-1.68128 c 0.71856,-3.13999 0.0613,-4.38187 -2.1567,-3.96655 z"
       inkscape:connector-curvature="0"
       sodipodi:nodetypes="cccsccccccccccccccccccccc" />
    <g
       id="g3123"
       transform="matrix(1.1767189,-0.04870256,0.04870256,1.1767189,-58.640263,-113.59107)">
      <path
         sodipodi:nodetypes="cscccsc"
         inkscape:connector-curvature="0"
         d="m 186.04342,605.35388 c -1.80837,0.93767 -3.61674,1.81408 -4.0186,2.01501 -0.75907,0.37953 -0.91015,1.13184 -0.21806,0.88626 0.20093,-0.0893 1.08771,-0.135 1.6905,-0.49221 0.62512,-0.35721 2.43868,-1.21129 3.88984,-1.94803 2.76837,-1.36186 2.74709,-1.86859 2.32291,-1.86859 -0.13396,0 -1.83589,0.44756 -3.66659,1.40756 z"
         id="path8211"
         style="fill:#000000;stroke:none" />
      <path
         sodipodi:nodetypes="cccc"
         inkscape:connector-curvature="0"
         d="m 184.79204,606.44888 c 0.20093,0.80372 2.31976,5.20908 2.45372,5.09746 0.0893,-0.11163 1.40203,-0.10196 -1.54438,-5.20509 -0.22325,-0.49116 -0.97631,-0.20493 -0.90934,0.10763 z"
         id="path8213"
         style="fill:#000000;stroke:none" />
      <path
         sodipodi:nodetypes="cscsc"
         inkscape:connector-curvature="0"
         d="m 187.30288,610.74057 c -2.07628,1.07162 -3.43919,2.51551 -3.43919,2.60481 0,0.1786 7.15456,-3.13182 7.60107,-3.53368 0.1786,-0.1786 0.0343,-0.50725 -0.0104,-0.50725 -0.067,0 -2.09756,0.38682 -4.15151,1.43612 z"
         id="path8217"
         style="fill:#000000;stroke:none" />
    </g>
    <g
       id="g3142"
       transform="translate(131.14627,0)">
      <path
         inkscape:connector-curvature="0"
         d="m 200.33996,610.1305 c -0.64744,0.55814 -1.20558,1.11628 -1.25023,1.2279 -0.17861,0.40186 0.35721,0.13396 0.98232,-0.51348 0.73675,-0.7814 1.58512,-1.33954 1.31721,-0.82605 -0.26791,0.44651 -1.51814,2.05395 -1.71907,2.21023 -0.0893,0.067 0.067,0.44651 0.35721,0.84837 0.31256,0.42419 0.62512,1.02698 0.69209,1.38419 0.24558,1.09395 0.62512,1.0493 0.44651,-0.0447 -0.20093,-1.20558 -0.49116,-2.0093 -0.71441,-1.96465 -0.51349,0.0893 -0.46884,-0.0893 0.20093,-0.82605 0.87069,-0.96 1.27255,-1.62976 1.29488,-2.16558 0,-0.60279 -0.33488,-0.46883 -1.60744,0.66977 z"
         id="path8215"
         style="fill:#000000;stroke:none" />
      <path
         inkscape:connector-curvature="0"
         d="m 196.52229,611.24678 c 0.1786,0.53581 0.53581,0.96 0.75907,0.96 0.11162,0 0.067,-0.31256 -0.13396,-0.66977 -0.37953,-0.71442 -0.87069,-0.93767 -0.62511,-0.29023 z"
         id="path8219"
         style="fill:#000000;stroke:none" />
      <path
         inkscape:connector-curvature="0"
         d="m 195.89717,613.99282 c -0.82604,0.82605 -1.09395,1.33953 -0.69209,1.33953 0.53581,0 2.03163,-0.58046 2.70139,-1.02697 l 0.7814,-0.53581 0.60279,0.58046 c 0.33488,0.33488 0.71441,0.55814 0.87069,0.49116 0.13396,-0.0446 -0.11162,-0.40186 -0.53581,-0.82604 l -0.78139,-0.75907 -1.00465,0.60279 c -0.53582,0.31256 -1.25024,0.66976 -1.58512,0.80372 l -0.60279,0.22325 0.69209,-0.78139 c 0.37954,-0.44651 0.6921,-0.84837 0.6921,-0.89302 0,-0.26791 -0.33489,-0.0446 -1.13861,0.78139 z"
         id="path8223"
         style="fill:#000000;stroke:none" />
    </g>
    <g
       id="g3134"
       transform="translate(131.14627,0)">
      <path
         inkscape:connector-curvature="0"
         d="m 189.80229,612.87654 c 0.0893,0.29024 0.15628,0.91535 0.15628,1.38419 0,0.87069 0.49117,1.20558 0.73675,0.53581 0.067,-0.1786 0.2679,-0.26791 0.44651,-0.20093 0.20093,0.067 0.31256,-0.0446 0.31256,-0.37953 0,-0.35721 -0.0893,-0.44651 -0.40186,-0.35721 -0.29024,0.11163 -0.53582,-0.0893 -0.91535,-0.69209 -0.33489,-0.58047 -0.44651,-0.66977 -0.33489,-0.29024 z"
         id="path8221"
         style="fill:#000000;stroke:none" />
      <path
         inkscape:connector-curvature="0"
         d="m 193.9102,614.46166 c -0.31256,0.2679 -0.75907,0.60279 -0.98233,0.78139 -0.24558,0.15628 -0.37953,0.35721 -0.29023,0.44651 0.067,0.067 0.44651,-0.0893 0.80372,-0.35721 0.78139,-0.53581 0.84837,-0.46883 0.33488,0.33489 -0.20093,0.29023 -0.31255,0.66976 -0.24558,0.82604 0.0447,0.15628 0.35721,-0.22325 0.66977,-0.87069 0.8707,-1.69675 0.78139,-2.03163 -0.29023,-1.16093 z"
         id="path8225"
         style="fill:#000000;stroke:none" />
      <path
         inkscape:connector-curvature="0"
         d="m 191.23113,615.1091 c 0,0.11163 0.22326,0.22325 0.51349,0.22325 0.40186,0 0.42418,-0.0447 0.15628,-0.22325 -0.42419,-0.29023 -0.66977,-0.29023 -0.66977,0 z"
         id="path8229"
         style="fill:#000000;stroke:none" />
      <path
         inkscape:connector-curvature="0"
         d="m 190.71764,615.68956 c -0.0893,0.0893 -0.15628,0.31256 -0.15628,0.51349 0,0.24558 0.067,0.26791 0.24558,0.0893 0.13396,-0.13395 0.22326,-0.35721 0.15628,-0.51348 -0.0447,-0.13396 -0.15628,-0.17861 -0.24558,-0.0893 z"
         id="path8231"
         style="fill:#000000;stroke:none" />
      <path
         inkscape:connector-curvature="0"
         d="m 189.71299,617.69886 c -1.38418,1.62977 -1.2279,1.80837 0.69209,0.82605 0.64745,-0.31256 1.04931,-0.62512 0.89303,-0.66977 -0.13396,-0.0447 -0.60279,0.067 -1.00465,0.29023 l -0.73675,0.35721 0.64744,-0.66976 c 0.33489,-0.37954 0.58047,-0.80372 0.53582,-0.96 -0.0446,-0.15628 -0.49116,0.22325 -1.02698,0.82604 z"
         id="path8233"
         style="fill:#000000;stroke:none" />
      <path
         inkscape:connector-curvature="0"
         d="m 193.37438,618.1677 c 0.067,0.64744 0.0893,1.18326 0.0446,1.18326 -0.067,0 -0.40186,-0.40186 -0.73674,-0.89303 -0.33488,-0.49116 -0.69209,-0.82604 -0.80372,-0.75907 -0.31256,0.17861 1.16093,1.87535 1.65209,1.87535 0.40186,0 0.42419,-0.11163 0.29023,-1.0493 -0.067,-0.58047 -0.24558,-1.16093 -0.37953,-1.29488 -0.15628,-0.15628 -0.1786,0.13395 -0.067,0.93767 z"
         id="path8235"
         style="fill:#000000;stroke:none" />
    </g>
    <g
       id="g3128"
       transform="translate(131.14627,0)">
      <path
         inkscape:connector-curvature="0"
         d="m 186.76602,619.35096 c -0.51349,1.00465 -0.53582,1.11627 -0.22326,1.11627 0.13396,0 0.22326,-0.13395 0.22326,-0.31255 0,-0.15628 0.15628,-0.44652 0.37953,-0.60279 0.33489,-0.29024 0.35721,-0.22326 0.22326,0.87069 -0.15628,1.29488 0.1786,1.42884 0.42418,0.15628 0.15628,-0.84837 -0.067,-2.12093 -0.37953,-2.12093 -0.11163,0 -0.40186,0.40186 -0.64744,0.89303 z"
         id="path8237"
         style="fill:#000000;stroke:none" />
      <path
         inkscape:connector-curvature="0"
         d="m 184.35486,619.17235 c -0.37954,0.37954 -0.33489,0.69209 0.0893,0.53581 0.1786,-0.067 0.58046,0.0447 0.89302,0.22326 0.29023,0.20093 0.62512,0.29023 0.71442,0.20093 0.0893,-0.0893 0.0223,-0.22326 -0.15628,-0.29023 -0.15628,-0.0447 -0.49116,-0.29023 -0.71442,-0.51349 -0.49116,-0.49116 -0.49116,-0.49116 -0.82604,-0.15628 z"
         id="path8241"
         style="fill:#000000;stroke:none" />
      <path
         inkscape:connector-curvature="0"
         d="m 184.60044,620.66816 c 0.13395,0.58047 0,0.7814 -0.96,1.65209 -1.27256,1.13861 -1.42884,1.71907 -0.49116,1.71907 0.66976,0 2.36651,-0.71442 2.58976,-1.09395 0.22326,-0.33488 0.11163,-0.31256 -1.00465,0.20093 -1.69674,0.75907 -2.03162,0.58046 -0.80372,-0.46884 0.91535,-0.80372 1.0493,-1.00465 1.0493,-1.78604 0,-0.49116 -0.11162,-0.8707 -0.24558,-0.8707 -0.15628,0 -0.20093,0.24558 -0.13395,0.64744 z"
         id="path8245"
         style="fill:#000000;stroke:none" />
      <path
         inkscape:connector-curvature="0"
         d="m 187.41346,622.81142 c 0.51349,0.89302 0.44651,0.96 -0.35721,0.33488 -0.89302,-0.71442 -1.16093,-0.49116 -0.29023,0.22326 0.84837,0.73674 1.33953,0.84837 1.33953,0.33488 0,-0.51349 -0.64744,-1.67442 -0.91535,-1.67442 -0.13395,0 -0.0447,0.35721 0.22326,0.7814 z"
         id="path8247"
         style="fill:#000000;stroke:none" />
    </g>
    <path
       sodipodi:nodetypes="cccccccccscccccscc"
       inkscape:connector-curvature="0"
       d="m 150.08325,559.40841 c -1.60764,-0.0661 -5.84059,0.11323 -6.55908,0.27464 -0.53887,0.12106 -0.60838,0.28097 -0.78401,2.06855 -0.33244,3.06594 -0.54201,7.46951 -0.41018,8.37779 0.061,0.4691 0.0521,0.94836 -0.007,1.07832 -0.0796,0.13996 0.16029,0.21926 0.56954,0.18839 0.38934,-0.0208 2.22628,-0.095 4.07325,-0.14912 1.86692,-0.0642 3.50406,-0.18775 3.62374,-0.24792 -1.80968,-0.75019 -6.05771,0.38086 -6.83081,-1.4722 -0.30022,-0.29885 -0.38688,-2.8266 -0.0678,-2.98707 0.13962,-0.0702 0.41687,-0.52896 1.55492,-0.60146 2.74521,-0.20599 2.70509,-0.48451 2.01589,-0.61273 -0.32963,-0.0592 -1.1944,-0.19264 -2.22257,-0.10046 -2.54045,-0.0145 -1.57437,-4.60397 -0.25365,-4.83533 0.61887,-0.0613 1.97125,0.0237 3.18931,0.0112 3.2947,-0.0575 3.34753,-0.76542 3.30741,-0.84519 -0.02,-0.0398 -0.5594,-0.11854 -1.19844,-0.14701 z"
       id="path8459"
       style="fill:#000000;stroke:none" />
    <g
       id="g3147"
       transform="matrix(1.1159159,0,0,1.1159159,-16.0937,-80.18507)">
      <path
         sodipodi:nodetypes="cccssccccccccscc"
         inkscape:connector-curvature="0"
         d="m 142.35462,587.10534 c -2.29953,0.37953 -6.00557,1.76372 -8.19348,3.10325 -3.23721,2.0093 -6.56371,5.89395 -7.0772,8.32743 -0.24558,1.11628 0.0893,3.12558 0.58046,3.61674 0.22326,0.22326 0.42419,0.51349 0.42419,0.64744 0,0.26791 1.18325,0.89303 1.71907,0.89303 0.22325,0.0223 0.60279,0.33488 0.84837,0.71442 0.82604,1.3172 1.51738,0.91014 0.78064,-0.54102 -0.6028,-1.16093 -1.22715,-1.31201 -1.29413,-0.88782 -0.17861,1.20558 -1.65885,-0.41276 -2.28397,-2.33276 -0.42418,-1.29488 -0.35149,-1.77566 0.56385,-3.71799 0.51349,-1.09395 1.10538,-1.78657 2.64584,-3.30471 2.34419,-2.32186 4.35401,-3.5669 7.61355,-4.77248 5.04557,-1.85302 9.42761,-1.44078 13.93738,0.8141 1.69674,0.84837 3.16033,0.47508 1.48592,-0.39562 -3.21488,-1.69674 -7.9998,-2.74448 -11.75049,-2.16401 z"
         id="path8193"
         style="fill:#000000;stroke:none" />
      <path
         inkscape:connector-curvature="0"
         d="m 141.81881,590.11929 c -0.84837,0.44651 -1.71907,1.40651 -2.23256,2.43348 -0.51349,0.98233 -0.51349,1.02698 -0.15628,2.32186 0.31256,1.11628 0.49116,1.38419 1.31721,1.89767 1.38419,0.89303 3.34883,1.22791 5.11255,0.89303 1.22791,-0.24559 1.54047,-0.40186 2.32186,-1.25024 0.73675,-0.80372 0.89302,-1.1386 0.89302,-1.87534 0,-2.72372 -2.23255,-4.68837 -5.29115,-4.68837 -0.82605,0 -1.71907,0.13395 -1.96465,0.26791 z m 3.70604,0.20093 c 1.74139,0.53581 3.30418,2.45581 3.32651,4.08557 0,0.7814 -0.69209,1.96465 -1.47349,2.47814 -1.27256,0.82605 -5.02325,0.60279 -6.47441,-0.37953 -1.20558,-0.82605 -1.47349,-1.8307 -0.93767,-3.59442 0.29023,-0.93767 1.45116,-2.27721 2.2772,-2.61209 0.66977,-0.29023 2.29954,-0.26791 3.28186,0.0223 z"
         id="path8195"
         style="fill:#000000;stroke:none" />
      <path
         sodipodi:nodetypes="ccccccscccccccccccccccccsccccc"
         inkscape:connector-curvature="0"
         d="m 154.67381,590.66684 c 3.0586,2.43349 5.97272,5.17298 7.44621,7.33856 0.84837,1.25023 1.00984,1.1952 0.67496,2.3338 -0.31256,1.1386 -0.54362,1.71441 -1.81618,2.18324 -1.2279,0.42419 -1.4335,0.81358 -1.27722,0.18846 0.0893,-0.40186 -0.0223,-0.62511 -0.53581,-1.00465 -0.93768,-0.66976 -4.84465,-2.47813 -5.33581,-2.47813 -0.24558,0 -1.18326,-0.20093 -2.0986,-0.44652 -1.02698,-0.29023 -2.61209,-0.49116 -4.21953,-0.55813 l -3.69667,-0.0309 -1.04998,0.54619 c 1.58511,0.17861 8.33301,0.50778 8.89115,0.68638 0.55814,0.17861 1.82213,0.45794 2.73748,0.74817 0.91535,0.2679 2.14144,0.69833 3.07912,1.18949 1.51495,0.78969 2.33143,0.54804 1.09342,1.80889 -1.02673,1.4403 -2.08288,0.64178 -3.16841,0.17625 -3.19256,-1.33953 -4.57674,-1.61834 -9.44371,-1.46207 -3.7507,0.13396 -7.23296,0.63602 -9.93436,1.37277 -1.18325,0.31256 -4.90241,1.6967 -4.74613,1.83065 0.067,0.067 -0.29913,1.11028 0.43761,0.79772 3.08093,-1.36186 8.99118,-3.04517 14.57257,-3.2461 2.46686,0.0794 4.27152,-0.26687 6.47441,0.49415 1.36186,0.44651 3.03628,1.07163 3.72837,1.36186 1.15564,0.56009 1.34617,0.62645 1.96465,-0.24558 0.31256,-0.51349 0.64744,-0.7814 0.98232,-0.7814 2.58977,0 5.40693,-2.77979 4.42461,-4.69979 -1.22791,-2.38883 -7.12571,-7.93672 -9.5592,-9.3209 l 0.2453,0.35745 -1.7473,-0.0677 z"
         id="path8199"
         style="fill:#000000;stroke:none" />
      <path
         sodipodi:nodetypes="ccccscc"
         inkscape:connector-curvature="0"
         d="m 141.3723,598.35742 c -3.34884,0.26791 -7.64348,1.7823 -10.61278,3.32276 -2.18791,1.13861 -1.11927,1.51068 1.33654,0.32743 2.54512,-1.22791 6.95438,-2.85894 10.01298,-2.99289 1.36186,-0.067 2.50046,-0.59032 2.50046,-0.67963 0,-0.20093 -0.66976,-0.20093 -3.2372,0.0223 z"
         id="path8203"
         style="fill:#000000;stroke:none" />
      <path
         sodipodi:nodetypes="ccccccccccccccccccccccccccccscccccccccccccccccccccccccccccccccccccccccccccccccccccccccc"
         inkscape:connector-curvature="0"
         id="path8207"
         d="m 151.08391,605.79183 c -2.01294,0.62641 -3.75382,1.82808 -5.46976,3.01395 -4.06565,-1.67351 -8.57785,-2.7724 -12.95999,-1.84219 -1.92968,0.21702 -3.10114,2.06243 -2.91223,3.91079 -0.01,1.13024 0.3273,2.21627 0.55689,3.31191 -1.63894,1.6653 -3.36231,3.45952 -3.99161,5.76353 -0.46184,2.78712 1.53058,5.368 4.01393,6.4039 2.33418,0.42637 0.42249,2.50089 0.4604,3.99666 -0.15821,1.87677 -0.74588,4.17357 0.85123,5.61903 1.72072,1.38182 4.24929,1.17055 6.20995,0.43877 2.57497,-1.09081 4.59043,-3.10307 6.92306,-4.5847 2.62192,2.08569 5.53178,4.10762 8.94967,4.54242 2.40749,0.35011 5.99053,-0.3161 6.85114,-2.89111 0.54971,-1.87979 0.60522,-3.74993 0.66648,-5.68331 2.28997,-1.86766 3.83674,-4.27793 4.78522,-7.13845 0.96792,-3.15782 -1.07239,-6.71988 -4.20562,-7.66152 -0.51383,-0.27956 -1.4083,-0.29023 -1.18417,-1.09108 -0.004,-2.07823 -0.4154,-4.48152 -2.38264,-5.60867 -2.14259,-1.22192 -4.85825,-1.27102 -7.16195,-0.49993 z m 6.18418,0.89747 c 1.52589,0.91723 2.7637,1.85649 2.56671,3.80802 0.25943,1.15719 0.34894,2.1727 -0.90926,1.24753 -3.52914,-1.11086 -6.90715,-2.11337 -10.60369,-2.3717 -1.23304,0.30478 -2.44914,-0.72064 -0.60609,-1.34206 2.90771,-1.96639 6.13148,-2.97196 9.55233,-1.34179 z m -18.32258,0.8774 c 2.06852,0.37403 3.72969,0.50587 5.58015,1.53485 -0.70652,1.24823 -2.70909,0.63179 -4.14057,1.16656 -3.33598,0.69535 -9.90788,2.91058 -9.83476,4.06617 0.0104,0.16487 14.63082,-6.12133 9.90076,-0.93034 -5.34287,6.7024 -4.464,9.67826 -9.69155,0.26599 -0.36022,-1.8691 -0.84997,-3.94344 0.85624,-5.35129 2.32042,-1.41429 4.75567,-1.08107 7.32973,-0.75194 z m 7.22678,1.93117 c -0.8781,0.49796 -0.75137,-0.82587 0,0 z m 2.42605,2.12761 c 3.29514,2.29974 6.13835,4.78606 8.04464,8.29843 -3.14099,3.28367 -6.17614,6.71754 -9.72034,9.56371 -1.8168,0.16421 -3.67609,0.22073 -4.95548,-1.44743 -6.0302,-6.946 -7.97966,-4.11473 -3.78157,-10.31733 2.14971,-2.39469 3.85704,-5.02188 6.10473,-7.32638 1.31426,-0.89257 3.11529,0.25808 4.30802,1.229 z m 6.73413,-0.2292 c 1.46355,0.72081 3.81879,0.12376 4.3121,1.87557 -0.53038,2.11344 -0.95966,3.81979 -2.29114,5.53913 -0.56975,1.13663 -0.86578,-0.20345 -1.23583,-0.76242 -4.01059,-7.09278 -13.87762,-10.18454 -0.78513,-6.65228 z m 6.96036,2.63813 c 3.11762,1.15775 4.18216,4.67363 2.64714,7.58365 -1.10133,2.26969 -2.3128,3.53122 -4.24714,5.10698 -0.8431,-1.49745 -1.08273,-2.79053 -1.917,-4.33475 -0.43188,-0.90696 -0.53336,-1.64872 -0.96525,-2.55568 2.29358,-2.40338 1.61614,-7.97408 4.48225,-5.8002 z m -31.65627,1.39816 c 4.30998,7.29525 4.03612,3.42421 1.27731,10.32587 -1.4387,0.81899 -2.51293,-0.83923 -3.6367,-1.76976 -1.63213,-1.6574 -1.81193,-3.98738 -0.53805,-5.84826 1.23624,-1.62821 1.68008,-2.73041 2.89744,-2.70785 z m 28.28253,12.46887 c -3.25244,1.55917 -6.09615,1.32754 -9.62384,1.51433 -2.28307,-0.13465 0.81314,-1.75779 1.3466,-2.4541 2.26056,-2.02381 3.8345,-3.78211 6.03554,-5.85855 1.83678,1.29829 3.41143,6.1083 2.2417,6.79832 z m -22.20141,-3.31696 c 1.67151,1.94608 3.52536,3.0001 5.32438,4.82779 -2.55173,-0.42266 -5.13766,-0.73333 -7.55652,-1.71128 -0.77154,-0.26742 -1.54093,-0.54096 -2.31137,-0.81151 1.56288,-3.02266 1.83292,-5.44613 4.54351,-2.305 z m -1.76473,4.1714 c 2.21618,0.8449 4.08174,1.01619 6.37683,1.53559 1.33532,0.45015 2.6594,1.74856 0.30164,2.7383 -2.60216,1.82241 -3.3361,2.98096 -6.74224,2.78507 -1.82971,0.011 -3.46423,-0.45672 -3.26321,-2.48958 0.72583,-6.29793 0.0202,-5.25259 3.32698,-4.56938 z m 25.28444,1.32616 c 0.0764,1.92912 -0.81852,3.74183 -2.68336,4.79439 -2.97106,1.46207 -5.16626,0.44392 -7.93174,-1.07088 -1.14685,-0.84725 -3.49929,-1.09905 -3.7808,-2.40277 0.54847,-0.45724 0.47987,-1.33619 1.27456,-1.31325 3.88805,-0.22027 7.8012,1.04812 11.46554,-0.46743 1.89267,-1.1549 1.23484,0.0615 1.65584,0.45994 z m -14.19905,-0.0893 c -0.27433,0.5071 -1.03172,1.89369 -1.68734,1.08119 -0.75166,-0.3329 -1.7298,-1.36126 -0.12557,-1.12013 0.61735,0.0131 1.22425,-0.17187 1.81291,0.0389 z"
         style="fill:#000000;stroke:none" />
      <path
         sodipodi:nodetypes="ccccccccccscsc"
         inkscape:connector-curvature="0"
         d="m 143.80578,617.80298 -0.42418,0.49116 0.5192,0.0877 c 1.54046,-1.07163 3.5124,-0.0431 3.5124,1.94389 -1.05342,0.9461 -1.38575,1.31443 -2.20091,1.25699 -0.89302,-0.067 -1.27931,-0.25077 -1.30164,-0.25077 -0.26791,-0.11163 -0.73622,-0.87746 -0.7139,-1.68118 0.0446,-0.73674 -0.19469,-0.79853 -0.37329,-0.55295 -0.40186,0.60279 -0.24558,1.71907 0.33488,2.41116 0.42419,0.49117 0.80372,0.66977 1.60744,0.7814 2.18791,0.24558 3.41581,-0.51349 3.41581,-2.14326 0,-0.75906 -0.15628,-1.02697 -0.98232,-1.85302 -0.84837,-0.87069 -1.09396,-0.98232 -1.96465,-0.98232 -0.75907,0 -1.11628,0.11163 -1.42884,0.49116 z"
         id="path8209"
         style="fill:#000000;stroke:none" />
      <path
         sodipodi:nodetypes="ccccccccc"
         inkscape:connector-curvature="0"
         d="m 122.77044,618.75078 c -1.1386,0.84837 -8.27707,8.53251 -10.3087,10.96599 -2.77114,2.67284 -4.52148,6.82257 -6.45261,9.40997 -0.58047,0.82604 -1.90181,3.45836 -1.94646,4.06115 0,0.42419 1.00255,0.25078 1.20348,-0.32969 0.13396,-0.33488 0.88732,-1.76839 1.64638,-2.84002 1.66476,-2.50933 3.11556,-4.83343 4.94433,-7.14574 2.63441,-3.28186 7.66909,-9.26301 11.12955,-12.41092 1.69674,-1.54046 1.34682,-2.84934 -0.21597,-1.71074 z"
         id="path8239"
         style="fill:#000000;stroke:none" />
      <path
         sodipodi:nodetypes="cccccccccccsc"
         inkscape:connector-curvature="0"
         d="m 124.06999,620.24398 c -0.80206,0.9707 -1.62856,2.07008 -2.27097,2.97501 -0.78139,0.93767 -2.88,4.05859 -4.28651,6.64835 -0.46883,0.84837 -1.49529,2.60014 -2.09808,3.60479 -0.58047,0.98233 -1.08876,2.21023 -1.26737,2.70139 -0.1786,0.46884 -0.58046,1.44545 -0.91534,2.0929 -0.31256,0.64744 -0.30219,1.28917 -0.23521,1.35614 0.1786,0.15628 0.82395,0.30632 1.40441,-1.10019 0.29024,-0.66977 0.93716,-1.71335 1.29437,-2.27148 0.33488,-0.55814 1.095,-2.30007 2.03267,-4.08611 2.27721,-4.19721 3.78444,-6.5144 5.65979,-8.97021 1.38418,-1.8307 1.77619,-3.84361 1.39665,-3.84361 -0.0893,0 -0.40186,0.40186 -0.71441,0.89302 z"
         id="path8243"
         style="fill:#000000;stroke:none" />
      <path
         sodipodi:nodetypes="ccccc"
         inkscape:connector-curvature="0"
         d="m 151.44765,635.74087 c 0.37852,1.19892 1.9872,4.18157 2.68115,4.9126 0.47313,0.52635 0.65283,0.0136 -0.13575,-1.47771 -0.5993,-1.14042 -1.53603,-2.38219 -1.72528,-2.99627 -0.41006,-1.14041 -1.16709,-1.5498 -0.82012,-0.43862 z"
         id="path8249"
         style="fill:#000000;stroke:none" />
      <path
         d="m 133.30291,638.22281 c -0.31551,0.58956 -0.42089,1.64202 -1.347,1.29438 -5.83149,-0.22968 -12.79995,-0.31148 -18.63581,-0.13719 -2.04317,1.00904 5.66219,0.89155 7.53135,0.99435 3.88914,0.10622 7.24512,0.11125 11.11869,0.48026 -0.63587,2.51809 -1.18343,3.99371 -2.04358,6.44433 -6.5892,-1.09735 -15.80331,-3.04655 -22.39885,-4.12936 -3.21558,-1.52272 -5.11863,0.45867 -2.13173,1.17154 5.01167,0.83431 16.1959,3.00916 21.20164,3.87236 1.29179,0.35315 3.80104,-0.19776 2.53159,1.85204 -0.24468,1.03078 -0.44557,3.97243 1.58991,2.4988 0.82505,-0.70302 1.85302,-1.46127 1.6957,0.56734 0.85638,5.55008 1.554,10.73118 3.13842,16.12387 0.66432,0.45676 0.81408,0.22817 0.79322,-0.5116 -1.01808,-4.81985 -2.59714,-11.90816 -3.03474,-16.82155 -0.0757,-0.72729 1.16656,-2.12676 1.50722,-1.51785 0.58157,3.75485 0.45717,7.11857 1.20085,10.84847 1.96066,-0.18232 4.324,-5.41311 4.83708,-3.80982 1.18132,1.76765 2.09255,3.20254 3.21682,4.99611 2.14795,-1.79452 3.18271,-4.30419 4.58764,-6.21484 1.49845,1.42292 2.65344,2.30945 4.24072,3.62333 0.84766,-1.39972 1.15485,-3.96901 1.49141,-5.70244 0.0316,-0.62905 -0.17961,-2.19833 -0.68259,-0.66352 -0.69307,1.73076 -0.27342,3.63549 -1.06704,5.08533 -1.58791,-0.88408 -2.82911,-3.75002 -4.5348,-3.08786 -1.14638,2.13778 -2.09807,3.86099 -3.66623,5.71893 -1.45551,-1.50041 -1.93004,-3.27594 -3.30695,-4.94384 -1.19701,-1.26744 -1.87318,1.56538 -2.88116,2.1179 -3.57515,5.79211 -1.11767,-9.70344 -2.9996,-10.09621 -1.91175,0.55966 -2.76141,2.33216 -4.54468,3.27641 -0.71224,-1.06995 0.53989,-3.14223 0.98642,-4.60875 1.03607,-3.10465 1.59938,-6.13428 2.8152,-9.17575 0.32561,-1.33068 -0.80495,-0.45695 -1.20912,0.45483 z"
         id="path8251"
         inkscape:connector-curvature="0"
         sodipodi:nodetypes="ccccccccccccccccccccccccccccccccc"
         style="fill:#000000;stroke:none" />
      <path
         sodipodi:nodetypes="ccccsccccc"
         inkscape:connector-curvature="0"
         d="m 153.97586,640.26301 c 0.11163,0.13395 0.0963,0.67342 0.67674,0.71807 4.22225,1.54776 4.05722,4.19751 6.09755,7.78156 0.53581,1.20558 2.82493,8.94363 3.22679,10.99758 0.91535,4.42046 2.4461,9.77252 2.6247,9.77252 0.11163,0 0.8171,-0.37805 0.75012,-0.73526 -0.0893,-0.33488 -1.35513,-6.00172 -1.71234,-7.72078 -1.58308,-5.86274 -2.78282,-12.11484 -5.76742,-17.36707 -0.40186,-1.11628 -1.59926,-2.32335 -2.35832,-2.72521 -0.64745,-0.35721 -3.80572,-1.03397 -3.53782,-0.72141 z"
         id="path8253"
         style="fill:#000000;stroke:none" />
      <path
         inkscape:connector-curvature="0"
         d="m 156.45841,644.80358 c -0.0223,0.24559 -0.88852,1.56724 -0.50899,2.34864 1.00465,2.14325 2.91859,5.88282 2.91859,6.70886 0,0.69209 0.0584,0.61707 -0.3881,0.21521 -0.4539,-0.33007 -0.66993,-0.15677 -1.14484,-0.34397 -0.46884,-0.24558 -1.91271,-0.53063 -2.56016,-0.77621 -1.47348,-0.55814 -0.77049,0.42833 0.85928,1.14275 2.79187,0.54909 0.1351,2.94497 0.18484,5.04662 -1.09395,5.33581 -1.34163,11.10775 -1.00675,11.10775 0.11163,0 1.12509,-1.59083 1.393,-3.60013 0.29023,-1.98697 0.64225,-4.69979 0.93248,-6.1063 0.31256,-1.40651 0.43613,-2.64793 0.59241,-3.60793 0.37954,-2.47814 0.0525,-2.53317 0.96781,0.68171 0.31256,1.11628 0.86551,2.99734 1.35667,4.20292 1.36186,3.32651 2.31095,5.90642 2.46723,7.08968 0.22326,1.51813 1.15365,1.49633 0.95272,-0.0218 -0.15628,-1.29488 -0.81048,-4.46459 -2.10536,-7.50086 -0.6706,-1.89553 -1.89488,-4.60552 -1.64976,-6.02662 0.58047,0 -0.1072,-1.78785 -1.02255,-4.51157 -1.00465,-2.92465 -2.23852,-6.7185 -2.23852,-6.04874 z"
         id="path8255"
         sodipodi:nodetypes="ccscccccsccccccccccc"
         style="fill:#000000;stroke:none" />
      <path
         style="fill:#000000;stroke:none"
         d="m 145.12487,590.821 c -0.36264,0.11285 -0.67627,0.32934 -0.98541,0.54298 -0.73243,-0.30149 -1.54532,-0.49946 -2.33479,-0.33188 -0.34763,0.0391 -0.55868,0.37156 -0.52465,0.70455 -0.002,0.20361 0.059,0.39926 0.10033,0.59665 -0.29526,0.30001 -0.60573,0.62325 -0.7191,1.03832 -0.0832,0.50211 0.27574,0.96707 0.72312,1.15369 0.42052,0.0768 0.0761,0.45055 0.0829,0.72001 -0.0285,0.33811 -0.13437,0.75189 0.15335,1.01229 0.31,0.24894 0.76554,0.21088 1.11875,0.079 0.46389,-0.19652 0.82699,-0.55903 1.24722,-0.82595 0.47235,0.37574 0.99657,0.74 1.61232,0.81833 0.43372,0.0631 1.07921,-0.057 1.23426,-0.52084 0.099,-0.33865 0.10903,-0.67557 0.12006,-1.02387 0.41255,-0.33647 0.69121,-0.77069 0.86208,-1.28602 0.17438,-0.5689 -0.19319,-1.21062 -0.75766,-1.38026 -0.0926,-0.0504 -0.25371,-0.0523 -0.21333,-0.19656 -5.8e-4,-0.3744 -0.0748,-0.80736 -0.42924,-1.01042 -0.386,-0.22014 -0.87523,-0.22898 -1.29025,-0.0901 z m 1.1141,0.16169 c 0.2749,0.16524 0.49789,0.33445 0.4624,0.68603 0.0468,0.20847 0.0629,0.39142 -0.1638,0.22474 -0.63579,-0.20012 -1.24435,-0.38073 -1.9103,-0.42726 -0.22214,0.0549 -0.44122,-0.12983 -0.10919,-0.24178 0.52384,-0.35426 1.10461,-0.53541 1.72089,-0.24173 z m -3.30088,0.15806 c 0.37265,0.0674 0.67191,0.0911 1.00528,0.27651 -0.12728,0.22487 -0.48805,0.11382 -0.74594,0.21016 -0.60099,0.12527 -1.78494,0.52436 -1.77177,0.73254 0.002,0.0297 2.6358,-1.10278 1.78366,-0.1676 -0.96254,1.20746 -0.80421,1.74357 -1.74597,0.0479 -0.0649,-0.33673 -0.15312,-0.71043 0.15426,-0.96406 0.41803,-0.25479 0.85675,-0.19476 1.32048,-0.13546 z m 1.30193,0.34791 c -0.1582,0.0897 -0.13537,-0.14878 0,0 z m 0.43706,0.3833 c 0.59363,0.4143 1.10585,0.86223 1.44928,1.49499 -0.56587,0.59157 -1.11266,1.21019 -1.75116,1.72294 -0.32731,0.0296 -0.66226,0.0398 -0.89275,-0.26075 -1.08637,-1.25136 -1.43757,-0.74129 -0.68127,-1.85871 0.38728,-0.43142 0.69487,-0.90472 1.09979,-1.31988 0.23678,-0.1608 0.56123,0.0465 0.77611,0.22141 z m 1.21318,-0.0413 c 0.26366,0.12985 0.68797,0.0223 0.77684,0.33789 -0.0956,0.38074 -0.17289,0.68815 -0.41276,0.9979 -0.10264,0.20476 -0.15597,-0.0367 -0.22264,-0.13736 -0.72252,-1.27779 -2.5001,-1.83478 -0.14144,-1.19843 z m 1.25394,0.47527 c 0.56165,0.20857 0.75343,0.84197 0.47689,1.36622 -0.19841,0.4089 -0.41666,0.63616 -0.76514,0.92004 -0.15189,-0.26976 -0.19506,-0.50272 -0.34536,-0.78092 -0.0778,-0.16339 -0.0961,-0.29702 -0.17389,-0.46041 0.4132,-0.43298 0.29116,-1.43657 0.8075,-1.04493 z m -5.70301,0.25188 c 0.77647,1.31427 0.72713,0.61689 0.23012,1.86025 -0.25919,0.14754 -0.45272,-0.15119 -0.65517,-0.31883 -0.29403,-0.29859 -0.32642,-0.71834 -0.0969,-1.05359 0.22272,-0.29332 0.30267,-0.49189 0.52198,-0.48783 z m 5.09521,2.24632 c -0.58594,0.28089 -1.09824,0.23916 -1.73377,0.27281 -0.4113,-0.0242 0.14649,-0.31668 0.2426,-0.44212 0.40725,-0.36459 0.69079,-0.68136 1.08732,-1.05544 0.3309,0.2339 0.61458,1.10044 0.40385,1.22475 z m -3.99966,-0.59757 c 0.30112,0.3506 0.6351,0.54048 0.9592,0.86975 -0.4597,-0.0761 -0.92557,-0.13211 -1.36134,-0.30829 -0.13899,-0.0482 -0.2776,-0.0975 -0.4164,-0.1462 0.28156,-0.54455 0.33021,-0.98114 0.81854,-0.41526 z m -0.31793,0.7515 c 0.39925,0.15221 0.73534,0.18307 1.14881,0.27664 0.24056,0.0811 0.4791,0.31501 0.0544,0.49332 -0.46878,0.32831 -0.601,0.53703 -1.21463,0.50173 -0.32963,0.002 -0.6241,-0.0823 -0.58789,-0.4485 0.13077,-1.1346 0.003,-0.94628 0.59937,-0.82319 z m 4.55509,0.23891 c 0.0138,0.34754 -0.14746,0.67411 -0.48342,0.86373 -0.53524,0.2634 -0.93072,0.08 -1.42893,-0.19292 -0.20661,-0.15264 -0.63041,-0.19801 -0.68113,-0.43287 0.0988,-0.0824 0.0864,-0.24072 0.22962,-0.23659 0.70045,-0.0397 1.40542,0.18882 2.06556,-0.0842 0.34097,-0.20806 0.22246,0.0111 0.29831,0.0829 z m -2.55801,-0.0161 c -0.0494,0.0914 -0.18587,0.34116 -0.30398,0.19478 -0.13542,-0.06 -0.31163,-0.24524 -0.0226,-0.2018 0.11121,0.002 0.22055,-0.0309 0.3266,0.007 z"
         id="path9534"
         inkscape:connector-curvature="0"
         sodipodi:nodetypes="ccccccccccccccccccccccccccccscccccccccccccccccccccccccccccccccccccccccccccccccccccccccc" />
      <path
         style="fill:#000000;stroke:none"
         id="path9536"
         d="m 143.72457,592.9212 -0.12171,0.14093 0.14898,0.0252 c 0.442,-0.30748 1.0078,-0.0124 1.0078,0.55776 -0.30225,0.27146 -0.39761,0.37714 -0.6315,0.36066 -0.25623,-0.0192 -0.36707,-0.072 -0.37348,-0.072 -0.0769,-0.032 -0.21124,-0.25177 -0.20484,-0.48238 0.0128,-0.21139 -0.0559,-0.22912 -0.1071,-0.15865 -0.11531,0.17295 -0.0705,0.49325 0.0961,0.69183 0.12172,0.14093 0.23061,0.19217 0.46122,0.2242 0.62778,0.0705 0.9801,-0.14733 0.9801,-0.61496 0,-0.2178 -0.0449,-0.29467 -0.28186,-0.53168 -0.24342,-0.24983 -0.31389,-0.28186 -0.56371,-0.28186 -0.2178,0 -0.3203,0.032 -0.40998,0.14093 z"
         inkscape:connector-curvature="0"
         sodipodi:nodetypes="ccccccccccscsc" />
    </g>
  </g>
</svg>
